#####################################################################
# Alchemist log file - simulation started at: 2017-02-14T17:54+0000 #
#####################################################################
# seed = 22.0
#
# The columns have the following meaning: 
# time go-co-to[Mean] go-co-tsync[Mean] go-cmp-to[Mean] go-cmp-tsync[Mean] flex-co-to[Mean] flex-co-tsync[Mean] flex-cmp-to[Mean] flex-cmp-tsync[Mean] 
0.0 NaN NaN NaN NaN NaN NaN NaN NaN 
1.0030911245568892 NaN NaN NaN NaN NaN NaN NaN NaN 
2.0030061984329506 NaN NaN NaN NaN NaN NaN NaN NaN 
3.003091124556889 NaN NaN NaN NaN NaN NaN NaN NaN 
4.004973384133581 NaN NaN NaN NaN NaN NaN NaN NaN 
5.003091124556889 NaN NaN NaN NaN NaN NaN NaN NaN 
6.004973384133581 NaN NaN NaN NaN NaN NaN NaN NaN 
7.003091124556889 NaN NaN NaN NaN NaN NaN NaN NaN 
8.004973384133582 NaN NaN NaN NaN NaN NaN NaN NaN 
9.003091124556889 NaN NaN NaN NaN NaN NaN NaN NaN 
10.004973384133582 NaN NaN NaN NaN NaN NaN NaN NaN 
11.003091124556889 NaN NaN NaN NaN NaN NaN NaN NaN 
12.003006198432951 NaN NaN NaN NaN NaN NaN NaN NaN 
13.003091124556889 NaN NaN NaN NaN NaN NaN NaN NaN 
14.004973384133582 NaN NaN NaN NaN NaN NaN NaN NaN 
15.003091124556889 NaN NaN NaN NaN NaN NaN NaN NaN 
16.00497338413358 NaN NaN NaN NaN NaN NaN NaN NaN 
17.00309112455689 NaN NaN NaN NaN NaN NaN NaN NaN 
18.00497338413358 NaN NaN NaN NaN NaN NaN NaN NaN 
19.00309112455689 NaN NaN NaN NaN NaN NaN NaN NaN 
20.00497338413358 NaN NaN NaN NaN NaN NaN NaN NaN 
21.00309112455689 1.0 1.0 1.0 1.0 1.0 1.0 1.0 1.0 
22.00300619843295 1.0 1.0 1.0 1.0 1.0 1.0 1.0 1.0 
23.00309112455689 1.0 1.0 1.0 1.0 1.0 1.0 1.0 1.0 
24.00497338413358 1.0 1.0 1.0 1.0 1.0 1.0 1.0 1.0 
25.00309112455689 1.0 1.0 1.0 1.0 1.0 1.0 1.0 1.0 
26.00497338413358 1.0 1.0 1.0 1.0 1.0 1.0 1.0 1.0 
27.00309112455689 0.9607843137254902 0.9607843137254902 0.9607843137254902 0.9607843137254902 0.9607843137254902 0.9607843137254902 0.9607843137254902 0.9607843137254902 
28.00497338413358 0.9607843137254902 0.9607843137254902 0.9607843137254902 0.9607843137254902 0.9607843137254902 0.9607843137254902 0.9607843137254902 0.9607843137254902 
29.00309112455689 0.9607843137254902 0.9607843137254902 0.9607843137254902 0.9607843137254902 0.9607843137254902 0.9607843137254902 0.9607843137254902 0.9607843137254902 
30.00497338413358 0.9607843137254902 0.9607843137254902 0.9607843137254902 0.9607843137254902 0.9607843137254902 0.9607843137254902 0.9607843137254902 0.9607843137254902 
31.00309112455689 0.9607843137254902 0.9607843137254902 0.9607843137254902 0.9607843137254902 0.9607843137254902 0.9607843137254902 0.9607843137254902 0.9607843137254902 
32.00300619843295 0.9411764705882353 0.9411764705882353 0.9411764705882353 0.9411764705882353 0.9411764705882353 0.9411764705882353 0.9411764705882353 0.9411764705882353 
33.00309112455689 0.9411764705882353 0.9411764705882353 0.9411764705882353 0.9411764705882353 0.9411764705882353 0.9411764705882353 0.9411764705882353 0.9411764705882353 
34.00497338413358 0.8245920469680585 0.8245920469680585 0.9411764705882353 0.9411764705882353 0.8245920469680585 0.8245920469680585 0.9411764705882353 0.9411764705882353 
35.00309112455689 0.7431451942085461 0.7431451942085461 0.9411764705882353 0.9411764705882353 0.7407497306062983 0.7407497306062983 0.9411764705882353 0.9411764705882353 
36.00497338413358 0.716364750379217 0.716364750379217 0.9411764705882353 0.9411764705882353 0.7330949394680303 0.7330949394680303 0.9411764705882353 0.9411764705882353 
37.00309112455689 0.7075973093838627 0.7075973093838627 0.9411764705882353 0.9411764705882353 0.7272146532039706 0.7272146532039706 0.9411764705882353 0.9411764705882353 
38.00497338413358 0.6688395522276683 0.6688395522276683 0.9411764705882353 0.9411764705882353 0.6607915011149015 0.6607915011149015 0.9411764705882353 0.9411764705882353 
39.00309112455689 0.5906817229755482 0.5906817229755482 0.9411764705882353 0.9411764705882353 0.5917313986146001 0.5917313986146001 0.9411764705882353 0.9411764705882353 
40.00497338413358 0.5140674293196248 0.5140674293196248 0.9411764705882353 0.9411764705882353 0.5251006147716353 0.5251006147716353 0.9411764705882353 0.9411764705882353 
41.00309112455689 0.4595839482358038 0.4595839482358038 0.9411764705882353 0.9411764705882353 0.48668387697498644 0.48668387697498644 0.9411764705882353 0.9411764705882353 
42.00300619843295 0.44416374153150145 0.44416374153150145 0.9411764705882353 0.9411764705882353 0.43145286852386405 0.43145286852386405 0.9411764705882353 0.9411764705882353 
43.00309112455689 0.439546519574204 0.439546519574204 0.9019607843137255 0.9019607843137255 0.4181095660784712 0.4181095660784712 0.9019607843137255 0.9019607843137255 
44.00497338413358 0.3925705901221179 0.3925705901221179 0.7983159349005172 0.7983159349005172 0.45098533581304207 0.45098533581304207 0.7983159349005172 0.7983159349005172 
45.00309112455689 0.3425409713230698 0.3425409713230698 0.7519652040250258 0.7519652040250258 0.42989966034469873 0.42989966034469873 0.7465852593725008 0.7465852593725008 
46.00497338413358 0.4596836684993453 0.4596836684993453 0.7376360867455791 0.7376360867455791 0.37686987895900864 0.37686987895900864 0.7393095232891407 0.7393095232891407 
47.00309112455689 0.5254656496466722 0.5254656496466722 0.6545248032037572 0.6545248032037572 0.31478121719367075 0.31478121719367075 0.6654258008318419 0.6654258008318419 
48.00497338413358 0.5543061329192017 0.5543061329192017 0.5684703018549283 0.5684703018549283 0.31911019907170635 0.31911019907170635 0.5725009511060293 0.5725009511060293 
49.00309112455689 0.6112476692806242 0.6112476692806242 0.5562344373486492 0.5562344373486492 0.3418762809107202 0.3418762809107202 0.5580087172918994 0.5580087172918994 
50.00497338413358 0.662524758808262 0.662524758808262 0.43925300617713064 0.43925300617713064 0.4124773400189115 0.4124773400189115 0.44995125417999704 0.44995125417999704 
51.00309112455689 0.6903114527877647 0.6903114527877647 0.42701581882059625 0.42701581882059625 0.4041955695951469 0.4041955695951469 0.4131500403839817 0.4131500403839817 
52.00300619843295 0.6247193538279929 0.6247193538279929 0.4187408840031259 0.4187408840031259 0.41775367181660356 0.41775367181660356 0.39792808877182345 0.39792808877182345 
53.00309112455689 0.5857177930538678 0.5857177930538678 0.3722454376314838 0.3722454376314838 0.39889476415596864 0.39889476415596864 0.37207216397088116 0.37207216397088116 
54.00497338413358 0.6273515877098106 0.6273515877098106 0.3515753228605898 0.3515753228605898 0.3914210982040791 0.3914210982040791 0.3821195076844688 0.3821195076844688 
55.00309112455689 0.6115738514451742 0.6115738514451742 0.3601878295286334 0.3601878295286334 0.428559165098993 0.428559165098993 0.36309229511495833 0.36309229511495833 
56.00497338413358 0.5789859892722717 0.5789859892722717 0.3276300348886114 0.3276300348886114 0.46106412968394933 0.46106412968394933 0.3387873826167262 0.3387873826167262 
57.00309112455689 0.5998362891197275 0.5998362891197275 0.2878573381090066 0.2878573381090066 0.4793205980990554 0.4793205980990554 0.29848736460944775 0.29848736460944775 
58.00497338413358 0.6839446883393625 0.6839446883393625 0.326807237183826 0.326807237183826 0.46568728961766465 0.46568728961766465 0.3089556791328551 0.3089556791328551 
59.00309112455689 0.6418896803179677 0.6418896803179677 0.28326406424761047 0.28326406424761047 0.4361213291583774 0.4361213291583774 0.3433693516249331 0.3433693516249331 
60.00497338413358 0.6128206463378972 0.6128206463378972 0.2484923766260917 0.2484923766260917 0.3883753439513989 0.3883753439513989 0.350291892453636 0.350291892453636 
61.00309112455689 0.6791888575775301 0.6791888575775301 0.3064627373297902 0.3064627373297902 0.41138889549381424 0.41138889549381424 0.3848644304915351 0.3848644304915351 
62.00300619843295 0.6621261158302116 0.6621261158302116 0.3326747858410584 0.3326747858410584 0.4192814728829373 0.4192814728829373 0.4170611698719502 0.4170611698719502 
63.00309112455689 0.6829564104240622 0.6829564104240622 0.29713782684885065 0.29713782684885065 0.39306226076545975 0.39306226076545975 0.3927855474145545 0.3927855474145545 
64.00497338413358 0.7003564394827594 0.7003564394827594 0.3200767579752601 0.3200767579752601 0.4072093148572048 0.4072093148572048 0.4742553550231514 0.4742553550231514 
65.00309112455689 0.6406259932994364 0.6406259932994364 0.28253287833303825 0.28253287833303825 0.4695766550451284 0.4695766550451284 0.5030569726965688 0.5030569726965688 
66.00497338413358 0.6740694431414328 0.6740694431414328 0.36761697933122917 0.36761697933122917 0.4571508746937646 0.4571508746937646 0.5042600030060914 0.5042600030060914 
67.00309112455689 0.7150336879709052 0.7150336879709052 0.4429055107545775 0.4429055107545775 0.4052825685680635 0.4052825685680635 0.49895814445540576 0.49895814445540576 
68.00497338413358 0.7027417545981216 0.7027417545981216 0.44990378382136104 0.44990378382136104 0.35591717636974757 0.35591717636974757 0.540913913831659 0.540913913831659 
69.00309112455689 0.7015047299714828 0.7015047299714828 0.4540814500910071 0.4540814500910071 0.35339704348563317 0.35339704348563317 0.5361628791613642 0.5361628791613642 
70.00497338413358 0.7465719824578625 0.7465719824578625 0.5373534575912232 0.5373534575912232 0.38372780181676946 0.38372780181676946 0.544555152442236 0.544555152442236 
71.00309112455689 0.7306320651771124 0.7306320651771124 0.5725163298233258 0.5725163298233258 0.3549571425684995 0.3549571425684995 0.561923201581937 0.561923201581937 
72.00300619843296 0.6710652391744495 0.6710652391744495 0.5438535651604142 0.5438535651604142 0.3860980862823861 0.3860980862823861 0.5735485149735255 0.5735485149735255 
73.00309112455689 0.7108293184567994 0.7108293184567994 0.5537704493900925 0.5537704493900925 0.3703285855003721 0.3703285855003721 0.5897527597641288 0.5897527597641288 
74.00497338413358 0.7121233982960872 0.7121233982960872 0.6074569891614233 0.6074569891614233 0.37402572895614217 0.37402572895614217 0.5766511331517965 0.5766511331517965 
75.00309112455689 0.6967649463255161 0.6967649463255161 0.610379276485333 0.610379276485333 0.35297099463858295 0.35297099463858295 0.5558576256026198 0.5558576256026198 
76.00497338413358 0.7163698956328585 0.7163698956328585 0.6088651929866148 0.6088651929866148 0.3878475223682742 0.3878475223682742 0.5604751117877251 0.5604751117877251 
77.00309112455689 0.6934630175642389 0.6934630175642389 0.6275282965993907 0.6275282965993907 0.41656996982866507 0.41656996982866507 0.5304132541722789 0.5304132541722789 
78.00497338413358 0.712522971283017 0.712522971283017 0.6235174089125465 0.6235174089125465 0.46226977347015485 0.46226977347015485 0.5096205546014975 0.5096205546014975 
79.00309112455689 0.7507677496989213 0.7507677496989213 0.6410829601740794 0.6410829601740794 0.47495317188374603 0.47495317188374603 0.523294904334868 0.523294904334868 
80.00497338413358 0.7160807165381747 0.7160807165381747 0.651280745112112 0.651280745112112 0.5108275983807258 0.5108275983807258 0.45831857799463743 0.45831857799463743 
81.00309112455689 0.7123076881507497 0.7123076881507497 0.6425902209371174 0.6425902209371174 0.5503634039509101 0.5503634039509101 0.41849768894761546 0.41849768894761546 
82.00300619843296 0.7082975782966014 0.7082975782966014 0.6168722359826433 0.6168722359826433 0.5801446941668041 0.5801446941668041 0.4222454250609126 0.4222454250609126 
83.00309112455689 0.6892373807747292 0.6892373807747292 0.6176305783509011 0.6176305783509011 0.6121744118920145 0.6121744118920145 0.3915897332688608 0.3915897332688608 
84.00497338413358 0.7083266806523689 0.7083266806523689 0.6176305783509011 0.6176305783509011 0.5968606470051522 0.5968606470051522 0.3389655892237452 0.3389655892237452 
85.00309112455689 0.7077790350369865 0.7077790350369865 0.6059344467480259 0.6059344467480259 0.6456462958314062 0.6456462958314062 0.33643434443299813 0.33643434443299813 
86.00497338413358 0.6735586633025614 0.6735586633025614 0.6059344467480259 0.6059344467480259 0.6469343151976329 0.6469343151976329 0.33154557925772576 0.33154557925772576 
87.00309112455689 0.6740705845938287 0.6740705845938287 0.606636299594581 0.606636299594581 0.6617358997785897 0.6617358997785897 0.34323702869132866 0.34323702869132866 
88.00497338413358 0.689201656450614 0.689201656450614 0.606636299594581 0.606636299594581 0.5842338584764598 0.5842338584764598 0.3423357094884088 0.3423357094884088 
89.00309112455689 0.6871342819568873 0.6871342819568873 0.6199893460863676 0.6199893460863676 0.5397000293801316 0.5397000293801316 0.3200428132622723 0.3200428132622723 
90.00497338413358 0.7062235818345273 0.7062235818345273 0.6194037357379037 0.6194037357379037 0.5245551580761908 0.5245551580761908 0.31189253099455827 0.31189253099455827 
91.00309112455689 0.7058823529411764 0.7058823529411764 0.6163897332405485 0.6163897332405485 0.5417869069326094 0.5417869069326094 0.28268204051617635 0.28268204051617635 
92.00300619843296 0.6278309210200537 0.6278309210200537 0.5751552187640787 0.5751552187640787 0.5020405859713978 0.5020405859713978 0.3373312582216672 0.3373312582216672 
93.00309112455689 0.588615234745544 0.588615234745544 0.5484975034420074 0.5484975034420074 0.45008133169918674 0.45008133169918674 0.3603906114558243 0.3603906114558243 
94.00497338413358 0.6078431372549019 0.6078431372549019 0.5582707925371698 0.5582707925371698 0.44166015271678244 0.44166015271678244 0.3237460282388152 0.3237460282388152 
95.00309112455689 0.6029348672024634 0.6029348672024634 0.5582707925371698 0.5582707925371698 0.4237090217083039 0.4237090217083039 0.3412183489253998 0.3412183489253998 
96.00497338413358 0.6029348672024634 0.6029348672024634 0.5637164490317661 0.5637164490317661 0.3708572452822379 0.3708572452822379 0.34826372911776243 0.34826372911776243 
97.00309112455689 0.6078431372549019 0.6078431372549019 0.5641989290390518 0.5641989290390518 0.37453398792552184 0.37453398792552184 0.3495568492251377 0.3495568492251377 
98.00497338413358 0.5919101244165986 0.5919101244165986 0.5641989290390518 0.5641989290390518 0.371777596539311 0.371777596539311 0.3471401359904973 0.3471401359904973 
99.00309112455689 0.556286499481328 0.556286499481328 0.5334835741562197 0.5334835741562197 0.36033687113251867 0.36033687113251867 0.36495287915481683 0.36495287915481683 
100.00497338413358 0.5526116691823764 0.5526116691823764 0.49463778924057034 0.49463778924057034 0.35889079765184534 0.35889079765184534 0.3438058660770047 0.3438058660770047 
101.00309112455689 0.5526116691823764 0.5526116691823764 0.4944475565676504 0.4944475565676504 0.35883999618235185 0.35883999618235185 0.3420857538599223 0.3420857538599223 
102.00300619843296 0.5526116691823764 0.5526116691823764 0.4555563302840492 0.4555563302840492 0.37608218509258484 0.37608218509258484 0.3618372176660331 0.3618372176660331 
103.00309112455689 0.5330038260451215 0.5330038260451215 0.41587568038039857 0.41587568038039857 0.3495367998309962 0.3495367998309962 0.30824785121494036 0.30824785121494036 
104.00497338413358 0.5330038260451215 0.5330038260451215 0.437998482687327 0.437998482687327 0.36351902050201845 0.36351902050201845 0.2820658128710806 0.2820658128710806 
105.00309112455689 0.5330038260451215 0.5330038260451215 0.3983146155442021 0.3983146155442021 0.3418744717358817 0.3418744717358817 0.23722692221347008 0.23722692221347008 
106.00497338413358 0.5330038260451215 0.5330038260451215 0.37792154171323045 0.37792154171323045 0.3534586113837636 0.3534586113837636 0.2015853452118064 0.2015853452118064 
107.00309112455689 0.5124018223559854 0.5124018223559854 0.3996344585745993 0.3996344585745993 0.33031384240580025 0.33031384240580025 0.2068327247592638 0.2068327247592638 
108.00497338413358 0.5124018223559854 0.5124018223559854 0.37604356509685394 0.37604356509685394 0.3324216968714214 0.3324216968714214 0.19304105337697477 0.19304105337697477 
109.00309112455689 0.5132646502540774 0.5132646502540774 0.37245023993837845 0.37245023993837845 0.3283092747547438 0.3283092747547438 0.19055167690238678 0.19055167690238678 
110.00497338413358 0.4962398265151521 0.4962398265151521 0.3842881581664857 0.3842881581664857 0.30281609468159904 0.30281609468159904 0.19184822091170728 0.19184822091170728 
111.00309112455689 0.48417724025803816 0.48417724025803816 0.35717950572766616 0.35717950572766616 0.3194933325962014 0.3194933325962014 0.17737050445779548 0.17737050445779548 
112.00300619843296 0.4420947905025714 0.4420947905025714 0.3343530916589418 0.3343530916589418 0.30181434911155475 0.30181434911155475 0.13707052731675595 0.13707052731675595 
113.00309112455689 0.44003277669564944 0.44003277669564944 0.30506000572101366 0.30506000572101366 0.2517643296709429 0.2517643296709429 0.12877467848774016 0.12877467848774016 
114.00497338413358 0.4807093073650125 0.4807093073650125 0.2810928498318245 0.2810928498318245 0.2613915208800102 0.2613915208800102 0.12653499264341148 0.12653499264341148 
115.00309112455689 0.44871215519604724 0.44871215519604724 0.2612512157789289 0.2612512157789289 0.25019591397118923 0.25019591397118923 0.1247076730347558 0.1247076730347558 
116.00497338413358 0.4671428980210763 0.4671428980210763 0.23888149399253178 0.23888149399253178 0.241311762058684 0.241311762058684 0.12602185819980405 0.12602185819980405 
117.00309112455689 0.5063159619073603 0.5063159619073603 0.23781026179642298 0.23781026179642298 0.24382695839972798 0.24382695839972798 0.10606693269922769 0.10606693269922769 
118.00497338413358 0.40004611307711907 0.40004611307711907 0.24781719465967308 0.24781719465967308 0.30887293733472343 0.30887293733472343 0.1255063226117962 0.1255063226117962 
119.00309112455689 0.3879571853010929 0.3879571853010929 0.22937194620876303 0.22937194620876303 0.33270271121658973 0.33270271121658973 0.1333271793953678 0.1333271793953678 
120.00497338413358 0.45296547651298547 0.45296547651298547 0.2077366916344931 0.2077366916344931 0.31086110375269443 0.31086110375269443 0.1315915031452039 0.1315915031452039 
121.00309112455689 0.4592512737136694 0.4592512737136694 0.21706546735553128 0.21706546735553128 0.2944868691174931 0.2944868691174931 0.12284491502016567 0.12284491502016567 
122.00300619843296 0.4063461652407484 0.4063461652407484 0.22171383166523043 0.22171383166523043 0.24786245104515578 0.24786245104515578 0.11884061722713958 0.11884061722713958 
123.00309112455689 0.4064258326556375 0.4064258326556375 0.23744304740916386 0.23744304740916386 0.24832505122941517 0.24832505122941517 0.11935198308506276 0.11935198308506276 
124.00497338413358 0.4628368869703831 0.4628368869703831 0.257345032876805 0.257345032876805 0.25779164546920413 0.25779164546920413 0.09988746142039814 0.09988746142039814 
125.00309112455689 0.4267146642989175 0.4267146642989175 0.22129438498356588 0.22129438498356588 0.23825788250824476 0.23825788250824476 0.09314911713324495 0.09314911713324495 
126.00497338413358 0.42545035052646984 0.42545035052646984 0.1933064494782807 0.1933064494782807 0.23227055153884477 0.23227055153884477 0.09408604317271563 0.09408604317271563 
127.00309112455689 0.45213005943544193 0.45213005943544193 0.2029746166363418 0.2029746166363418 0.23224666570187513 0.23224666570187513 0.13294145188663867 0.13294145188663867 
128.00497338413356 0.4005124002644705 0.4005124002644705 0.16734164494561962 0.16734164494561962 0.2293350976953305 0.2293350976953305 0.13499095887829565 0.13499095887829565 
129.00309112455687 0.3880544027519487 0.3880544027519487 0.1917282125537251 0.1917282125537251 0.22347489908237061 0.22347489908237061 0.13421063091016214 0.13421063091016214 
130.00497338413356 0.4418106774517685 0.4418106774517685 0.22640697457385517 0.22640697457385517 0.2517692415439823 0.2517692415439823 0.1320540020522195 0.1320540020522195 
131.00309112455687 0.4214263862589624 0.4214263862589624 0.15412977417614196 0.15412977417614196 0.2902931247697485 0.2902931247697485 0.14488884504082655 0.14488884504082655 
132.00300619843296 0.3955143243916433 0.3955143243916433 0.1533011546109194 0.1533011546109194 0.31273791932332456 0.31273791932332456 0.16374563968844771 0.16374563968844771 
133.00309112455687 0.40961142489642455 0.40961142489642455 0.20071589289620287 0.20071589289620287 0.3531846621934759 0.3531846621934759 0.16588320278172627 0.16588320278172627 
134.00497338413356 0.4159156436264887 0.4159156436264887 0.16904008876287036 0.16904008876287036 0.3523217479549768 0.3523217479549768 0.17903652240789142 0.17903652240789142 
135.00309112455687 0.39630780048923375 0.39630780048923375 0.1432477105682437 0.1432477105682437 0.3258166690056051 0.3258166690056051 0.19632116785098402 0.19632116785098402 
136.00497338413356 0.3939107802840072 0.3939107802840072 0.14373278046062482 0.14373278046062482 0.3470349508313404 0.3470349508313404 0.1873321237773045 0.1873321237773045 
137.00309112455687 0.3951833208413224 0.3951833208413224 0.14403404438278897 0.14403404438278897 0.38404527695410373 0.38404527695410373 0.1873321237773045 0.1873321237773045 
138.00497338413356 0.3964097402457522 0.3964097402457522 0.1554564433261905 0.1554564433261905 0.36592339959363357 0.36592339959363357 0.19893282716810265 0.19893282716810265 
139.00309112455687 0.35548196004048666 0.35548196004048666 0.14581317900233617 0.14581317900233617 0.34748136849082156 0.34748136849082156 0.23446746514158912 0.23446746514158912 
140.00497338413356 0.35697653360864773 0.35697653360864773 0.12423344443402345 0.12423344443402345 0.34819521476732956 0.34819521476732956 0.25988752944299065 0.25988752944299065 
141.00309112455687 0.35697653360864773 0.35697653360864773 0.12222374306845889 0.12222374306845889 0.34686921014466865 0.34686921014466865 0.26650418820548244 0.26650418820548244 
142.00300619843296 0.32033978923673734 0.32033978923673734 0.13169189816189578 0.13169189816189578 0.33033225490856266 0.33033225490856266 0.2666898932486216 0.2666898932486216 
143.00309112455687 0.313009104017562 0.313009104017562 0.1027394327019687 0.1027394327019687 0.31178980882972446 0.31178980882972446 0.2668382447410128 0.2668382447410128 
144.00497338413356 0.3496458483894723 0.3496458483894723 0.11140410822453446 0.11140410822453446 0.3198623837346696 0.3198623837346696 0.26724453880110527 0.26724453880110527 
145.00309112455687 0.35697653360864773 0.35697653360864773 0.14269624668517222 0.14269624668517222 0.32684062592044116 0.32684062592044116 0.2669775866785966 0.2669775866785966 
146.00497338413356 0.3373686904713928 0.3373686904713928 0.10992430332150617 0.10992430332150617 0.32138978840142834 0.32138978840142834 0.21335473655536372 0.21335473655536372 
147.00309112455687 0.3373686904713928 0.3373686904713928 0.09309937805050884 0.09309937805050884 0.30178194526417346 0.30178194526417346 0.16716080809508238 0.16716080809508238 
148.00497338413356 0.3180976784184608 0.3180976784184608 0.10506814767544073 0.10506814767544073 0.24701784881504818 0.24701784881504818 0.18854659792932962 0.18854659792932962 
149.00309112455687 0.3184906334354716 0.3184906334354716 0.08577156370132244 0.08577156370132244 0.2216796313179602 0.2216796313179602 0.19128708977518533 0.19128708977518533 
150.00497338413356 0.3184906334354716 0.3184906334354716 0.08459462334397963 0.08459462334397963 0.21950349696868784 0.21950349696868784 0.19151053481745367 0.19151053481745367 
151.00309112455687 0.3184906334354716 0.3184906334354716 0.10865902507444543 0.10865902507444543 0.20155971823828384 0.20155971823828384 0.1713530080787374 0.1713530080787374 
152.00300619843296 0.2985757053990713 0.2985757053990713 0.09093002080943623 0.09093002080943623 0.16114406695571545 0.16114406695571545 0.16816769673161555 0.16816769673161555 
153.00309112455687 0.2985757053990713 0.2985757053990713 0.08157672383644905 0.08157672383644905 0.16291309188557196 0.16291309188557196 0.1683079314404568 0.1683079314404568 
154.00497338413356 0.2988827902982168 0.2988827902982168 0.09277024332943248 0.09277024332943248 0.17810229300758446 0.17810229300758446 0.1686785755093216 0.1686785755093216 
155.00309112455687 0.2988827902982168 0.2988827902982168 0.08750118710507898 0.08750118710507898 0.13175965933292277 0.13175965933292277 0.14833819115756217 0.14833819115756217 
156.00497338413356 0.2988827902982168 0.2988827902982168 0.08745797559615416 0.08745797559615416 0.13257430091641503 0.13257430091641503 0.1595662374040383 0.1595662374040383 
157.00309112455687 0.2988827902982168 0.2988827902982168 0.10143571504839083 0.10143571504839083 0.15019844233615495 0.15019844233615495 0.1707652559535557 0.1707652559535557 
158.00497338413356 0.2792902595769314 0.2792902595769314 0.0906438088851479 0.0906438088851479 0.15723125801419469 0.15723125801419469 0.17032159255567184 0.17032159255567184 
159.00309112455687 0.27993234544998763 0.27993234544998763 0.0883700863576986 0.0883700863576986 0.1585478148526025 0.1585478148526025 0.13679228871867138 0.13679228871867138 
160.00497338413356 0.27993234544998763 0.27993234544998763 0.09938205224294246 0.09938205224294246 0.16980727402949167 0.16980727402949167 0.11724919525868738 0.11724919525868738 
161.00309112455687 0.27993234544998763 0.27993234544998763 0.09057398421732307 0.09057398421732307 0.1822072836045079 0.1822072836045079 0.10804314092128045 0.10804314092128045 
162.00300619843296 0.27993234544998763 0.27993234544998763 0.0908486587434462 0.0908486587434462 0.19691669356064256 0.19691669356064256 0.09030880073076421 0.09030880073076421 
163.00309112455687 0.27993234544998763 0.27993234544998763 0.10426974306385157 0.10426974306385157 0.18191001864861284 0.18191001864861284 0.09054625318742676 0.09054625318742676 
164.00497338413356 0.27993234544998763 0.27993234544998763 0.09553446955648223 0.09553446955648223 0.16212372720728424 0.16212372720728424 0.08970999810229083 0.08970999810229083 
165.00309112455687 0.27993234544998763 0.27993234544998763 0.0905088279163212 0.0905088279163212 0.1451369069309792 0.1451369069309792 0.08865961731332393 0.08865961731332393 
166.00497338413356 0.27993234544998763 0.27993234544998763 0.09864089128139664 0.09864089128139664 0.15075319644668989 0.15075319644668989 0.08957208027159623 0.08957208027159623 
167.00309112455687 0.27993234544998763 0.27993234544998763 0.07520410213339729 0.07520410213339729 0.15610625394106784 0.15610625394106784 0.07323903076814602 0.07323903076814602 
168.00497338413356 0.2801335861938316 0.2801335861938316 0.07487930291687823 0.07487930291687823 0.16953228728444927 0.16953228728444927 0.0649695107357366 0.0649695107357366 
169.00309112455687 0.2613993693515015 0.2613993693515015 0.08717473977854066 0.08717473977854066 0.18947178690751543 0.18947178690751543 0.08170127979262778 0.08170127979262778 
170.00497338413356 0.2613993693515015 0.2613993693515015 0.06023131092868657 0.06023131092868657 0.1901730811541306 0.1901730811541306 0.08262789537545827 0.08262789537545827 
171.00309112455687 0.2613993693515015 0.2613993693515015 0.05956746721313399 0.05956746721313399 0.17491306529186926 0.17491306529186926 0.0819640516599057 0.0819640516599057 
172.00300619843296 0.2613993693515015 0.2613993693515015 0.07927635023610276 0.07927635023610276 0.15262945652990062 0.15262945652990062 0.06800412412189005 0.06800412412189005 
173.00309112455687 0.2613993693515015 0.2613993693515015 0.07495452241031537 0.07495452241031537 0.1559577936270918 0.1559577936270918 0.07885380723812882 0.07885380723812882 
174.00497338413356 0.2613993693515015 0.2613993693515015 0.07573370271109467 0.07573370271109467 0.12131154948876657 0.12131154948876657 0.07963298753890814 0.07963298753890814 
175.00309112455687 0.2613993693515015 0.2613993693515015 0.09606750236773935 0.09606750236773935 0.12264187696070976 0.12264187696070976 0.08086084027237896 0.08086084027237896 
176.00497338413356 0.2613993693515015 0.2613993693515015 0.07679152883603975 0.07679152883603975 0.12270572840091576 0.12270572840091576 0.08134966596471876 0.08134966596471876 
177.00309112455687 0.2613993693515015 0.2613993693515015 0.07680010730330811 0.07680010730330811 0.11759158267189723 0.11759158267189723 0.08134966596471876 0.08134966596471876 
178.00497338413356 0.25913051651977537 0.25913051651977537 0.09215334251872304 0.09215334251872304 0.1288885769727142 0.1288885769727142 0.0774269276484341 0.0774269276484341 
179.00309112455687 0.25625153763875763 0.25625153763875763 0.10149976226083461 0.10149976226083461 0.14299236385620598 0.14299236385620598 0.06458448378336162 0.06458448378336162 
180.00497338413356 0.25625153763875763 0.25625153763875763 0.10149528500485748 0.10149528500485748 0.14412735292392234 0.14412735292392234 0.0645800065273845 0.0645800065273845 
181.00309112455687 0.25625153763875763 0.25625153763875763 0.06995186255852466 0.06995186255852466 0.1269410887266515 0.1269410887266515 0.06415747431712542 0.06415747431712542 
182.00300619843296 0.25625153763875763 0.25625153763875763 0.05073995213990473 0.05073995213990473 0.10738108430740398 0.10738108430740398 0.06637366913697972 0.06637366913697972 
183.00309112455687 0.25625153763875763 0.25625153763875763 0.05798981080271585 0.05798981080271585 0.09719858554585148 0.09719858554585148 0.05884371645376421 0.05884371645376421 
184.00497338413356 0.25625153763875763 0.25625153763875763 0.0612033575910203 0.0612033575910203 0.10041213233415591 0.10041213233415591 0.06205726324206867 0.06205726324206867 
185.00309112455687 0.25625153763875763 0.25625153763875763 0.057090370505441246 0.057090370505441246 0.10165361221890114 0.10165361221890114 0.06329874312681387 0.06329874312681387 
186.00497338413356 0.25625153763875763 0.25625153763875763 0.08315558638081098 0.08315558638081098 0.10202045841804798 0.10202045841804798 0.06329874312681387 0.06329874312681387 
187.00309112455687 0.25625153763875763 0.25625153763875763 0.08315558638081098 0.08315558638081098 0.10202045841804798 0.10202045841804798 0.051889478110126376 0.051889478110126376 
188.00497338413356 0.25641825514294875 0.25641825514294875 0.09148259072250822 0.09148259072250822 0.10269574649260768 0.10269574649260768 0.05256476618468609 0.05256476618468609 
189.00309112455687 0.2560115587226658 0.2560115587226658 0.09800413870427152 0.09800413870427152 0.12496714575701977 0.12496714575701977 0.07483616544909819 0.07483616544909819 
190.00497338413356 0.2560115587226658 0.2560115587226658 0.11963491223294281 0.11963491223294281 0.12528343840193115 0.12528343840193115 0.0792215013813436 0.0792215013813436 
191.00309112455687 0.2560115587226658 0.2560115587226658 0.15925811585226 0.15925811585226 0.14006312886125222 0.14006312886125222 0.09330258487959572 0.09330258487959572 
192.00300619843296 0.2560115587226658 0.2560115587226658 0.16772908818354054 0.16772908818354054 0.13995898215258235 0.13995898215258235 0.08708705010603951 0.08708705010603951 
193.00309112455687 0.2560115587226658 0.2560115587226658 0.16979222947262948 0.16979222947262948 0.13926037519151344 0.13926037519151344 0.09730120824879748 0.09730120824879748 
194.00497338413356 0.2560115587226658 0.2560115587226658 0.16134211368469684 0.16134211368469684 0.16130344555664644 0.16130344555664644 0.09766329751818076 0.09766329751818076 
195.00309112455687 0.2560115587226658 0.2560115587226658 0.17790052414757265 0.17790052414757265 0.15825638778652223 0.15825638778652223 0.09461623974805652 0.09461623974805652 
196.00497338413356 0.2560115587226658 0.2560115587226658 0.19748899943657858 0.19748899943657858 0.15825638778652223 0.15825638778652223 0.09461623974805652 0.09461623974805652 
197.00309112455687 0.2560115587226658 0.2560115587226658 0.17974118180503965 0.17974118180503965 0.15825638778652223 0.15825638778652223 0.09461623974805652 0.09461623974805652 
198.00497338413356 0.25626022249760555 0.25626022249760555 0.1860911997345022 0.1860911997345022 0.13381801012433212 0.13381801012433212 0.09242987799798572 0.09242987799798572 
199.00309112455687 0.2204410371530055 0.2204410371530055 0.1680198320214411 0.1680198320214411 0.12320014309178387 0.12320014309178387 0.05244073660040308 0.05244073660040308 
200.00497338413356 0.2204410371530055 0.2204410371530055 0.14868734915827353 0.14868734915827353 0.123748456706746 0.123748456706746 0.059258504150675885 0.059258504150675885 
201.00309112455687 0.20083319401575062 0.20083319401575062 0.12977811298208755 0.12977811298208755 0.12444706366781498 0.12444706366781498 0.059957111111744815 0.059957111111744815 
202.00300619843296 0.20083319401575062 0.20083319401575062 0.14892749349462026 0.14892749349462026 0.1292430461654871 0.1292430461654871 0.0534515784347454 0.0534515784347454 
203.00309112455687 0.1812253508784957 0.1812253508784957 0.13152368283897356 0.13152368283897356 0.10963520302823221 0.10963520302823221 0.05110360348606631 0.05110360348606631 
204.00497338413356 0.1812253508784957 0.1812253508784957 0.12699753892246193 0.12699753892246193 0.08869292539497467 0.08869292539497467 0.04624385211966954 0.04624385211966954 
205.00309112455687 0.1812253508784957 0.1812253508784957 0.14205337462942957 0.14205337462942957 0.08867498657236902 0.08867498657236902 0.04622591329706391 0.04622591329706391 
206.00497338413356 0.1812253508784957 0.1812253508784957 0.14205337462942957 0.14205337462942957 0.0778606018741513 0.0778606018741513 0.04622591329706391 0.04622591329706391 
207.00309112455687 0.1812253508784957 0.1812253508784957 0.14205337462942957 0.14205337462942957 0.0778606018741513 0.0778606018741513 0.04622591329706391 0.04622591329706391 
208.00497338413356 0.18160159938598158 0.18160159938598158 0.14242962313691546 0.14242962313691546 0.07421061584993517 0.07421061584993517 0.04441380727753714 0.04441380727753714 
209.00309112455687 0.18213725900835287 0.18213725900835287 0.14296528275928677 0.14296528275928677 0.054387364221979 0.054387364221979 0.04419839878683586 0.04419839878683586 
210.00497338413356 0.18213725900835287 0.18213725900835287 0.14686630601570502 0.14686630601570502 0.048241633851935785 0.048241633851935785 0.048241633851935785 0.048241633851935785 
211.00309112455687 0.18213725900835287 0.18213725900835287 0.14686630601570502 0.14686630601570502 0.048241633851935785 0.048241633851935785 0.02863379071468089 0.02863379071468089 
212.00300619843296 0.14770758617153495 0.14770758617153495 0.1124468330427487 0.1124468330427487 0.04750780840156647 0.04750780840156647 0.027899965264311564 0.027899965264311564 
213.00309112455687 0.14770758617153495 0.14770758617153495 0.1124468330427487 0.1124468330427487 0.027899965264311564 0.027899965264311564 0.027899965264311564 0.027899965264311564 
214.00497338413356 0.16138342746158055 0.16138342746158055 0.13400125805748164 0.13400125805748164 0.03279112312062055 0.03279112312062055 0.024303854553267827 0.024303854553267827 
215.00309112455687 0.14177558432432566 0.14177558432432566 0.11439341492022675 0.11439341492022675 0.032449972674828374 0.032449972674828374 0.04357054724473057 0.04357054724473057 
216.00497338413356 0.1429215727338431 0.1429215727338431 0.12553969030676956 0.12553969030676956 0.032434702874520806 0.032434702874520806 0.04355527744442298 0.04355527744442298 
217.00309112455687 0.1429215727338431 0.1429215727338431 0.12553969030676956 0.12553969030676956 0.032434702874520806 0.032434702874520806 0.04355527744442298 0.04355527744442298 
218.00497338413356 0.10719452924670426 0.10719452924670426 0.10719452924670426 0.10719452924670426 0.03461126391482925 0.03461126391482925 0.045731838484731446 0.045731838484731446 
219.00309112455687 0.08838955890954084 0.08838955890954084 0.08838955890954084 0.08838955890954084 0.05374239224655347 0.05374239224655347 0.06486296681645566 0.06486296681645566 
220.00497338413356 0.1057714413366143 0.1057714413366143 0.08854739692541484 0.08854739692541484 0.04499093582725668 0.04499093582725668 0.06459877896451158 0.06459877896451158 
221.00309112455687 0.1057714413366143 0.1057714413366143 0.08854739692541484 0.08854739692541484 0.04499093582725668 0.04499093582725668 0.06459877896451158 0.06459877896451158 
222.00300619843296 0.08791281243254484 0.08791281243254484 0.06893955378816 0.06893955378816 0.07212514623343429 0.07212514623343429 0.0829002609662793 0.0829002609662793 
223.00309112455687 0.08791281243254484 0.08791281243254484 0.06893955378816 0.06893955378816 0.07212514623343429 0.07212514623343429 0.0829002609662793 0.0829002609662793 
224.00497338413356 0.07635274295593214 0.07635274295593214 0.05912869854473271 0.05912869854473271 0.08670826505798719 0.08670826505798719 0.10631610819524212 0.10631610819524212 
225.00309112455687 0.07635274295593214 0.07635274295593214 0.05912869854473271 0.05912869854473271 0.0671004219207323 0.0671004219207323 0.08670826505798719 0.08670826505798719 
226.00497338413356 0.08552901370648937 0.08552901370648937 0.06830236853993239 0.06830236853993239 0.047489978028119856 0.047489978028119856 0.08670566430262969 0.08670566430262969 
227.00309112455687 0.08552901370648937 0.08552901370648937 0.06830236853993239 0.06830236853993239 0.047489978028119856 0.047489978028119856 0.08670566430262969 0.08670566430262969 
228.00497338413356 0.0598994527624352 0.0598994527624352 0.0598994527624352 0.0598994527624352 0.04826333300117987 0.04826333300117987 0.08747901927568968 0.08747901927568968 
229.00309112455687 0.06084606488389571 0.06084606488389571 0.06084606488389571 0.06084606488389571 0.04920994512264036 0.04920994512264036 0.08842563139715016 0.08842563139715016 
230.00497338413356 0.08733501157879399 0.08733501157879399 0.0609722199214328 0.0609722199214328 0.04877430583602139 0.04877430583602139 0.08798999211053121 0.08798999211053121 
231.00309112455687 0.08733501157879399 0.08733501157879399 0.0609722199214328 0.0609722199214328 0.04877430583602139 0.04877430583602139 0.08798999211053121 0.08798999211053121 
232.00300619843296 0.08733501157879399 0.08733501157879399 0.0609722199214328 0.0609722199214328 0.04856736494802856 0.04856736494802856 0.08778305122253836 0.08778305122253836 
233.00309112455687 0.08733501157879399 0.08733501157879399 0.0609722199214328 0.0609722199214328 0.04856736494802856 0.04856736494802856 0.08778305122253836 0.08778305122253836 
234.00497338413356 0.0702345214497741 0.0702345214497741 0.0609722199214328 0.0609722199214328 0.04856736494802856 0.04856736494802856 0.06817520808528346 0.06817520808528346 
235.00309112455687 0.0702345214497741 0.0702345214497741 0.0609722199214328 0.0609722199214328 0.04856736494802856 0.04856736494802856 0.06817520808528346 0.06817520808528346 
236.00497338413356 0.08733501157879399 0.08733501157879399 0.0609767606996821 0.0609767606996821 0.028964062589022947 0.028964062589022947 0.06817974886353276 0.06817974886353276 
237.00309112455687 0.08733501157879399 0.08733501157879399 0.0609767606996821 0.0609767606996821 0.028964062589022947 0.028964062589022947 0.06817974886353276 0.06817974886353276 
238.00497338413356 0.06525342128860392 0.06525342128860392 0.04815747193783333 0.04815747193783333 0.035752616964429065 0.035752616964429065 0.07496830323893888 0.07496830323893888 
239.00309112455687 0.06529062281109156 0.06529062281109156 0.04819467346032098 0.04819467346032098 0.035789818486916716 0.035789818486916716 0.05539766162417163 0.05539766162417163 
240.00497338413356 0.04794706374730859 0.04794706374730859 0.029741404916032676 0.029741404916032676 0.015272140488830539 0.015272140488830539 0.05448782676334035 0.05448782676334035 
241.00309112455687 0.04794706374730859 0.04794706374730859 0.029741404916032676 0.029741404916032676 0.015272140488830539 0.015272140488830539 0.05448782676334035 0.05448782676334035 
242.00300619843296 0.04794706374730859 0.04794706374730859 0.019511842217507156 0.019511842217507156 0.014957481270685117 0.014957481270685117 0.03456532440794001 0.03456532440794001 
243.00309112455687 0.04794706374730859 0.04794706374730859 0.019511842217507156 0.019511842217507156 0.014957481270685117 0.014957481270685117 0.03456532440794001 0.03456532440794001 
244.00497338413356 0.06493167716208884 0.06493167716208884 0.020407157782268617 0.020407157782268617 0.014957481270685117 0.014957481270685117 0.03456532440794001 0.03456532440794001 
245.00309112455687 0.06493167716208884 0.06493167716208884 0.020407157782268617 0.020407157782268617 0.014957481270685117 0.014957481270685117 0.03456532440794001 0.03456532440794001 
246.00497338413356 0.047914942695452364 0.047914942695452364 0.014925360218828895 0.014925360218828895 0.014925360218828895 0.014925360218828895 0.03453320335608381 0.03453320335608381 
247.00309112455687 0.047914942695452364 0.047914942695452364 0.014925360218828895 0.014925360218828895 0.014925360218828895 0.014925360218828895 0.03453320335608381 0.03453320335608381 
248.00497338413356 0.04752564194144887 0.04752564194144887 0.01453605946482538 0.01453605946482538 0.034143902602080285 0.034143902602080285 0.05375174573933519 0.05375174573933519 
249.00309112455687 0.04750587816300388 0.04750587816300388 0.014516295686380402 0.014516295686380402 0.03412413882363531 0.03412413882363531 0.053731981960890206 0.053731981960890206 
250.00497338413356 0.04491476949238544 0.04491476949238544 0.01123293031619588 0.01123293031619588 0.0504486165907057 0.0504486165907057 0.07005645972796061 0.07005645972796061 
251.00309112455687 0.04491476949238544 0.04491476949238544 0.01123293031619588 0.01123293031619588 0.0504486165907057 0.0504486165907057 0.07005645972796061 0.07005645972796061 
252.00300619843296 0.04491476949238544 0.04491476949238544 0.010796804511817195 0.010796804511817195 0.050012490786327 0.050012490786327 0.06962033392358188 0.06962033392358188 
253.00309112455687 0.04491476949238544 0.04491476949238544 0.010796804511817195 0.010796804511817195 0.050012490786327 0.050012490786327 0.06962033392358188 0.06962033392358188 
254.00497338413356 0.04491476949238544 0.04491476949238544 0.010796804511817195 0.010796804511817195 0.050012490786327 0.050012490786327 0.06962033392358188 0.06962033392358188 
255.00309112455687 0.04491476949238544 0.04491476949238544 0.010796804511817195 0.010796804511817195 0.050012490786327 0.050012490786327 0.06962033392358188 0.06962033392358188 
256.00497338413356 0.026648663960790072 0.026648663960790072 0.010796804511817195 0.010796804511817195 0.050012490786327 0.050012490786327 0.06962033392358188 0.06962033392358188 
257.0030911245569 0.026648663960790072 0.026648663960790072 0.010796804511817195 0.010796804511817195 0.050012490786327 0.050012490786327 0.06962033392358188 0.06962033392358188 
258.00497338413356 0.04491476949238544 0.04491476949238544 0.010796804511817195 0.010796804511817195 0.030404647649072084 0.030404647649072084 0.030404647649072084 0.030404647649072084 
259.0030911245569 0.04424792508289949 0.04424792508289949 0.010129960102331253 0.010129960102331253 0.02973780323958614 0.02973780323958614 0.02973780323958614 0.02973780323958614 
260.00497338413356 0.009761961850491309 0.009761961850491309 0.009517855863760204 0.009517855863760204 0.029125699001015096 0.029125699001015096 0.029125699001015096 0.029125699001015096 
261.0030911245569 0.009761961850491309 0.009761961850491309 0.009517855863760204 0.009517855863760204 0.029125699001015096 0.029125699001015096 0.029125699001015096 0.029125699001015096 
262.00300619843296 0.03467676540616021 0.03467676540616021 0.008948564836257824 0.008948564836257824 0.02855640797351271 0.02855640797351271 0.02855640797351271 0.02855640797351271 
263.0030911245569 0.03467676540616021 0.03467676540616021 0.008948564836257824 0.008948564836257824 0.02855640797351271 0.02855640797351271 0.02855640797351271 0.02855640797351271 
264.00497338413356 0.008948564836257824 0.008948564836257824 0.008948564836257824 0.008948564836257824 0.02855640797351271 0.02855640797351271 0.02855640797351271 0.02855640797351271 
265.0030911245569 0.008948564836257824 0.008948564836257824 0.008948564836257824 0.008948564836257824 0.02855640797351271 0.02855640797351271 0.02855640797351271 0.02855640797351271 
266.00497338413356 0.03467676540616021 0.03467676540616021 0.008948564836257824 0.008948564836257824 0.008948564836257824 0.008948564836257824 0.02855640797351271 0.02855640797351271 
267.0030911245569 0.03467676540616021 0.03467676540616021 0.008948564836257824 0.008948564836257824 0.008948564836257824 0.008948564836257824 0.02855640797351271 0.02855640797351271 
268.00497338413356 0.04424792508289949 0.04424792508289949 0.008948564836257824 0.008948564836257824 0.008948564836257824 0.008948564836257824 0.02855640797351271 0.02855640797351271 
269.0030911245569 0.03921568627450981 0.03921568627450981 0.003916326027868116 0.003916326027868116 0.023524169165123027 0.023524169165123027 0.043132012302377905 0.043132012302377905 
270.00497338413356 0.03921568627450981 0.03921568627450981 0.0034563422167613847 0.0034563422167613847 0.023064185354016276 0.023064185354016276 0.023064185354016276 0.023064185354016276 
271.0030911245569 0.03921568627450981 0.03921568627450981 0.0034563422167613847 0.0034563422167613847 0.023064185354016276 0.023064185354016276 0.023064185354016276 0.023064185354016276 
272.00300619843296 0.00340597585067391 0.00340597585067391 0.0027897925486352446 0.0027897925486352446 0.022397635685890146 0.022397635685890146 0.022397635685890146 0.022397635685890146 
273.0030911245569 0.00340597585067391 0.00340597585067391 0.0027897925486352446 0.0027897925486352446 0.022397635685890146 0.022397635685890146 0.022397635685890146 0.022397635685890146 
274.00497338413356 0.0027897925486352446 0.0027897925486352446 0.0027897925486352446 0.0027897925486352446 0.022397635685890146 0.022397635685890146 0.022397635685890146 0.022397635685890146 
275.0030911245569 0.0027897925486352446 0.0027897925486352446 0.0027897925486352446 0.0027897925486352446 0.022397635685890146 0.022397635685890146 0.022397635685890146 0.022397635685890146 
276.00497338413356 0.0027897925486352446 0.0027897925486352446 0.0027897925486352446 0.0027897925486352446 0.022397635685890146 0.022397635685890146 0.022397635685890146 0.022397635685890146 
277.0030911245569 0.0027897925486352446 0.0027897925486352446 0.0027897925486352446 0.0027897925486352446 0.022397635685890146 0.022397635685890146 0.022397635685890146 0.022397635685890146 
278.00497338413356 0.02996591000334832 0.02996591000334832 0.0027897925486352446 0.0027897925486352446 0.022397635685890146 0.022397635685890146 0.022397635685890146 0.022397635685890146 
279.0030911245569 0.02996591000334832 0.02996591000334832 0.0027897925486352446 0.0027897925486352446 0.022397635685890146 0.022397635685890146 0.022397635685890146 0.022397635685890146 
280.00497338413356 0.019607843137254895 0.019607843137254895 0.010531506903590152 0.010531506903590152 0.030139350040845045 0.030139350040845045 0.030139350040845045 0.030139350040845045 
281.0030911245569 0.019607843137254895 0.019607843137254895 0.010531506903590152 0.010531506903590152 0.030139350040845045 0.030139350040845045 0.030139350040845045 0.030139350040845045 
282.00300619843296 0.010893974576279681 0.010893974576279681 0.010893974576279681 0.010893974576279681 0.03050181771353459 0.03050181771353459 0.03050181771353459 0.03050181771353459 
283.0030911245569 0.010893974576279681 0.010893974576279681 0.010893974576279681 0.010893974576279681 0.03050181771353459 0.03050181771353459 0.03050181771353459 0.03050181771353459 
284.00497338413356 0.010893974576279681 0.010893974576279681 0.010893974576279681 0.010893974576279681 0.03050181771353459 0.03050181771353459 0.03050181771353459 0.03050181771353459 
285.0030911245569 0.010893974576279681 0.010893974576279681 0.010893974576279681 0.010893974576279681 0.03050181771353459 0.03050181771353459 0.03050181771353459 0.03050181771353459 
286.00497338413356 0.010893974576279681 0.010893974576279681 0.010893974576279681 0.010893974576279681 0.03050181771353459 0.03050181771353459 0.03050181771353459 0.03050181771353459 
287.0030911245569 0.010893974576279681 0.010893974576279681 0.010893974576279681 0.010893974576279681 0.03050181771353459 0.03050181771353459 0.03050181771353459 0.03050181771353459 
288.00497338413356 0.010893974576279681 0.010893974576279681 0.010893974576279681 0.010893974576279681 0.03050181771353459 0.03050181771353459 0.03050181771353459 0.03050181771353459 
289.0030911245569 0.010893974576279681 0.010893974576279681 0.010893974576279681 0.010893974576279681 0.010893974576279681 0.010893974576279681 0.010893974576279681 0.010893974576279681 
290.00497338413356 0.011026381162323564 0.011026381162323564 0.011026381162323564 0.011026381162323564 0.011026381162323564 0.011026381162323564 0.011026381162323564 0.011026381162323564 
291.0030911245569 0.011026381162323564 0.011026381162323564 0.011026381162323564 0.011026381162323564 0.011026381162323564 0.011026381162323564 0.011026381162323564 0.011026381162323564 
292.00300619843296 0.019607843137254895 0.019607843137254895 0.011451106889564786 0.011451106889564786 0.011451106889564786 0.011451106889564786 0.011451106889564786 0.011451106889564786 
293.0030911245569 0.019607843137254895 0.019607843137254895 0.011451106889564786 0.011451106889564786 0.011451106889564786 0.011451106889564786 0.011451106889564786 0.011451106889564786 
294.00497338413356 0.019607843137254895 0.019607843137254895 0.011451106889564786 0.011451106889564786 0.011451106889564786 0.011451106889564786 0.011451106889564786 0.011451106889564786 
295.0030911245569 0.019607843137254895 0.019607843137254895 0.011451106889564786 0.011451106889564786 0.011451106889564786 0.011451106889564786 0.011451106889564786 0.011451106889564786 
296.00497338413356 0.019607843137254895 0.019607843137254895 0.011451106889564786 0.011451106889564786 0.011451106889564786 0.011451106889564786 0.011451106889564786 0.011451106889564786 
297.0030911245569 0.019607843137254895 0.019607843137254895 0.011451106889564786 0.011451106889564786 0.011451106889564786 0.011451106889564786 0.011451106889564786 0.011451106889564786 
298.00497338413356 0.019607843137254895 0.019607843137254895 0.011451106889564786 0.011451106889564786 0.011451106889564786 0.011451106889564786 0.011451106889564786 0.011451106889564786 
299.0030911245569 0.019607843137254895 0.019607843137254895 0.011451106889564786 0.011451106889564786 0.011451106889564786 0.011451106889564786 0.011451106889564786 0.011451106889564786 
300.00497338413356 0.019607843137254895 0.019607843137254895 0.011451837980234266 0.011451837980234266 0.011451837980234266 0.011451837980234266 0.011451837980234266 0.011451837980234266 
#####################################################################
# End of data export. Simulation finished at: 2017-02-14T18:07+0000 #
#####################################################################
