#####################################################################
# Alchemist log file - simulation started at: 2017-02-14T18:19+0000 #
#####################################################################
# seed = 43.0
#
# The columns have the following meaning: 
# time go-co-to[Mean] go-co-tsync[Mean] go-cmp-to[Mean] go-cmp-tsync[Mean] flex-co-to[Mean] flex-co-tsync[Mean] flex-cmp-to[Mean] flex-cmp-tsync[Mean] 
0.0 NaN NaN NaN NaN NaN NaN NaN NaN 
1.0001488543265848 NaN NaN NaN NaN NaN NaN NaN NaN 
2.0020993553114175 NaN NaN NaN NaN NaN NaN NaN NaN 
3.000148854326585 NaN NaN NaN NaN NaN NaN NaN NaN 
4.002099355311417 NaN NaN NaN NaN NaN NaN NaN NaN 
5.000148854326585 NaN NaN NaN NaN NaN NaN NaN NaN 
6.002099355311417 NaN NaN NaN NaN NaN NaN NaN NaN 
7.000148854326585 NaN NaN NaN NaN NaN NaN NaN NaN 
8.000649011896769 NaN NaN NaN NaN NaN NaN NaN NaN 
9.000148854326586 NaN NaN NaN NaN NaN NaN NaN NaN 
10.002099355311417 NaN NaN NaN NaN NaN NaN NaN NaN 
11.000148854326586 NaN NaN NaN NaN NaN NaN NaN NaN 
12.002099355311417 NaN NaN NaN NaN NaN NaN NaN NaN 
13.000148854326586 NaN NaN NaN NaN NaN NaN NaN NaN 
14.002099355311417 NaN NaN NaN NaN NaN NaN NaN NaN 
15.000148854326586 NaN NaN NaN NaN NaN NaN NaN NaN 
16.002099355311415 NaN NaN NaN NaN NaN NaN NaN NaN 
17.000148854326586 NaN NaN NaN NaN NaN NaN NaN NaN 
18.00064901189677 NaN NaN NaN NaN NaN NaN NaN NaN 
19.000148854326586 NaN NaN NaN NaN NaN NaN NaN NaN 
20.002099355311415 NaN NaN NaN NaN NaN NaN NaN NaN 
21.000148854326586 1.0 1.0 1.0 1.0 1.0 1.0 1.0 1.0 
22.002099355311415 1.0 1.0 1.0 1.0 1.0 1.0 1.0 1.0 
23.000148854326586 1.0 1.0 1.0 1.0 1.0 1.0 1.0 1.0 
24.002099355311415 0.9833333333333333 0.9833333333333333 0.9833333333333333 0.9833333333333333 0.9833333333333333 0.9833333333333333 0.9833333333333333 0.9833333333333333 
25.000148854326586 0.9833333333333333 0.9833333333333333 0.9833333333333333 0.9833333333333333 0.9833333333333333 0.9833333333333333 0.9833333333333333 0.9833333333333333 
26.002099355311415 0.9666666666666667 0.9666666666666667 0.9666666666666667 0.9666666666666667 0.9666666666666667 0.9666666666666667 0.9666666666666667 0.9666666666666667 
27.000148854326586 0.9666666666666667 0.9666666666666667 0.9666666666666667 0.9666666666666667 0.9666666666666667 0.9666666666666667 0.9666666666666667 0.9666666666666667 
28.00064901189677 0.95 0.95 0.95 0.95 0.95 0.95 0.95 0.95 
29.000148854326586 0.9333333333333333 0.9333333333333333 0.9333333333333333 0.9333333333333333 0.9333333333333333 0.9333333333333333 0.9333333333333333 0.9333333333333333 
30.002099355311415 0.9333333333333333 0.9333333333333333 0.9333333333333333 0.9333333333333333 0.9333333333333333 0.9333333333333333 0.9333333333333333 0.9333333333333333 
31.000148854326586 0.9333333333333333 0.9333333333333333 0.9333333333333333 0.9333333333333333 0.9333333333333333 0.9333333333333333 0.9333333333333333 0.9333333333333333 
32.002099355311415 0.9166666666666667 0.9166666666666667 0.9166666666666667 0.9166666666666667 0.9166666666666667 0.9166666666666667 0.9166666666666667 0.9166666666666667 
33.00014885432658 0.9166666666666667 0.9166666666666667 0.9166666666666667 0.9166666666666667 0.9166666666666667 0.9166666666666667 0.9166666666666667 0.9166666666666667 
34.002099355311415 0.8987444219810662 0.8987444219810662 0.9 0.9 0.8987444219810662 0.8987444219810662 0.9 0.9 
35.00014885432658 0.8128956668293986 0.8128956668293986 0.9 0.9 0.8188128454113964 0.8188128454113964 0.9 0.9 
36.002099355311415 0.7442943229103142 0.7442943229103142 0.8833333333333333 0.8833333333333333 0.746281937494519 0.746281937494519 0.8833333333333333 0.8833333333333333 
37.00014885432658 0.7396415671414559 0.7396415671414559 0.8833333333333333 0.8833333333333333 0.7076141462176975 0.7076141462176975 0.8833333333333333 0.8833333333333333 
38.00064901189677 0.7037807251878687 0.7037807251878687 0.8833333333333333 0.8833333333333333 0.6802262954221225 0.6802262954221225 0.8833333333333333 0.8833333333333333 
39.00014885432658 0.6233006137912387 0.6233006137912387 0.8499999999999999 0.8499999999999999 0.6272095403552799 0.6272095403552799 0.8499999999999999 0.8499999999999999 
40.002099355311415 0.5970701671633128 0.5970701671633128 0.8499999999999999 0.8499999999999999 0.6315628545986252 0.6315628545986252 0.8499999999999999 0.8499999999999999 
41.00014885432658 0.6384937348259836 0.6384937348259836 0.8499999999999999 0.8499999999999999 0.5907083415978666 0.5907083415978666 0.8499999999999999 0.8499999999999999 
42.002099355311415 0.6090303277698506 0.6090303277698506 0.8492499327934407 0.8492499327934407 0.5111101373792026 0.5111101373792026 0.8499999999999999 0.8499999999999999 
43.00014885432658 0.5216870799727277 0.5216870799727277 0.7415166961800568 0.7415166961800568 0.40641295576484815 0.40641295576484815 0.8333333333333333 0.8333333333333333 
44.002099355311415 0.5723601162811931 0.5723601162811931 0.703826213392453 0.703826213392453 0.4080185616646361 0.4080185616646361 0.8325832661267742 0.8325832661267742 
45.00014885432658 0.5336831263628282 0.5336831263628282 0.7097708380445494 0.7097708380445494 0.39662141265648704 0.39662141265648704 0.7557413659143898 0.7557413659143898 
46.002099355311415 0.45631363797897434 0.45631363797897434 0.6447614440903523 0.6447614440903523 0.3628485735109589 0.3628485735109589 0.6757872152499452 0.6757872152499452 
47.00014885432658 0.47623383969708183 0.47623383969708183 0.5753838628731541 0.5753838628731541 0.384040145597473 0.384040145597473 0.6478241465027091 0.6478241465027091 
48.00064901189677 0.45959670063315866 0.45959670063315866 0.564706613127618 0.564706613127618 0.361203737638482 0.361203737638482 0.6297871530654335 0.6297871530654335 
49.00014885432658 0.5004026029990893 0.5004026029990893 0.5427001894636357 0.5427001894636357 0.32807790323321684 0.32807790323321684 0.5560116092519997 0.5560116092519997 
50.002099355311415 0.4307391475304108 0.4307391475304108 0.46556029561256485 0.46556029561256485 0.3014656323192299 0.3014656323192299 0.47896024461490877 0.47896024461490877 
51.00014885432658 0.3557279994305314 0.3557279994305314 0.4270514801494929 0.4270514801494929 0.3214802885005049 0.3214802885005049 0.44377227427201 0.44377227427201 
52.002099355311415 0.3776512497343774 0.3776512497343774 0.4110529871087941 0.4110529871087941 0.2968752938293033 0.2968752938293033 0.40339985923624067 0.40339985923624067 
53.00014885432658 0.31984310485264794 0.31984310485264794 0.3653419174526824 0.3653419174526824 0.3054715964407119 0.3054715964407119 0.3470308376268867 0.3470308376268867 
54.002099355311415 0.29736002068982603 0.29736002068982603 0.34693723660562203 0.34693723660562203 0.3228144800485345 0.3228144800485345 0.3447655224259043 0.3447655224259043 
55.00014885432658 0.2931441580947847 0.2931441580947847 0.3424567051484932 0.3424567051484932 0.31021726996497795 0.31021726996497795 0.33754011049656063 0.33754011049656063 
56.002099355311415 0.2956415709832013 0.2956415709832013 0.3380855513895716 0.3380855513895716 0.2820608364869692 0.2820608364869692 0.28936402783690546 0.28936402783690546 
57.00014885432658 0.2840113041294032 0.2840113041294032 0.29634536131129735 0.29634536131129735 0.2537655114709152 0.2537655114709152 0.30279874955740205 0.30279874955740205 
58.00064901189677 0.27485098058394153 0.27485098058394153 0.22717012324582153 0.22717012324582153 0.26138122664899704 0.26138122664899704 0.31539973474846766 0.31539973474846766 
59.00014885432658 0.365594722294884 0.365594722294884 0.2297503778607667 0.2297503778607667 0.29553966317426694 0.29553966317426694 0.2961268763564169 0.2961268763564169 
60.002099355311415 0.37162507099785763 0.37162507099785763 0.21484401342302675 0.21484401342302675 0.2886147504849627 0.2886147504849627 0.27090115441855145 0.27090115441855145 
61.00014885432658 0.2969199880639598 0.2969199880639598 0.20403392745394935 0.20403392745394935 0.25536950868072833 0.25536950868072833 0.2802305778026388 0.2802305778026388 
62.002099355311415 0.3078014724075421 0.3078014724075421 0.22370138485626379 0.22370138485626379 0.23676659077534654 0.23676659077534654 0.2595204190032649 0.2595204190032649 
63.00014885432658 0.31643285623693646 0.31643285623693646 0.23767322296671017 0.23767322296671017 0.2297081498406511 0.2297081498406511 0.2541256469288333 0.2541256469288333 
64.00209935531142 0.2865718566293993 0.2865718566293993 0.23505899405671776 0.23505899405671776 0.25548826116113815 0.25548826116113815 0.2422794648669971 0.2422794648669971 
65.00014885432658 0.285330541837001 0.285330541837001 0.2165668884994768 0.2165668884994768 0.27390878917756417 0.27390878917756417 0.238127410787228 0.238127410787228 
66.00209935531142 0.26133031520831956 0.26133031520831956 0.21818584484591452 0.21818584484591452 0.25775111612599017 0.25775111612599017 0.2522587301356388 0.2522587301356388 
67.00014885432658 0.2283268435935124 0.2283268435935124 0.21906466190768656 0.21906466190768656 0.23100654731789458 0.23100654731789458 0.25008557171774354 0.25008557171774354 
68.00064901189677 0.2305116341675884 0.2305116341675884 0.21060048679268809 0.21060048679268809 0.22106212153932236 0.22106212153932236 0.24921020177213682 0.24921020177213682 
69.00014885432658 0.22493837886353957 0.22493837886353957 0.2107965074749012 0.2107965074749012 0.22922766347161158 0.22922766347161158 0.24638049385739266 0.24638049385739266 
70.00209935531142 0.2254152903256383 0.2254152903256383 0.1989208221583845 0.1989208221583845 0.2207185961679583 0.2207185961679583 0.26429272357897754 0.26429272357897754 
71.00014885432658 0.33977942355634083 0.33977942355634083 0.20975837682875345 0.20975837682875345 0.25216141302031664 0.25216141302031664 0.24637370532628805 0.24637370532628805 
72.00209935531142 0.38989517528420714 0.38989517528420714 0.21094156908863443 0.21094156908863443 0.31327544442396243 0.31327544442396243 0.2432969392055395 0.2432969392055395 
73.00014885432658 0.30175741361343295 0.30175741361343295 0.22059833128142517 0.22059833128142517 0.3011497489298357 0.3011497489298357 0.24023471325638865 0.24023471325638865 
74.00209935531142 0.2310154451816872 0.2310154451816872 0.216936784926824 0.216936784926824 0.32338815009966904 0.32338815009966904 0.24838065902674272 0.24838065902674272 
75.00014885432658 0.23654935591764203 0.23654935591764203 0.21607487471665107 0.21607487471665107 0.3266572184523951 0.3266572184523951 0.2565661272763301 0.2565661272763301 
76.00209935531142 0.20552121978112126 0.20552121978112126 0.21641668089716098 0.21641668089716098 0.3118068157552971 0.3118068157552971 0.25605942917711755 0.25605942917711755 
77.00014885432658 0.21985378124198887 0.21985378124198887 0.21550972378802763 0.21550972378802763 0.3470638977951432 0.3470638977951432 0.25754325846876613 0.25754325846876613 
78.00064901189677 0.26551684275063847 0.26551684275063847 0.2220509011417544 0.2220509011417544 0.30981657186620154 0.30981657186620154 0.2463161005966713 0.2463161005966713 
79.00014885432658 0.268948514345257 0.268948514345257 0.2252636094689827 0.2252636094689827 0.3092630313924846 0.3092630313924846 0.2530388013006173 0.2530388013006173 
80.00209935531142 0.256654190354736 0.256654190354736 0.2213095148405673 0.2213095148405673 0.28046849079147756 0.28046849079147756 0.25686138291954247 0.25686138291954247 
81.00014885432658 0.2180415818219099 0.2180415818219099 0.2178766863472798 0.2178766863472798 0.2601591326381068 0.2601591326381068 0.25571911621923094 0.25571911621923094 
82.00209935531142 0.23443967058731624 0.23443967058731624 0.21227745317019162 0.21227745317019162 0.28669467802669524 0.28669467802669524 0.27365812419375224 0.27365812419375224 
83.00014885432658 0.24636683337478907 0.24636683337478907 0.20366930194849212 0.20366930194849212 0.29583828250559646 0.29583828250559646 0.27392348823230134 0.27392348823230134 
84.00209935531142 0.22637732820383813 0.22637732820383813 0.2194656619300132 0.2194656619300132 0.30708870686553974 0.30708870686553974 0.28094331845390774 0.28094331845390774 
85.00014885432658 0.29672748693607104 0.29672748693607104 0.22744066923414463 0.22744066923414463 0.28399538942181485 0.28399538942181485 0.2806260648854554 0.2806260648854554 
86.00209935531142 0.35247860674987985 0.35247860674987985 0.22832430704585352 0.22832430704585352 0.2912597829856031 0.2912597829856031 0.2689385402723763 0.2689385402723763 
87.00014885432658 0.3041146767369713 0.3041146767369713 0.2275934749305707 0.2275934749305707 0.321242542817956 0.321242542817956 0.2685444079029435 0.2685444079029435 
88.00064901189677 0.2611450532309961 0.2611450532309961 0.23639803366862072 0.23639803366862072 0.33962960610623616 0.33962960610623616 0.2692048307909046 0.2692048307909046 
89.00014885432658 0.2517421988673096 0.2517421988673096 0.24089542696753719 0.24089542696753719 0.32346569593022156 0.32346569593022156 0.27590854105075674 0.27590854105075674 
90.00209935531142 0.22896298082628053 0.22896298082628053 0.23076068130307342 0.23076068130307342 0.32285970992297586 0.32285970992297586 0.2756823400082841 0.2756823400082841 
91.00014885432658 0.262171025961495 0.262171025961495 0.22216102922691458 0.22216102922691458 0.26094165765094657 0.26094165765094657 0.27650794563258535 0.27650794563258535 
92.00209935531142 0.3680475881776386 0.3680475881776386 0.21522925554637357 0.21522925554637357 0.20645254028828064 0.20645254028828064 0.26509164053136164 0.26509164053136164 
93.00014885432658 0.40788014412689544 0.40788014412689544 0.21855942839887663 0.21855942839887663 0.2175870400900969 0.2175870400900969 0.26309157479945716 0.26309157479945716 
94.00209935531142 0.397613456673202 0.397613456673202 0.23233264188865602 0.23233264188865602 0.2485431602617603 0.2485431602617603 0.2481813645899713 0.2481813645899713 
95.00014885432658 0.33650825867621714 0.33650825867621714 0.24023875085496724 0.24023875085496724 0.29734269759664333 0.29734269759664333 0.24044700112133255 0.24044700112133255 
96.00209935531142 0.3486615990862727 0.3486615990862727 0.24080204163801516 0.24080204163801516 0.2984969464760086 0.2984969464760086 0.238891001503108 0.238891001503108 
97.00014885432658 0.3520340233532117 0.3520340233532117 0.23993076274111452 0.23993076274111452 0.27120357815549545 0.27120357815549545 0.2383170620163503 0.2383170620163503 
98.00064901189677 0.29938757074541594 0.29938757074541594 0.24313387122230382 0.24313387122230382 0.28367954888807806 0.28367954888807806 0.25018529712402277 0.25018529712402277 
99.00014885432658 0.3037943913038169 0.3037943913038169 0.256652982643341 0.256652982643341 0.3208260042147851 0.3208260042147851 0.2533421205009068 0.2533421205009068 
100.00209935531142 0.2804059313155448 0.2804059313155448 0.25677328113394954 0.25677328113394954 0.30318610616394226 0.30318610616394226 0.25470293434058405 0.25470293434058405 
101.00014885432658 0.29472222928529573 0.29472222928529573 0.2491765188533419 0.2491765188533419 0.2696218419527841 0.2696218419527841 0.255222714309656 0.255222714309656 
102.00209935531142 0.3511291383272156 0.3511291383272156 0.2370760340493683 0.2370760340493683 0.23309562666475137 0.23309562666475137 0.2248237208995383 0.2248237208995383 
103.00014885432658 0.3219389670615392 0.3219389670615392 0.24277660178087526 0.24277660178087526 0.2544928793770938 0.2544928793770938 0.21784947243349503 0.21784947243349503 
104.00209935531142 0.29407776523914275 0.29407776523914275 0.24893741236579553 0.24893741236579553 0.2513828579657545 0.2513828579657545 0.22400508182193407 0.22400508182193407 
105.00014885432658 0.32945439023964 0.32945439023964 0.24959271304907607 0.24959271304907607 0.2730234198726999 0.2730234198726999 0.2244914353311305 0.2244914353311305 
106.00209935531142 0.34398330344230804 0.34398330344230804 0.2701719939456027 0.2701719939456027 0.28452213035762614 0.28452213035762614 0.2345263516160474 0.2345263516160474 
107.00014885432658 0.3475629796947914 0.3475629796947914 0.2701192233652609 0.2701192233652609 0.22204802428120413 0.22204802428120413 0.23450513880183313 0.23450513880183313 
108.00064901189677 0.35735061475292695 0.35735061475292695 0.24527168034298863 0.24527168034298863 0.2463193362183162 0.2463193362183162 0.22920381682887944 0.22920381682887944 
109.00014885432658 0.3290951866852912 0.3290951866852912 0.2459905442625178 0.2459905442625178 0.27349209491785914 0.27349209491785914 0.2308281133446646 0.2308281133446646 
110.00209935531142 0.3279625194080074 0.3279625194080074 0.24766706413282671 0.24766706413282671 0.26509640391121403 0.26509640391121403 0.23273316737428554 0.23273316737428554 
111.00014885432658 0.31921247535282593 0.31921247535282593 0.24855282421847943 0.24855282421847943 0.2562286767569163 0.2562286767569163 0.23254928769077768 0.23254928769077768 
112.00209935531142 0.2750496295061933 0.2750496295061933 0.24060357965050355 0.24060357965050355 0.23777676435634915 0.23777676435634915 0.23197227090942546 0.23197227090942546 
113.00014885432658 0.2724100594076825 0.2724100594076825 0.21049489448174613 0.21049489448174613 0.2631951689547032 0.2631951689547032 0.2636354643091148 0.2636354643091148 
114.00209935531142 0.30667822617418394 0.30667822617418394 0.20272452663692048 0.20272452663692048 0.30008910990918053 0.30008910990918053 0.25813483078275673 0.25813483078275673 
115.00014885432658 0.28478497801550023 0.28478497801550023 0.19742090913770804 0.19742090913770804 0.34085635675312875 0.34085635675312875 0.2551673620041967 0.2551673620041967 
116.00209935531142 0.305202957177755 0.305202957177755 0.19402420986813157 0.19402420986813157 0.35177848054384514 0.35177848054384514 0.26627072763292636 0.26627072763292636 
117.00014885432658 0.3333912051722024 0.3333912051722024 0.19460905334411818 0.19460905334411818 0.3526198338837097 0.3526198338837097 0.26711208097279093 0.26711208097279093 
118.00064901189677 0.32630980948636623 0.32630980948636623 0.18997554206630807 0.18997554206630807 0.3525355706707093 0.3525355706707093 0.23955157137837507 0.23955157137837507 
119.00014885432658 0.3520515341419762 0.3520515341419762 0.18596049609337015 0.18596049609337015 0.32976170340799305 0.32976170340799305 0.24045113473890423 0.24045113473890423 
120.00209935531142 0.3603693711873583 0.3603693711873583 0.17634735482136585 0.17634735482136585 0.3251213283522715 0.3251213283522715 0.23035183982558413 0.23035183982558413 
121.00014885432658 0.40315812468363826 0.40315812468363826 0.1770144744050413 0.1770144744050413 0.3399306050411828 0.3399306050411828 0.2313560741432441 0.2313560741432441 
122.00209935531142 0.39584210959635985 0.39584210959635985 0.1763177727377184 0.1763177727377184 0.34603660553246773 0.34603660553246773 0.23069381980859685 0.23069381980859685 
123.00014885432658 0.3815869574529253 0.3815869574529253 0.17642403083362504 0.17642403083362504 0.29822518562430367 0.29822518562430367 0.21378861303398092 0.21378861303398092 
124.00209935531142 0.36285324416495346 0.36285324416495346 0.16251127648492553 0.16251127648492553 0.2819392358470321 0.2819392358470321 0.19773372487125046 0.19773372487125046 
125.00014885432658 0.3736081443826081 0.3736081443826081 0.15052969137571487 0.15052969137571487 0.2928784915218657 0.2928784915218657 0.184154907361725 0.184154907361725 
126.00209935531142 0.3913614304894401 0.3913614304894401 0.15864568546337926 0.15864568546337926 0.2915861028800314 0.2915861028800314 0.17993002863492658 0.17993002863492658 
127.00014885432658 0.380984345899059 0.380984345899059 0.15795469439958168 0.15795469439958168 0.3031760599746503 0.3031760599746503 0.20923938764705668 0.20923938764705668 
128.00064901189677 0.3618608492288435 0.3618608492288435 0.14973387398771085 0.14973387398771085 0.29352437401022774 0.29352437401022774 0.20946751401072258 0.20946751401072258 
129.0001488543266 0.3622682732995265 0.3622682732995265 0.148541946985865 0.148541946985865 0.3276497118573712 0.3276497118573712 0.2086065292931924 0.2086065292931924 
130.00209935531143 0.3505236161198421 0.3505236161198421 0.1481789118236126 0.1481789118236126 0.3334885038048147 0.3334885038048147 0.20824349413093995 0.20824349413093995 
131.0001488543266 0.35982780661383257 0.35982780661383257 0.1507787309626603 0.1507787309626603 0.3345208001506171 0.3345208001506171 0.2106141509144944 0.2106141509144944 
132.00209935531143 0.3839465339832529 0.3839465339832529 0.15053990247247792 0.15053990247247792 0.3330491657677129 0.3330491657677129 0.20990099180370933 0.20990099180370933 
133.0001488543266 0.3586790830334286 0.3586790830334286 0.15027456717722898 0.15027456717722898 0.32018288172513876 0.32018288172513876 0.1924205349461309 0.1924205349461309 
134.00209935531143 0.3298728861023226 0.3298728861023226 0.13610190654115564 0.13610190654115564 0.3233553646143572 0.3233553646143572 0.19503217390584515 0.19503217390584515 
135.0001488543266 0.3392975310867374 0.3392975310867374 0.12706318449851275 0.12706318449851275 0.32389712474472254 0.32389712474472254 0.20054185215938405 0.20054185215938405 
136.00209935531143 0.33932943814078353 0.33932943814078353 0.12593219431884967 0.12593219431884967 0.33335506055492764 0.33335506055492764 0.20206000661163864 0.20206000661163864 
137.0001488543266 0.33932552919277204 0.33932552919277204 0.12618173550235176 0.12618173550235176 0.3491897568500157 0.3491897568500157 0.18540267084882903 0.18540267084882903 
138.00064901189677 0.3397043536717781 0.3397043536717781 0.1290172658440251 0.1290172658440251 0.3495685813290218 0.3495685813290218 0.18779143578984966 0.18779143578984966 
139.0001488543266 0.30637102033844477 0.30637102033844477 0.12099148292047901 0.12099148292047901 0.34385159680812066 0.34385159680812066 0.20745818398355315 0.20745818398355315 
140.00209935531143 0.30637102033844477 0.30637102033844477 0.12178167021184946 0.12178167021184946 0.35115538347212527 0.35115538347212527 0.2093249700085252 0.2093249700085252 
141.0001488543266 0.30637102033844477 0.30637102033844477 0.12712451592866222 0.12712451592866222 0.3521974003429147 0.3521974003429147 0.20987732235421577 0.20987732235421577 
142.00209935531143 0.30639065320892106 0.30639065320892106 0.12706747047158654 0.12706747047158654 0.34652644012192585 0.34652644012192585 0.20928271424030712 0.20928271424030712 
143.0001488543266 0.3064291399924121 0.3064291399924121 0.12758591689769067 0.12758591689769067 0.3610409359727519 0.3610409359727519 0.22207717921714093 0.22207717921714093 
144.00209935531143 0.3110281670503821 0.3110281670503821 0.1327677213061126 0.1327677213061126 0.33732007373407774 0.33732007373407774 0.26188167789896233 0.26188167789896233 
145.0001488543266 0.311227776069048 0.311227776069048 0.13296733032477848 0.13296733032477848 0.3287655519385823 0.3287655519385823 0.2628754045093053 0.2628754045093053 
146.00209935531143 0.3081786999410429 0.3081786999410429 0.12991825419677344 0.12991825419677344 0.3302235559388932 0.3302235559388932 0.26513149348757087 0.26513149348757087 
147.0001488543266 0.30791016858801645 0.30791016858801645 0.12990364761213172 0.12990364761213172 0.31328835791920007 0.31328835791920007 0.23225743123491854 0.23225743123491854 
148.00064901189677 0.3050981727202105 0.3050981727202105 0.1271348440730943 0.1271348440730943 0.3104763620513941 0.3104763620513941 0.21597649094339427 0.21597649094339427 
149.0001488543266 0.3050981727202105 0.3050981727202105 0.1216798568726564 0.1216798568726564 0.32176483938687717 0.32176483938687717 0.21071159991695057 0.21071159991695057 
150.00209935531143 0.3050981727202105 0.3050981727202105 0.12248808616557648 0.12248808616557648 0.32176483938687717 0.32176483938687717 0.1994696419404931 0.1994696419404931 
151.0001488543266 0.28843150605354384 0.28843150605354384 0.10720594536207582 0.10720594536207582 0.30509817272021056 0.30509817272021056 0.1967313847807985 0.1967313847807985 
152.00209935531143 0.2898455280901283 0.2898455280901283 0.12209626883587822 0.12209626883587822 0.306512194756795 0.306512194756795 0.20628346857168642 0.20628346857168642 
153.0001488543266 0.29120127657875033 0.29120127657875033 0.11916650116533876 0.11916650116533876 0.30786794324541694 0.30786794324541694 0.1833373116315797 0.1833373116315797 
154.00209935531143 0.2908756528910933 0.2908756528910933 0.10493874620680281 0.10493874620680281 0.3075423195577599 0.3075423195577599 0.1837550927380834 0.1837550927380834 
155.0001488543266 0.29107017985916206 0.29107017985916206 0.10512415427172424 0.10512415427172424 0.29107017985916206 0.29107017985916206 0.18394961970615217 0.18394961970615217 
156.00209935531143 0.29095421748208766 0.29095421748208766 0.10500563490254164 0.10500563490254164 0.29095421748208766 0.29095421748208766 0.18383365732907778 0.18383365732907778 
157.0001488543266 0.29095421748208766 0.29095421748208766 0.10501475380568898 0.10501475380568898 0.29095421748208766 0.29095421748208766 0.18383365732907778 0.18383365732907778 
158.00064901189677 0.29096073276067635 0.29096073276067635 0.10516496949942293 0.10516496949942293 0.29096073276067635 0.29096073276067635 0.18393903587525823 0.18393903587525823 
159.0001488543266 0.29096073276067635 0.29096073276067635 0.10696557435183775 0.10696557435183775 0.29096073276067635 0.29096073276067635 0.18681820405823046 0.18681820405823046 
160.00209935531143 0.29096073276067635 0.29096073276067635 0.10859231805250232 0.10859231805250232 0.29096073276067635 0.29096073276067635 0.19111756904914215 0.19111756904914215 
161.0001488543266 0.2742940660940097 0.2742940660940097 0.10786984199935233 0.10786984199935233 0.2742940660940097 0.2742940660940097 0.2058138133169381 0.2058138133169381 
162.00209935531143 0.27412021249854895 0.27412021249854895 0.1141613958565516 0.1141613958565516 0.27412021249854895 0.27412021249854895 0.20563995972147733 0.20563995972147733 
163.0001488543266 0.27392131993025876 0.27392131993025876 0.11295009208344467 0.11295009208344467 0.27392131993025876 0.27392131993025876 0.22017677173998898 0.22017677173998898 
164.00209935531143 0.27356430433158335 0.27356430433158335 0.1092824188604834 0.1092824188604834 0.27356430433158335 0.27356430433158335 0.23580751886663373 0.23580751886663373 
165.0001488543266 0.2731688538760359 0.2731688538760359 0.10888696840493593 0.10888696840493593 0.2731688538760359 0.2731688538760359 0.23541206841108625 0.23541206841108625 
166.00209935531143 0.27297241863731875 0.27297241863731875 0.10869053316621878 0.10869053316621878 0.27297241863731875 0.27297241863731875 0.2383599367421233 0.2383599367421233 
167.0001488543266 0.27297241863731875 0.27297241863731875 0.10869053316621878 0.10869053316621878 0.27297241863731875 0.27297241863731875 0.2616652042575805 0.2616652042575805 
168.00064901189677 0.27293005614273974 0.27293005614273974 0.10309578327645998 0.10309578327645998 0.27293005614273974 0.27293005614273974 0.2752441601657705 0.2752441601657705 
169.0001488543266 0.27293005614273974 0.27293005614273974 0.10354740075925917 0.10354740075925917 0.27293005614273974 0.27293005614273974 0.2585774934991038 0.2585774934991038 
170.00209935531143 0.27293005614273974 0.27293005614273974 0.10323932018624839 0.10323932018624839 0.27293005614273974 0.27293005614273974 0.26606091427904194 0.26606091427904194 
171.0001488543266 0.25972268082461414 0.25972268082461414 0.1025530298390016 0.1025530298390016 0.25972268082461414 0.25972268082461414 0.24977032080639866 0.24977032080639866 
172.00209935531143 0.24279642383238398 0.24279642383238398 0.10238673838679659 0.10238673838679659 0.24279642383238398 0.24279642383238398 0.2328440638141685 0.2328440638141685 
173.0001488543266 0.24250852336322487 0.24250852336322487 0.10748952732493328 0.10748952732493328 0.22630776926300858 0.22630776926300858 0.23207336215056742 0.23207336215056742 
174.00209935531143 0.24226467818937705 0.24226467818937705 0.10882552278056827 0.10882552278056827 0.1791372854196933 0.1791372854196933 0.23182951697671966 0.23182951697671966 
175.0001488543266 0.24773090589296592 0.24773090589296592 0.11429175048415707 0.11429175048415707 0.17038329242458078 0.17038329242458078 0.23729574468030845 0.23729574468030845 
176.00209935531143 0.2474139667878971 0.2474139667878971 0.11397481137908833 0.11397481137908833 0.17005019805034205 0.17005019805034205 0.2369788055752397 0.2369788055752397 
177.0001488543266 0.2474139667878971 0.2474139667878971 0.11397481137908833 0.11397481137908833 0.16388549177392644 0.16388549177392644 0.2369788055752397 0.2369788055752397 
178.00064901189677 0.2473642554189304 0.2473642554189304 0.11279816299580533 0.11279816299580533 0.1638357804049597 0.1638357804049597 0.23692909420627303 0.23692909420627303 
179.0001488543266 0.2473642554189304 0.2473642554189304 0.11199598966705467 0.11199598966705467 0.16441969331554526 0.16441969331554526 0.23692909420627303 0.23692909420627303 
180.00209935531143 0.2473642554189304 0.2473642554189304 0.11082228997294616 0.11082228997294616 0.13615587081639396 0.13615587081639396 0.23692909420627303 0.23692909420627303 
181.0001488543266 0.24789684188336256 0.24789684188336256 0.11135087268065492 0.11135087268065492 0.12617612283278196 0.12617612283278196 0.2374616806707051 0.2374616806707051 
182.00209935531143 0.24755424608838353 0.24755424608838353 0.11208268508200436 0.11208268508200436 0.12584548997425268 0.12584548997425268 0.2371190848757261 0.2371190848757261 
183.0001488543266 0.24720247874041074 0.24720247874041074 0.11286784198944301 0.11286784198944301 0.12489876574422426 0.12489876574422426 0.24232339850224757 0.24232339850224757 
184.00209935531143 0.24712901117264677 0.24712901117264677 0.11180258078276697 0.11180258078276697 0.13077844196771674 0.13077844196771674 0.2422499309344836 0.2422499309344836 
185.0001488543266 0.2463968612549433 0.2463968612549433 0.1110704308650635 0.1110704308650635 0.13007630845141538 0.13007630845141538 0.23100934665929682 0.23100934665929682 
186.00209935531143 0.2460542507403335 0.2460542507403335 0.11072782035045368 0.11072782035045368 0.12977584681495782 0.12977584681495782 0.18399564328317028 0.18399564328317028 
187.0001488543266 0.2460542507403335 0.2460542507403335 0.11072782035045368 0.11072782035045368 0.12977584681495782 0.12977584681495782 0.16421398247049376 0.16421398247049376 
188.00064901189677 0.24599190912841912 0.24599190912841912 0.11048415864570695 0.11048415864570695 0.13118161119722271 0.13118161119722271 0.1955604681650718 0.1955604681650718 
189.0001488543266 0.24638912809310093 0.24638912809310093 0.1102132009748108 0.1102132009748108 0.13091065352632666 0.13091065352632666 0.19308101030814825 0.19308101030814825 
190.00209935531143 0.2470690650504739 0.2470690650504739 0.11311332074547555 0.11311332074547555 0.1461295134934588 0.1461295134934588 0.17905708629010078 0.17905708629010078 
191.0001488543266 0.2477763686903083 0.2477763686903083 0.11382179339587681 0.11382179339587681 0.14667373616505802 0.14667373616505802 0.17333837364021126 0.17333837364021126 
192.00209935531143 0.24715263136161533 0.24715263136161533 0.11312251815641904 0.11312251815641904 0.14644798921173532 0.14644798921173532 0.16367435184232884 0.16367435184232884 
193.0001488543266 0.22986653702950371 0.22986653702950371 0.09863494256787066 0.09863494256787066 0.15048875030714412 0.15048875030714412 0.16416525354780218 0.16416525354780218 
194.00209935531143 0.22994314572552926 0.22994314572552926 0.08308334694879498 0.08308334694879498 0.1658534479837384 0.1658534479837384 0.15190699861377863 0.15190699861377863 
195.0001488543266 0.22921383464539932 0.22921383464539932 0.082354035868665 0.082354035868665 0.1566135608914588 0.1566135608914588 0.14980180780447327 0.14980180780447327 
196.00209935531143 0.23235502167462546 0.23235502167462546 0.08549522289789115 0.08549522289789115 0.144140184774286 0.144140184774286 0.14008072955219558 0.14008072955219558 
197.0001488543266 0.23235502167462546 0.23235502167462546 0.08549522289789115 0.08549522289789115 0.12747351810761934 0.12747351810761934 0.14008072955219558 0.14008072955219558 
198.00064901189677 0.24522386252349238 0.24522386252349238 0.08700156684717736 0.08700156684717736 0.1167438511722329 0.1167438511722329 0.14158707350148178 0.14158707350148178 
199.0001488543266 0.23754959083458407 0.23754959083458407 0.08604860232782872 0.08604860232782872 0.13371512580753214 0.13371512580753214 0.15611863437134244 0.15611863437134244 
200.00209935531143 0.23754959083458407 0.23754959083458407 0.08117005259098795 0.08117005259098795 0.13235651406779708 0.13235651406779708 0.15124008463450161 0.15124008463450161 
201.0001488543266 0.2376502019849608 0.2376502019849608 0.08128231155769661 0.08128231155769661 0.12256099196318104 0.12256099196318104 0.14414422178627267 0.14414422178627267 
202.00209935531143 0.22113742471232214 0.22113742471232214 0.08661046748041196 0.08661046748041196 0.12941364092038038 0.12941364092038038 0.14408451276625847 0.14408451276625847 
203.0001488543266 0.17853495837456357 0.17853495837456357 0.08259669757063284 0.08259669757063284 0.12082102993564102 0.12082102993564102 0.1326786912578643 0.1326786912578643 
204.00209935531143 0.19555510473319876 0.19555510473319876 0.1246661292922399 0.1246661292922399 0.10419384649828956 0.10419384649828956 0.14388173445571745 0.14388173445571745 
205.0001488543266 0.21486670603643515 0.21486670603643515 0.13029745541763427 0.13029745541763427 0.09092231793129317 0.09092231793129317 0.1425008852188443 0.1425008852188443 
206.00209935531143 0.22445642821547554 0.22445642821547554 0.1397521459370544 0.1397521459370544 0.09071846527826442 0.09071846527826442 0.14182681521178417 0.14182681521178417 
207.0001488543266 0.22365647829805427 0.22365647829805427 0.1397521459370544 0.1397521459370544 0.09071846527826442 0.09071846527826442 0.13483116605606071 0.13483116605606071 
208.00064901189677 0.21351427519499436 0.21351427519499436 0.08579920723957192 0.08579920723957192 0.08156615874523705 0.08156615874523705 0.10759785962424204 0.10759785962424204 
209.0001488543266 0.2027455913164289 0.2027455913164289 0.07662474153454646 0.07662474153454646 0.08316037691877703 0.08316037691877703 0.08998354584769772 0.08998354584769772 
210.00209935531143 0.18607892464976222 0.18607892464976222 0.07492553565860328 0.07492553565860328 0.09779206025310254 0.09779206025310254 0.10346851856632064 0.10346851856632064 
211.0001488543266 0.1860763115760221 0.1860763115760221 0.0747613187721502 0.0747613187721502 0.09976456954599515 0.09976456954599515 0.10392117823870184 0.10392117823870184 
212.00209935531143 0.18551224416107906 0.18551224416107906 0.07435076867887502 0.07435076867887502 0.09982598571708923 0.09982598571708923 0.10398259440979593 0.10398259440979593 
213.0001488543266 0.18548625101246669 0.18548625101246669 0.0712729758818452 0.0712729758818452 0.0967481929200594 0.0967481929200594 0.07893481563769017 0.07893481563769017 
214.00209935531143 0.18548940369479489 0.18548940369479489 0.06988200641426837 0.06988200641426837 0.1099708076748619 0.1099708076748619 0.09332157596270649 0.09332157596270649 
215.0001488543266 0.177072508503985 0.177072508503985 0.06968019628048089 0.06968019628048089 0.10978291677774106 0.10978291677774106 0.09313368506558567 0.09313368506558567 
216.00209935531143 0.19135725742720175 0.19135725742720175 0.08372011825514694 0.08372011825514694 0.12613574614323056 0.12613574614323056 0.10946907947656388 0.10946907947656388 
217.0001488543266 0.1913470084264608 0.1913470084264608 0.08370986925440597 0.08370986925440597 0.12613574614323056 0.12613574614323056 0.10946907947656388 0.10946907947656388 
218.00064901189677 0.17699163790921768 0.17699163790921768 0.06519322340144296 0.06519322340144296 0.107619268654564 0.107619268654564 0.09095260198789738 0.09095260198789738 
219.0001488543266 0.17699163790921768 0.17699163790921768 0.061371187811354144 0.061371187811354144 0.08714431042285725 0.08714431042285725 0.08713056639780851 0.08713056639780851 
220.00209935531143 0.16032497124255102 0.16032497124255102 0.049119165512026226 0.049119165512026226 0.07489228812352933 0.07489228812352933 0.09154521076514727 0.09154521076514727 
221.0001488543266 0.16027102026107568 0.16027102026107568 0.043072252128061 0.043072252128061 0.08950640420333444 0.08950640420333444 0.09156001183264861 0.09156001183264861 
222.00209935531143 0.16021328333665275 0.16021328333665275 0.04357667907971311 0.04357667907971311 0.0748666537844732 0.0748666537844732 0.10702110809671453 0.10702110809671453 
223.0001488543266 0.16016405458395896 0.16016405458395896 0.041846369468828 0.041846369468828 0.07519344682721009 0.07519344682721009 0.12194721615175513 0.12194721615175513 
224.00209935531143 0.16016405458395896 0.16016405458395896 0.04161326333036358 0.04161326333036358 0.07367820537867956 0.07367820537867956 0.09033112802029751 0.09033112802029751 
225.0001488543266 0.16048493877814787 0.16048493877814787 0.045579002355404366 0.045579002355404366 0.07763020037867163 0.07763020037867163 0.09062117539767653 0.09062117539767653 
226.00209935531143 0.16048493877814787 0.16048493877814787 0.04596206235556288 0.04596206235556288 0.06189056293399827 0.06189056293399827 0.09025006683247742 0.09025006683247742 
227.0001488543266 0.16048493877814787 0.16048493877814787 0.042286370707901116 0.042286370707901116 0.04522389626733162 0.04522389626733162 0.09025006683247742 0.09025006683247742 
228.00064901189677 0.16048493877814787 0.16048493877814787 0.04105924318134203 0.04105924318134203 0.04603307261619621 0.04603307261619621 0.09032107709311077 0.09032107709311077 
229.0001488543266 0.16048493877814787 0.16048493877814787 0.041137233955042034 0.041137233955042034 0.0461110633898962 0.0461110633898962 0.09039906786681075 0.09039906786681075 
230.00209935531143 0.16048493877814787 0.16048493877814787 0.03816534165093616 0.03816534165093616 0.04387733717402161 0.04387733717402161 0.07149867498426951 0.07149867498426951 
231.0001488543266 0.15574171023017913 0.15574171023017913 0.03415270286416541 0.03415270286416541 0.05285567340625575 0.05285567340625575 0.08415270286416542 0.08415270286416542 
232.00209935531143 0.15574171023017913 0.15574171023017913 0.03415174521670068 0.03415174521670068 0.05221478365639302 0.05221478365639302 0.08415174521670069 0.08415174521670069 
233.0001488543266 0.17146049924289114 0.17146049924289114 0.03387496244814095 0.03387496244814095 0.05193800088783327 0.05193800088783327 0.08387496244814094 0.08387496244814094 
234.00209935531143 0.1547938325762245 0.1547938325762245 0.03390959936907166 0.03390959936907166 0.06863930447543062 0.06863930447543062 0.10057626603573831 0.10057626603573831 
235.0001488543266 0.13948881891659717 0.13948881891659717 0.03346286027530074 0.03346286027530074 0.080303269396478 0.080303269396478 0.10012952694196743 0.10012952694196743 
236.00209935531143 0.13948881891659717 0.13948881891659717 0.03293939775735716 0.03293939775735716 0.07940783618011013 0.07940783618011013 0.09960606442402385 0.09960606442402385 
237.0001488543266 0.13948881891659717 0.13948881891659717 0.03293939775735716 0.03293939775735716 0.07940783618011013 0.07940783618011013 0.09960606442402385 0.09960606442402385 
238.00064901189677 0.1228221522499305 0.1228221522499305 0.03221107248251575 0.03221107248251575 0.10963733092979439 0.10963733092979439 0.09887773914918242 0.09887773914918242 
239.0001488543266 0.10615548558326385 0.10615548558326385 0.028743045266852306 0.028743045266852306 0.1255948182994769 0.1255948182994769 0.09540971193351902 0.09540971193351902 
240.00209935531143 0.08948881891659716 0.08948881891659716 0.01754738251472851 0.01754738251472851 0.11908072481200484 0.11908072481200484 0.08421404918139516 0.08421404918139516 
241.0001488543266 0.08948881891659716 0.08948881891659716 0.017662761058740793 0.017662761058740793 0.1073122698300318 0.1073122698300318 0.0843294277254075 0.0843294277254075 
242.00209935531143 0.08948881891659716 0.08948881891659716 0.017634951889455873 0.017634951889455873 0.10517510602984029 0.10517510602984029 0.08430161855612255 0.08430161855612255 
243.0001488543266 0.08948881891659716 0.08948881891659716 0.017185517420744825 0.017185517420744825 0.11826239678013065 0.11826239678013065 0.06718551742074484 0.06718551742074484 
244.00209935531143 0.08948881891659716 0.08948881891659716 0.017229928590837214 0.017229928590837214 0.10284090376403242 0.10284090376403242 0.05056326192417054 0.05056326192417054 
245.0001488543266 0.08333333333333333 0.08333333333333333 0.011289043399752592 0.011289043399752592 0.0969000185729478 0.0969000185729478 0.07795571006641927 0.07795571006641927 
246.00209935531143 0.08333333333333333 0.08333333333333333 0.010671846638922736 0.010671846638922736 0.09628282181211796 0.09628282181211796 0.0773385133055894 0.0773385133055894 
247.0001488543266 0.08333333333333333 0.08333333333333333 0.010671846638922736 0.010671846638922736 0.09628282181211796 0.09628282181211796 0.0773385133055894 0.0773385133055894 
248.00064901189677 0.08333333333333333 0.08333333333333333 0.010671846638922736 0.010671846638922736 0.06294948847878463 0.06294948847878463 0.0773385133055894 0.0773385133055894 
249.0001488543266 0.08333333333333333 0.08333333333333333 0.0180544910855757 0.0180544910855757 0.06294948847878463 0.06294948847878463 0.07740757203869766 0.07740757203869766 
250.00209935531143 0.08333333333333333 0.08333333333333333 0.04511203739400298 0.04511203739400298 0.06294948847878463 0.06294948847878463 0.07745632129139543 0.07745632129139543 
251.0001488543266 0.08333333333333333 0.08333333333333333 0.04053467079002085 0.04053467079002085 0.04628282181211797 0.04628282181211797 0.06352587373429133 0.06352587373429133 
252.00209935531143 0.08333333333333333 0.08333333333333333 0.046724033990880626 0.046724033990880626 0.048507878223456424 0.048507878223456424 0.06353527012221641 0.06353527012221641 
253.0001488543266 0.06666666666666668 0.06666666666666668 0.05190286054147879 0.05190286054147879 0.026252373206368914 0.026252373206368914 0.05499693088897177 0.05499693088897177 
254.00209935531143 0.06666666666666668 0.06666666666666668 0.05190286054147879 0.05190286054147879 0.02525354367986336 0.02525354367986336 0.058144890929212184 0.058144890929212184 
255.0001488543266 0.06666666666666668 0.06666666666666668 0.05190286054147879 0.05190286054147879 0.024294413283018807 0.024294413283018807 0.04147822426254549 0.04147822426254549 
256.00209935531143 0.06666666666666668 0.06666666666666668 0.051250917776561634 0.051250917776561634 0.023964795443026488 0.023964795443026488 0.04082628149762835 0.04082628149762835 
257.0001488543266 0.06666666666666668 0.06666666666666668 0.051250917776561634 0.051250917776561634 0.023964795443026488 0.023964795443026488 0.04082628149762835 0.04082628149762835 
258.00064901189677 0.06666666666666668 0.06666666666666668 0.051250917776561634 0.051250917776561634 0.023964795443026488 0.023964795443026488 0.04082628149762835 0.04082628149762835 
259.0001488543266 0.06666666666666668 0.06666666666666668 0.051250917776561634 0.051250917776561634 0.023964795443026488 0.023964795443026488 0.04082628149762835 0.04082628149762835 
260.00209935531143 0.06666666666666668 0.06666666666666668 0.051250917776561634 0.051250917776561634 0.023964795443026488 0.023964795443026488 0.024180550375618705 0.024180550375618705 
261.0001488543266 0.06666666666666668 0.06666666666666668 0.051250917776561634 0.051250917776561634 0.023741721532067783 0.023741721532067783 0.022998346067815388 0.022998346067815388 
262.00209935531143 0.06666666666666668 0.06666666666666668 0.051250917776561634 0.051250917776561634 0.025023828783477704 0.025023828783477704 0.02502382878347772 0.02502382878347772 
263.0001488543266 0.06666666666666668 0.06666666666666668 0.051250917776561634 0.051250917776561634 0.025023828783477704 0.025023828783477704 0.02502382878347772 0.02502382878347772 
264.00209935531143 0.06666666666666668 0.06666666666666668 0.051250917776561634 0.051250917776561634 0.02412962469793208 0.02412962469793208 0.02412962469793208 0.02412962469793208 
265.0001488543266 0.06666666666666668 0.06666666666666668 0.051250917776561634 0.051250917776561634 0.007462958031265425 0.007462958031265425 0.007462958031265425 0.007462958031265425 
266.00209935531143 0.06666666666666668 0.06666666666666668 0.05068841301441298 0.05068841301441298 0.006900453269116748 0.006900453269116748 0.006900453269116748 0.006900453269116748 
267.0001488543266 0.06666666666666668 0.06666666666666668 0.05068841301441298 0.05068841301441298 0.006900453269116748 0.006900453269116748 0.006900453269116748 0.006900453269116748 
268.00064901189677 0.06666666666666668 0.06666666666666668 0.06666666666666668 0.06666666666666668 0.006900453269116748 0.006900453269116748 0.006900453269116748 0.006900453269116748 
269.0001488543266 0.06666666666666668 0.06666666666666668 0.06666666666666668 0.06666666666666668 0.006900453269116748 0.006900453269116748 0.006900453269116748 0.006900453269116748 
270.00209935531143 0.06666666666666668 0.06666666666666668 0.05068841301441298 0.05068841301441298 0.006900453269116748 0.006900453269116748 0.006900453269116748 0.006900453269116748 
271.0001488543266 0.06666666666666668 0.06666666666666668 0.05068841301441298 0.05068841301441298 0.006437913184055909 0.006437913184055909 0.006437913184055909 0.006437913184055909 
272.00209935531143 0.06666666666666668 0.06666666666666668 0.06666666666666668 0.06666666666666668 0.00691360417735446 0.00691360417735446 0.00691360417735446 0.00691360417735446 
273.0001488543266 0.06666666666666668 0.06666666666666668 0.06666666666666668 0.06666666666666668 0.00691360417735446 0.00691360417735446 0.00691360417735446 0.00691360417735446 
274.00209935531143 0.06666666666666668 0.06666666666666668 0.06666666666666668 0.06666666666666668 0.006074256941002209 0.006074256941002209 0.006074256941002209 0.006074256941002209 
275.0001488543266 0.06666666666666668 0.06666666666666668 0.06666666666666668 0.06666666666666668 0.006074256941002209 0.006074256941002209 0.006074256941002209 0.006074256941002209 
276.00209935531143 0.06666666666666668 0.06666666666666668 0.06666666666666668 0.06666666666666668 0.00569332968943085 0.00569332968943085 0.00569332968943085 0.00569332968943085 
277.0001488543266 0.06666666666666668 0.06666666666666668 0.06666666666666668 0.06666666666666668 0.00569332968943085 0.00569332968943085 0.00569332968943085 0.00569332968943085 
278.00064901189677 0.06666666666666668 0.06666666666666668 0.06666666666666668 0.06666666666666668 0.00569332968943085 0.00569332968943085 0.00569332968943085 0.00569332968943085 
279.0001488543266 0.06666666666666668 0.06666666666666668 0.06666666666666668 0.06666666666666668 0.00569332968943085 0.00569332968943085 0.00569332968943085 0.00569332968943085 
280.00209935531143 0.06666666666666668 0.06666666666666668 0.06666666666666668 0.06666666666666668 0.00569332968943085 0.00569332968943085 0.00569332968943085 0.00569332968943085 
281.0001488543266 0.06666666666666668 0.06666666666666668 0.06666666666666668 0.06666666666666668 0.0049214021865836635 0.0049214021865836635 0.0049214021865836635 0.0049214021865836635 
282.00209935531143 0.06666666666666668 0.06666666666666668 0.06666666666666668 0.06666666666666668 0.005393621338967863 0.005393621338967863 0.005393621338967863 0.005393621338967863 
283.0001488543266 0.06666666666666668 0.06666666666666668 0.06666666666666668 0.06666666666666668 0.005393621338967863 0.005393621338967863 0.005393621338967863 0.005393621338967863 
284.00209935531143 0.06666666666666668 0.06666666666666668 0.06666666666666668 0.06666666666666668 0.006640041507698371 0.006640041507698371 0.006640041507698371 0.006640041507698371 
285.0001488543266 0.06666666666666668 0.06666666666666668 0.06666666666666668 0.06666666666666668 0.006640041507698371 0.006640041507698371 0.006640041507698371 0.006640041507698371 
286.00209935531143 0.06666666666666668 0.06666666666666668 0.06666666666666668 0.06666666666666668 0.01066678714097865 0.01066678714097865 0.01066678714097865 0.01066678714097865 
287.0001488543266 0.06666666666666668 0.06666666666666668 0.06666666666666668 0.06666666666666668 0.01066678714097865 0.01066678714097865 0.01066678714097865 0.01066678714097865 
288.00064901189677 0.06666666666666668 0.06666666666666668 0.06666666666666668 0.06666666666666668 0.01066678714097865 0.01066678714097865 0.01066678714097865 0.01066678714097865 
289.0001488543266 0.06666666666666668 0.06666666666666668 0.06666666666666668 0.06666666666666668 0.01066678714097865 0.01066678714097865 0.01066678714097865 0.01066678714097865 
290.00209935531143 0.06666666666666668 0.06666666666666668 0.06666666666666668 0.06666666666666668 0.01066678714097865 0.01066678714097865 0.01066678714097865 0.01066678714097865 
291.0001488543266 0.06666666666666668 0.06666666666666668 0.06666666666666668 0.06666666666666668 0.010204263268162862 0.010204263268162862 0.010204263268162862 0.010204263268162862 
292.00209935531143 0.06666666666666668 0.06666666666666668 0.06666666666666668 0.06666666666666668 0.010388403210558693 0.010388403210558693 0.010388403210558693 0.010388403210558693 
293.0001488543266 0.06666666666666668 0.06666666666666668 0.06666666666666668 0.06666666666666668 0.010388403210558693 0.010388403210558693 0.010388403210558693 0.010388403210558693 
294.00209935531143 0.06666666666666668 0.06666666666666668 0.06666666666666668 0.06666666666666668 0.01060697220400411 0.01060697220400411 0.01060697220400411 0.01060697220400411 
295.0001488543266 0.06666666666666668 0.06666666666666668 0.06666666666666668 0.06666666666666668 0.01060697220400411 0.01060697220400411 0.01060697220400411 0.01060697220400411 
296.00209935531143 0.04999999999999999 0.04999999999999999 0.04999999999999999 0.04999999999999999 0.022939407474548874 0.022939407474548874 0.022939407474548874 0.022939407474548874 
297.0001488543266 0.04999999999999999 0.04999999999999999 0.04999999999999999 0.04999999999999999 0.022939407474548874 0.022939407474548874 0.022939407474548874 0.022939407474548874 
298.00064901189677 0.04999999999999999 0.04999999999999999 0.04999999999999999 0.04999999999999999 0.022939407474548874 0.022939407474548874 0.022939407474548874 0.022939407474548874 
299.0001488543266 0.04999999999999999 0.04999999999999999 0.04999999999999999 0.04999999999999999 0.022939407474548874 0.022939407474548874 0.022939407474548874 0.022939407474548874 
300.00209935531143 0.04999999999999999 0.04999999999999999 0.04999999999999999 0.04999999999999999 0.006272740807882221 0.006272740807882221 0.022939407474548874 0.022939407474548874 
#####################################################################
# End of data export. Simulation finished at: 2017-02-14T18:31+0000 #
#####################################################################
