#####################################################################
# Alchemist log file - simulation started at: 2017-02-14T18:07+0000 #
#####################################################################
# seed = 27.0
#
# The columns have the following meaning: 
# time go-co-to[Mean] go-co-tsync[Mean] go-cmp-to[Mean] go-cmp-tsync[Mean] flex-co-to[Mean] flex-co-tsync[Mean] flex-cmp-to[Mean] flex-cmp-tsync[Mean] 
0.0 NaN NaN NaN NaN NaN NaN NaN NaN 
1.0044305103885014 NaN NaN NaN NaN NaN NaN NaN NaN 
2.0015811647197537 NaN NaN NaN NaN NaN NaN NaN NaN 
3.0044305103885014 NaN NaN NaN NaN NaN NaN NaN NaN 
4.001581164719754 NaN NaN NaN NaN NaN NaN NaN NaN 
5.004430510388501 NaN NaN NaN NaN NaN NaN NaN NaN 
6.001581164719754 NaN NaN NaN NaN NaN NaN NaN NaN 
7.004261490954546 NaN NaN NaN NaN NaN NaN NaN NaN 
8.001581164719754 NaN NaN NaN NaN NaN NaN NaN NaN 
9.004430510388502 NaN NaN NaN NaN NaN NaN NaN NaN 
10.00124059652717 NaN NaN NaN NaN NaN NaN NaN NaN 
11.004430510388502 NaN NaN NaN NaN NaN NaN NaN NaN 
12.001581164719754 NaN NaN NaN NaN NaN NaN NaN NaN 
13.004430510388502 NaN NaN NaN NaN NaN NaN NaN NaN 
14.001581164719754 NaN NaN NaN NaN NaN NaN NaN NaN 
15.004430510388502 NaN NaN NaN NaN NaN NaN NaN NaN 
16.001581164719752 NaN NaN NaN NaN NaN NaN NaN NaN 
17.004261490954548 NaN NaN NaN NaN NaN NaN NaN NaN 
18.001581164719752 NaN NaN NaN NaN NaN NaN NaN NaN 
19.004430510388502 NaN NaN NaN NaN NaN NaN NaN NaN 
20.00124059652717 NaN NaN NaN NaN NaN NaN NaN NaN 
21.004430510388502 1.0 1.0 1.0 1.0 1.0 1.0 1.0 1.0 
22.001581164719752 1.0 1.0 1.0 1.0 1.0 1.0 1.0 1.0 
23.004430510388502 1.0 1.0 1.0 1.0 1.0 1.0 1.0 1.0 
24.001581164719752 1.0 1.0 1.0 1.0 1.0 1.0 1.0 1.0 
25.004430510388502 1.0 1.0 1.0 1.0 1.0 1.0 1.0 1.0 
26.001581164719752 1.0 1.0 1.0 1.0 1.0 1.0 1.0 1.0 
27.004261490954548 0.9846153846153847 0.9846153846153847 0.9846153846153847 0.9846153846153847 0.9846153846153847 0.9846153846153847 0.9846153846153847 0.9846153846153847 
28.001581164719752 0.9846153846153847 0.9846153846153847 0.9846153846153847 0.9846153846153847 0.9846153846153847 0.9846153846153847 0.9846153846153847 0.9846153846153847 
29.004430510388502 0.9846153846153847 0.9846153846153847 0.9846153846153847 0.9846153846153847 0.9846153846153847 0.9846153846153847 0.9846153846153847 0.9846153846153847 
30.00124059652717 0.9846153846153847 0.9846153846153847 0.9846153846153847 0.9846153846153847 0.9846153846153847 0.9846153846153847 0.9846153846153847 0.9846153846153847 
31.004430510388502 0.9538461538461538 0.9538461538461538 0.9538461538461538 0.9538461538461538 0.9538461538461538 0.9538461538461538 0.9538461538461538 0.9538461538461538 
32.00158116471975 0.9234294744566306 0.9234294744566306 0.9384615384615385 0.9384615384615385 0.9384615384615385 0.9384615384615385 0.9384615384615385 0.9384615384615385 
33.0044305103885 0.8111292569690567 0.8111292569690567 0.9384615384615385 0.9384615384615385 0.9384615384615385 0.9384615384615385 0.9384615384615385 0.9384615384615385 
34.00158116471975 0.7802344573166857 0.7802344573166857 0.9230769230769231 0.9230769230769231 0.9071336710869191 0.9071336710869191 0.9230769230769231 0.9230769230769231 
35.0044305103885 0.7391529604706681 0.7391529604706681 0.9076923076923077 0.9076923076923077 0.7559593139874683 0.7559593139874683 0.9076923076923077 0.9076923076923077 
36.00158116471975 0.6758192671708739 0.6758192671708739 0.8923076923076924 0.8923076923076924 0.7264324237714327 0.7264324237714327 0.8923076923076924 0.8923076923076924 
37.00426149095455 0.6409841010352212 0.6409841010352212 0.8923076923076924 0.8923076923076924 0.7338803167228096 0.7338803167228096 0.8923076923076924 0.8923076923076924 
38.00158116471975 0.598391310972018 0.598391310972018 0.8923076923076924 0.8923076923076924 0.6983066230422077 0.6983066230422077 0.8923076923076924 0.8923076923076924 
39.0044305103885 0.5561679356517638 0.5561679356517638 0.8923076923076924 0.8923076923076924 0.6806035120557392 0.6806035120557392 0.8923076923076924 0.8923076923076924 
40.00124059652717 0.48925749182202644 0.48925749182202644 0.8923076923076924 0.8923076923076924 0.6124645529203211 0.6124645529203211 0.8923076923076924 0.8923076923076924 
41.0044305103885 0.45573595971222713 0.45573595971222713 0.8923076923076924 0.8923076923076924 0.548171716942094 0.548171716942094 0.8923076923076924 0.8923076923076924 
42.00158116471975 0.47016955078817435 0.47016955078817435 0.8923076923076924 0.8923076923076924 0.5156671617765299 0.5156671617765299 0.8923076923076924 0.8923076923076924 
43.0044305103885 0.5860806985006682 0.5860806985006682 0.8923076923076924 0.8923076923076924 0.4861114966923728 0.4861114966923728 0.8923076923076924 0.8923076923076924 
44.00158116471975 0.5123929762695278 0.5123929762695278 0.8760020490783741 0.8760020490783741 0.44217807826970823 0.44217807826970823 0.8760020490783741 0.8760020490783741 
45.0044305103885 0.5027091476091201 0.5027091476091201 0.7742848579599375 0.7742848579599375 0.4466603739461477 0.4466603739461477 0.7474946855382366 0.7474946855382366 
46.00158116471975 0.5318225713122878 0.5318225713122878 0.7525451661117423 0.7525451661117423 0.36502610959643106 0.36502610959643106 0.7194207045777393 0.7194207045777393 
47.00426149095455 0.41565750707865484 0.41565750707865484 0.7431977141013437 0.7431977141013437 0.3037873186926645 0.3037873186926645 0.75168719522051 0.75168719522051 
48.00158116471975 0.4297372826192909 0.4297372826192909 0.6598124292193056 0.6598124292193056 0.2970347519059478 0.2970347519059478 0.6746361994507741 0.6746361994507741 
49.0044305103885 0.5584410272318807 0.5584410272318807 0.629492431825123 0.629492431825123 0.2849067602079651 0.2849067602079651 0.5943172376125584 0.5943172376125584 
50.00124059652717 0.5339808786376415 0.5339808786376415 0.5917774306164215 0.5917774306164215 0.27049337732442946 0.27049337732442946 0.5610717018138369 0.5610717018138369 
51.0044305103885 0.5370710655754668 0.5370710655754668 0.5133917590847489 0.5133917590847489 0.25905952618200545 0.25905952618200545 0.5153335138547536 0.5153335138547536 
52.00158116471975 0.6481117902707374 0.6481117902707374 0.4624776805118784 0.4624776805118784 0.25794047219353494 0.25794047219353494 0.46254532259757575 0.46254532259757575 
53.0044305103885 0.5469226558333322 0.5469226558333322 0.43444627577229733 0.43444627577229733 0.2275942351863016 0.2275942351863016 0.4262221412731608 0.4262221412731608 
54.00158116471975 0.551687402453911 0.551687402453911 0.39371206263379255 0.39371206263379255 0.25041968808146625 0.25041968808146625 0.39090980893841465 0.39090980893841465 
55.0044305103885 0.5854850788114787 0.5854850788114787 0.3677043754146992 0.3677043754146992 0.3885901412668393 0.3885901412668393 0.35685536441798843 0.35685536441798843 
56.00158116471975 0.5351034068583185 0.5351034068583185 0.3270298310357746 0.3270298310357746 0.4232827381287955 0.4232827381287955 0.3151676438500095 0.3151676438500095 
57.00426149095455 0.47705833887748955 0.47705833887748955 0.3173114266967902 0.3173114266967902 0.34217383192302153 0.34217383192302153 0.30795737042291715 0.30795737042291715 
58.00158116471975 0.48607439516727885 0.48607439516727885 0.30324286959373653 0.30324286959373653 0.34715566971133816 0.34715566971133816 0.27018297434420147 0.27018297434420147 
59.0044305103885 0.5024478973791937 0.5024478973791937 0.27506221316969687 0.27506221316969687 0.353287988939081 0.353287988939081 0.2549260471280077 0.2549260471280077 
60.00124059652717 0.4357695840723752 0.4357695840723752 0.26422006298234524 0.26422006298234524 0.3254895238431352 0.3254895238431352 0.25529193541360073 0.25529193541360073 
61.0044305103885 0.34555727574522743 0.34555727574522743 0.24565295047474175 0.24565295047474175 0.28121866444925503 0.28121866444925503 0.23814988399178166 0.23814988399178166 
62.00158116471975 0.3477359540759022 0.3477359540759022 0.23527123541563794 0.23527123541563794 0.3201688890062927 0.3201688890062927 0.22720527138540136 0.22720527138540136 
63.0044305103885 0.33313242321295394 0.33313242321295394 0.23771486851257045 0.23771486851257045 0.3191439199212701 0.3191439199212701 0.23243801875150308 0.23243801875150308 
64.00158116471975 0.24376890152899663 0.24376890152899663 0.23235992193663302 0.23235992193663302 0.24520312064587543 0.24520312064587543 0.23691277568128533 0.23691277568128533 
65.0044305103885 0.2359029500931829 0.2359029500931829 0.23075116290394726 0.23075116290394726 0.2393780804082624 0.2393780804082624 0.22799033533764482 0.22799033533764482 
66.00158116471975 0.2533187566583184 0.2533187566583184 0.2244920200655654 0.2244920200655654 0.23687426888277102 0.23687426888277102 0.21601554476639015 0.21601554476639015 
67.00426149095455 0.27379524287885043 0.27379524287885043 0.22948294724534812 0.22948294724534812 0.2492554888358647 0.2492554888358647 0.23213512935060424 0.23213512935060424 
68.00158116471975 0.2298285285741479 0.2298285285741479 0.21498746060633636 0.21498746060633636 0.2708155297279184 0.2708155297279184 0.2421501131870169 0.2421501131870169 
69.0044305103885 0.18419036572484096 0.18419036572484096 0.1907866909398715 0.1907866909398715 0.2756797454435384 0.2756797454435384 0.23382203515741995 0.23382203515741995 
70.00124059652717 0.21847627772669675 0.21847627772669675 0.19160280633446372 0.19160280633446372 0.2639250207648791 0.2639250207648791 0.24927094091529037 0.24927094091529037 
71.0044305103885 0.31188232908911534 0.31188232908911534 0.19151283919567708 0.19151283919567708 0.253415632046359 0.253415632046359 0.23955161970721472 0.23955161970721472 
72.00158116471975 0.3238120699822326 0.3238120699822326 0.20500955255551173 0.20500955255551173 0.25272417363325633 0.25272417363325633 0.25329974002498884 0.25329974002498884 
73.0044305103885 0.2604354678158059 0.2604354678158059 0.21369754190736975 0.21369754190736975 0.2635892720366395 0.2635892720366395 0.25617987341343196 0.25617987341343196 
74.00158116471975 0.27914151572475127 0.27914151572475127 0.2054463015173012 0.2054463015173012 0.26835884446525426 0.26835884446525426 0.24078635817695535 0.24078635817695535 
75.0044305103885 0.3007899511972106 0.3007899511972106 0.20257247323419691 0.20257247323419691 0.2689914282577314 0.2689914282577314 0.2530212107958452 0.2530212107958452 
76.00158116471975 0.30618358896415065 0.30618358896415065 0.19225878980489633 0.19225878980489633 0.2836145853887812 0.2836145853887812 0.24250767512369392 0.24250767512369392 
77.00426149095455 0.41619702185589913 0.41619702185589913 0.19995133604511922 0.19995133604511922 0.37194607878238234 0.37194607878238234 0.2397242420939943 0.2397242420939943 
78.00158116471975 0.47781826459379034 0.47781826459379034 0.20289552011519682 0.20289552011519682 0.4188433107109599 0.4188433107109599 0.22655185029789834 0.22655185029789834 
79.0044305103885 0.505000358114562 0.505000358114562 0.18706405331781598 0.18706405331781598 0.42213361688546996 0.42213361688546996 0.23149189730693848 0.23149189730693848 
80.00124059652717 0.5111988915529235 0.5111988915529235 0.17392542930660732 0.17392542930660732 0.3873961247376027 0.3873961247376027 0.216267890494827 0.216267890494827 
81.0044305103885 0.5039623215375466 0.5039623215375466 0.17653502941253146 0.17653502941253146 0.31174906954474024 0.31174906954474024 0.23928881108516623 0.23928881108516623 
82.00158116471975 0.5229530187043427 0.5229530187043427 0.18262402537632472 0.18262402537632472 0.31041830406943516 0.31041830406943516 0.2558417658580519 0.2558417658580519 
83.0044305103885 0.48211003140362924 0.48211003140362924 0.19004493367474345 0.19004493367474345 0.2695058118787622 0.2695058118787622 0.2646461477488778 0.2646461477488778 
84.00158116471975 0.4858075668592065 0.4858075668592065 0.1892619697674776 0.1892619697674776 0.3114353364978277 0.3114353364978277 0.2650970803547201 0.2650970803547201 
85.0044305103885 0.43697208728396003 0.43697208728396003 0.1997229916624583 0.1997229916624583 0.3249418072310404 0.3249418072310404 0.27918976802279155 0.27918976802279155 
86.00158116471975 0.4525561877340766 0.4525561877340766 0.20723576597647814 0.20723576597647814 0.2612626760395506 0.2612626760395506 0.27872116557683113 0.27872116557683113 
87.00426149095455 0.5542713393797843 0.5542713393797843 0.21729840300970732 0.21729840300970732 0.24428517563270752 0.24428517563270752 0.2637280916756482 0.2637280916756482 
88.00158116471975 0.5223144605730319 0.5223144605730319 0.21743536901973878 0.21743536901973878 0.218851467016102 0.218851467016102 0.25817068330771065 0.25817068330771065 
89.0044305103885 0.49637670713523036 0.49637670713523036 0.22216885877317047 0.22216885877317047 0.21124779136141542 0.21124779136141542 0.25796053596454244 0.25796053596454244 
90.00124059652717 0.5302129955746537 0.5302129955746537 0.2267457316810498 0.2267457316810498 0.2030088269577787 0.2030088269577787 0.2585837685765605 0.2585837685765605 
91.0044305103885 0.5177057579129745 0.5177057579129745 0.21511232043108178 0.21511232043108178 0.22024929259799153 0.22024929259799153 0.2595931805107537 0.2595931805107537 
92.00158116471975 0.4862555815549897 0.4862555815549897 0.2155360738103553 0.2155360738103553 0.23122986478025737 0.23122986478025737 0.2628928014392186 0.2628928014392186 
93.0044305103885 0.37700253015356905 0.37700253015356905 0.20456671041960656 0.20456671041960656 0.22589965839589732 0.22589965839589732 0.2626889235909757 0.2626889235909757 
94.00158116471975 0.3718066667198486 0.3718066667198486 0.1985512116424806 0.1985512116424806 0.24876670967295303 0.24876670967295303 0.26189956532703346 0.26189956532703346 
95.0044305103885 0.4551990160564847 0.4551990160564847 0.1877053406444591 0.1877053406444591 0.28938068638307635 0.28938068638307635 0.270649969414253 0.270649969414253 
96.00158116471975 0.44702718306719563 0.44702718306719563 0.18315847141760222 0.18315847141760222 0.28162030476265176 0.28162030476265176 0.25480056197289036 0.25480056197289036 
97.00426149095455 0.4144842200457205 0.4144842200457205 0.1780148134869443 0.1780148134869443 0.3129886688734422 0.3129886688734422 0.26738323571465206 0.26738323571465206 
98.00158116471975 0.3424522142523778 0.3424522142523778 0.17602299281983722 0.17602299281983722 0.3272652547257397 0.3272652547257397 0.2690148152302524 0.2690148152302524 
99.0044305103885 0.36636631298425837 0.36636631298425837 0.1753446200943423 0.1753446200943423 0.30422967640235044 0.30422967640235044 0.2531273449938634 0.2531273449938634 
100.00124059652717 0.4314348164013425 0.4314348164013425 0.18405931116095986 0.18405931116095986 0.3032055397408225 0.3032055397408225 0.25254816065459584 0.25254816065459584 
101.0044305103885 0.4484105631666262 0.4484105631666262 0.18399462187199078 0.18399462187199078 0.28600788739265653 0.28600788739265653 0.2525128146421411 0.2525128146421411 
102.00158116471975 0.40285871189135186 0.40285871189135186 0.19208985098727868 0.19208985098727868 0.2783418744785613 0.2783418744785613 0.2659736631049515 0.2659736631049515 
103.0044305103885 0.40357446334527963 0.40357446334527963 0.1933450872043357 0.1933450872043357 0.2890088906138708 0.2890088906138708 0.25094709391835207 0.25094709391835207 
104.00158116471975 0.4307270345346847 0.4307270345346847 0.18893165112766502 0.18893165112766502 0.296230572727578 0.296230572727578 0.234385195752054 0.234385195752054 
105.0044305103885 0.3983856952377633 0.3983856952377633 0.17730564705493826 0.17730564705493826 0.32274619158875734 0.32274619158875734 0.20721565832301891 0.20721565832301891 
106.00158116471975 0.4118741303302514 0.4118741303302514 0.17453015254540774 0.17453015254540774 0.32939665863795253 0.32939665863795253 0.20225444554674593 0.20225444554674593 
107.00426149095455 0.42349130755232134 0.42349130755232134 0.16814588206753045 0.16814588206753045 0.3052406855657131 0.3052406855657131 0.21205226204159006 0.21205226204159006 
108.00158116471975 0.4400878048631198 0.4400878048631198 0.16748855859363262 0.16748855859363262 0.3131419341968012 0.3131419341968012 0.20470909002855994 0.20470909002855994 
109.0044305103885 0.353764943341739 0.353764943341739 0.1672970796118313 0.1672970796118313 0.31506789203455243 0.31506789203455243 0.204365503669454 0.204365503669454 
110.00124059652717 0.3570496020715675 0.3570496020715675 0.16534742041892941 0.16534742041892941 0.30816265533403314 0.30816265533403314 0.21086772282213787 0.21086772282213787 
111.0044305103885 0.35878692903230497 0.35878692903230497 0.16529567008355853 0.16529567008355853 0.29403862201613795 0.29403862201613795 0.20418844132821992 0.20418844132821992 
112.00158116471975 0.34246831849346987 0.34246831849346987 0.16434798215648724 0.16434798215648724 0.2892059161503808 0.2892059161503808 0.2010575418226377 0.2010575418226377 
113.0044305103885 0.43755633301684066 0.43755633301684066 0.16603712297128234 0.16603712297128234 0.2643973345022438 0.2643973345022438 0.2028645607919826 0.2028645607919826 
114.00158116471975 0.4144527831603732 0.4144527831603732 0.16630131550221675 0.16630131550221675 0.26560765313310275 0.26560765313310275 0.1941297635582212 0.1941297635582212 
115.0044305103885 0.3829511090255687 0.3829511090255687 0.15421838500902893 0.15421838500902893 0.28230052908064995 0.28230052908064995 0.18267464977583361 0.18267464977583361 
116.00158116471975 0.3997707805153279 0.3997707805153279 0.15256901203921863 0.15256901203921863 0.24552335769636735 0.24552335769636735 0.1846093799834569 0.1846093799834569 
117.00426149095455 0.41736814201242134 0.41736814201242134 0.15918979556771876 0.15918979556771876 0.23781049810939614 0.23781049810939614 0.22003797858590915 0.22003797858590915 
118.00158116471975 0.4311873721862529 0.4311873721862529 0.1627550512357973 0.1627550512357973 0.2487255128670177 0.2487255128670177 0.23817869505122913 0.23817869505122913 
119.0044305103885 0.4053213459017372 0.4053213459017372 0.1617710774661379 0.1617710774661379 0.2534642664730745 0.2534642664730745 0.26625190169682655 0.26625190169682655 
120.00124059652717 0.39606234402542045 0.39606234402542045 0.15885180432268226 0.15885180432268226 0.2586329922970398 0.2586329922970398 0.25274213781012433 0.25274213781012433 
121.0044305103885 0.39575882626796133 0.39575882626796133 0.17706212788295855 0.17706212788295855 0.2650829660157258 0.2650829660157258 0.26309785640156064 0.26309785640156064 
122.00158116471975 0.39902397724989197 0.39902397724989197 0.17493832806565043 0.17493832806565043 0.28844439252973836 0.28844439252973836 0.25964921682586756 0.25964921682586756 
123.0044305103885 0.39902397724989197 0.39902397724989197 0.24893945863477787 0.24893945863477787 0.33087077928182573 0.33087077928182573 0.2539514259823588 0.2539514259823588 
124.00158116471975 0.4069850923623689 0.4069850923623689 0.2515216134836407 0.2515216134836407 0.34913063661442606 0.34913063661442606 0.25565873681638723 0.25565873681638723 
125.0044305103885 0.37068123150876825 0.37068123150876825 0.2447101101503032 0.2447101101503032 0.33114765079273717 0.33114765079273717 0.27239594430685965 0.27239594430685965 
126.00158116471975 0.3550952430439408 0.3550952430439408 0.2601353196234847 0.2601353196234847 0.3570325150075445 0.3570325150075445 0.2626879098926739 0.2626879098926739 
127.00426149095455 0.3754455736968807 0.3754455736968807 0.2605605651271755 0.2605605651271755 0.34193107717035576 0.34193107717035576 0.25228100818431765 0.25228100818431765 
128.00158116471977 0.35461000572448415 0.35461000572448415 0.29020695870661517 0.29020695870661517 0.3172091384677637 0.3172091384677637 0.2725783048565103 0.2725783048565103 
129.0044305103885 0.3554984136471081 0.3554984136471081 0.20032496327663427 0.20032496327663427 0.22388906200461678 0.22388906200461678 0.27256056145022706 0.27256056145022706 
130.00124059652717 0.3523458565221854 0.3523458565221854 0.17812296963446406 0.17812296963446406 0.22765277072080167 0.22765277072080167 0.2804934540765326 0.2804934540765326 
131.0044305103885 0.3495229748592785 0.3495229748592785 0.1818836941280774 0.1818836941280774 0.2273321201946052 0.2273321201946052 0.2675961377321566 0.2675961377321566 
132.00158116471977 0.3581635598686606 0.3581635598686606 0.1752059188586247 0.1752059188586247 0.21653031807920958 0.21653031807920958 0.2767684720762286 0.2767684720762286 
133.0044305103885 0.3696331402566823 0.3696331402566823 0.17186929662504233 0.17186929662504233 0.23908560540598775 0.23908560540598775 0.2065919500809754 0.2065919500809754 
134.00158116471977 0.3654991480559042 0.3654991480559042 0.1668823963464121 0.1668823963464121 0.24581627930873165 0.24581627930873165 0.20514694590038737 0.20514694590038737 
135.0044305103885 0.35145824908609563 0.35145824908609563 0.1649745990613076 0.1649745990613076 0.24424158847159588 0.24424158847159588 0.16639610173304759 0.16639610173304759 
136.00158116471977 0.3547770014381378 0.3547770014381378 0.16086395111854992 0.16086395111854992 0.2511004364025667 0.2511004364025667 0.1719043667218372 0.1719043667218372 
137.00426149095455 0.36555616955783515 0.36555616955783515 0.15446485661277348 0.15446485661277348 0.2392930367684486 0.2392930367684486 0.1726224226008725 0.1726224226008725 
138.00158116471977 0.37182699313142936 0.37182699313142936 0.15637570112587892 0.15637570112587892 0.24157309045519587 0.24157309045519587 0.16652345085145207 0.16652345085145207 
139.0044305103885 0.37448356981777536 0.37448356981777536 0.15690636773366537 0.15690636773366537 0.2521518002981119 0.2521518002981119 0.16865046917172224 0.16865046917172224 
140.00124059652717 0.36799139396746267 0.36799139396746267 0.15542154927187188 0.15542154927187188 0.23056843877325928 0.23056843877325928 0.17006469483120437 0.17006469483120437 
141.0044305103885 0.3526067785828472 0.3526067785828472 0.1520572317624498 0.1520572317624498 0.22692552983911912 0.22692552983911912 0.17956833002970932 0.17956833002970932 
142.00158116471977 0.3449096940483149 0.3449096940483149 0.12776843083519834 0.12776843083519834 0.17624800581797184 0.17624800581797184 0.18360257573778754 0.18360257573778754 
143.0044305103885 0.34625150576999414 0.34625150576999414 0.12298409310581254 0.12298409310581254 0.1583153429083092 0.1583153429083092 0.1828671377130805 0.1828671377130805 
144.00158116471977 0.3597934923114522 0.3597934923114522 0.12151331551613992 0.12151331551613992 0.17243278286430144 0.17243278286430144 0.1750312956253596 0.1750312956253596 
145.0044305103885 0.3850320551448793 0.3850320551448793 0.12028338762829971 0.12028338762829971 0.15834599905607863 0.15834599905607863 0.16925579459772006 0.16925579459772006 
146.00158116471977 0.386339353373417 0.386339353373417 0.11151948263979036 0.11151948263979036 0.15922476259908772 0.15922476259908772 0.15668593525007288 0.15668593525007288 
147.00426149095455 0.3307170755482187 0.3307170755482187 0.11408862050549534 0.11408862050549534 0.1584107609563567 0.1584107609563567 0.15364579289547714 0.15364579289547714 
148.00158116471977 0.3307753393972533 0.3307753393972533 0.12105907235172302 0.12105907235172302 0.1675907623797293 0.1675907623797293 0.15739250105902514 0.15739250105902514 
149.0044305103885 0.33562121283190594 0.33562121283190594 0.1176356655575205 0.1176356655575205 0.15419464413387463 0.15419464413387463 0.15990920780770565 0.15990920780770565 
150.00124059652717 0.32295626592276444 0.32295626592276444 0.10850030001430089 0.10850030001430089 0.1333225039878201 0.1333225039878201 0.14423787346469125 0.14423787346469125 
151.0044305103885 0.36001368756912455 0.36001368756912455 0.11226500467592028 0.11226500467592028 0.1200637173279612 0.1200637173279612 0.1439868215484877 0.1439868215484877 
152.00158116471977 0.3723368269218649 0.3723368269218649 0.1216653144331409 0.1216653144331409 0.14390927202200227 0.14390927202200227 0.1359853487945096 0.1359853487945096 
153.0044305103885 0.34847499432796875 0.34847499432796875 0.12661401627274943 0.12661401627274943 0.14640461316557873 0.14640461316557873 0.11943598493470842 0.11943598493470842 
154.00158116471977 0.3181007634781991 0.3181007634781991 0.12843792743266338 0.12843792743266338 0.15331183333152754 0.15331183333152754 0.11893726508965599 0.11893726508965599 
155.0044305103885 0.3281154433488282 0.3281154433488282 0.1239355263168088 0.1239355263168088 0.1558189276938091 0.1558189276938091 0.12104507047771951 0.12104507047771951 
156.00158116471977 0.30299124090644924 0.30299124090644924 0.124468365265709 0.124468365265709 0.13926085095870208 0.13926085095870208 0.13069137378838838 0.13069137378838838 
157.00426149095455 0.3259885719669146 0.3259885719669146 0.1308928215619911 0.1308928215619911 0.14154314352019046 0.14154314352019046 0.13132044376945917 0.13132044376945917 
158.00158116471977 0.35913195761362315 0.35913195761362315 0.13681350065515047 0.13681350065515047 0.13231795201663882 0.13231795201663882 0.13464588464351523 0.13464588464351523 
159.0044305103885 0.3022383144336919 0.3022383144336919 0.13795825057359787 0.13795825057359787 0.12411535098892097 0.12411535098892097 0.14040967555584538 0.14040967555584538 
160.00124059652717 0.2850139775151967 0.2850139775151967 0.13100868362441878 0.13100868362441878 0.11535101250159406 0.11535101250159406 0.15184814452970619 0.15184814452970619 
161.0044305103885 0.2800713557667769 0.2800713557667769 0.12595787638587205 0.12595787638587205 0.14624915987779608 0.14624915987779608 0.15142478321813976 0.15142478321813976 
162.00158116471977 0.27949039294477357 0.27949039294477357 0.12600800904198897 0.12600800904198897 0.15365554256781508 0.15365554256781508 0.13191687298226298 0.13191687298226298 
163.0044305103885 0.2955022102113301 0.2955022102113301 0.12477826302504388 0.12477826302504388 0.16695619633596698 0.16695619633596698 0.13069326344301338 0.13069326344301338 
164.00158116471977 0.29342694053495433 0.29342694053495433 0.11492892669474768 0.11492892669474768 0.17513761272434486 0.17513761272434486 0.13089510328413656 0.13089510328413656 
165.0044305103885 0.28752413284205774 0.28752413284205774 0.11480506534778062 0.11480506534778062 0.18159762783312722 0.18159762783312722 0.1302712567221592 0.1302712567221592 
166.00158116471977 0.27299653714054417 0.27299653714054417 0.11634991136886386 0.11634991136886386 0.1718180600139107 0.1718180600139107 0.13791256150586156 0.13791256150586156 
167.00426149095455 0.23017125249947154 0.23017125249947154 0.11765945662144048 0.11765945662144048 0.14584787395963678 0.14584787395963678 0.13335422357004317 0.13335422357004317 
168.00158116471977 0.23854903532907512 0.23854903532907512 0.12862526046558656 0.12862526046558656 0.1430197827501448 0.1430197827501448 0.1268676602862717 0.1268676602862717 
169.0044305103885 0.2517758421506871 0.2517758421506871 0.13233964153357855 0.13233964153357855 0.14035327661313673 0.14035327661313673 0.13545323946210774 0.13545323946210774 
170.00124059652717 0.233508951908518 0.233508951908518 0.13772310911882876 0.13772310911882876 0.15091216458109996 0.15091216458109996 0.14093326763675704 0.14093326763675704 
171.0044305103885 0.2244320065115912 0.2244320065115912 0.13677704008437608 0.13677704008437608 0.1580867292511727 0.1580867292511727 0.14098270061956097 0.14098270061956097 
172.00158116471977 0.23711397010270435 0.23711397010270435 0.11876601949367054 0.11876601949367054 0.1680883416215916 0.1680883416215916 0.16399797351590867 0.16399797351590867 
173.0044305103885 0.20844259119300643 0.20844259119300643 0.11991953991752137 0.11991953991752137 0.16319216539872283 0.16319216539872283 0.1651526770030539 0.1651526770030539 
174.00158116471977 0.1876651633750357 0.1876651633750357 0.11993224682999004 0.11993224682999004 0.16796833815089388 0.16796833815089388 0.16516538391552255 0.16516538391552255 
175.0044305103885 0.20600302774149315 0.20600302774149315 0.1182189884987441 0.1182189884987441 0.15620289470753063 0.15620289470753063 0.16345212558427663 0.16345212558427663 
176.00158116471977 0.19943946742689947 0.19943946742689947 0.12363867780518824 0.12363867780518824 0.16254827570211533 0.16254827570211533 0.13124257921788585 0.13124257921788585 
177.00426149095455 0.16954122136692124 0.16954122136692124 0.12480742029798507 0.12480742029798507 0.16376366694167468 0.16376366694167468 0.13242668810366137 0.13242668810366137 
178.00158116471977 0.18632608322349076 0.18632608322349076 0.1274214480235652 0.1274214480235652 0.18327896412763348 0.18327896412763348 0.13063142643414682 0.13063142643414682 
179.0044305103885 0.15475040808559917 0.15475040808559917 0.11549723005016721 0.11549723005016721 0.1932294001196121 0.1932294001196121 0.11870720846074888 0.11870720846074888 
180.00124059652717 0.14217821111055853 0.14217821111055853 0.10718361415240853 0.10718361415240853 0.18186935139525987 0.18186935139525987 0.12243748656078832 0.12243748656078832 
181.0044305103885 0.14604779120970346 0.14604779120970346 0.10644171193948178 0.10644171193948178 0.18111208278935437 0.18111208278935437 0.12168021795488283 0.12168021795488283 
182.00158116471977 0.15140509191270454 0.15140509191270454 0.09397807706156716 0.09397807706156716 0.1445101913912765 0.1445101913912765 0.09397807706156716 0.09397807706156716 
183.0044305103885 0.14729160490910448 0.14729160490910448 0.09475225738200654 0.09475225738200654 0.14546329957687057 0.14546329957687057 0.09475225738200654 0.09475225738200654 
184.00158116471977 0.12858057392844746 0.12858057392844746 0.09471354321539498 0.09471354321539498 0.14516371661194394 0.14516371661194394 0.09471354321539498 0.09471354321539498 
185.0044305103885 0.1374113948547053 0.1374113948547053 0.09523396617838668 0.09523396617838668 0.14613721762110968 0.14613721762110968 0.09568704422456069 0.09568704422456069 
186.00158116471977 0.11403119575623037 0.11403119575623037 0.0946961552520292 0.0946961552520292 0.1421187196121917 0.1421187196121917 0.09479190054565259 0.09479190054565259 
187.00426149095455 0.11613294660756293 0.11613294660756293 0.09491711902320303 0.09491711902320303 0.13775157586961756 0.13775157586961756 0.09455978627065238 0.09455978627065238 
188.00158116471977 0.10820625225961891 0.10820625225961891 0.08720207371757871 0.08720207371757871 0.14034362178553725 0.14034362178553725 0.08750354027439097 0.08750354027439097 
189.0044305103885 0.10782163732366098 0.10782163732366098 0.08709723960202369 0.08709723960202369 0.13360344046843764 0.13360344046843764 0.08739870615883596 0.08739870615883596 
190.00124059652717 0.1072163499958673 0.1072163499958673 0.08621537190707769 0.08621537190707769 0.15358957180943048 0.15358957180943048 0.08651683846388997 0.08651683846388997 
191.0044305103885 0.11552237167440654 0.11552237167440654 0.08653533729525391 0.08653533729525391 0.13831736271037545 0.13831736271037545 0.08683680385206617 0.08683680385206617 
192.00158116471977 0.1151452879111532 0.1151452879111532 0.08615825353200056 0.08615825353200056 0.13213291635966495 0.13213291635966495 0.10154286891661593 0.10154286891661593 
193.0044305103885 0.13307037474262995 0.13307037474262995 0.08610589181863279 0.08610589181863279 0.13208055464629723 0.13208055464629723 0.10149050720324819 0.10149050720324819 
194.00158116471977 0.12666976575729375 0.12666976575729375 0.08601019015887937 0.08601019015887937 0.1319848529865438 0.1319848529865438 0.10139480554349475 0.10139480554349475 
195.0044305103885 0.09211873718403277 0.09211873718403277 0.08292444027787402 0.08292444027787402 0.14428371849015384 0.14428371849015384 0.11369367104710477 0.11369367104710477 
196.00158116471977 0.09865429541180953 0.09865429541180953 0.08286859634476475 0.08286859634476475 0.13741081673050426 0.13741081673050426 0.11132426122585369 0.11132426122585369 
197.00426149095455 0.1019209241601305 0.1019209241601305 0.07036262225662587 0.07036262225662587 0.13892680973932828 0.13892680973932828 0.09934620098634166 0.09934620098634166 
198.00158116471977 0.09171471508467942 0.09171471508467942 0.06015641318117478 0.06015641318117478 0.14489231099015934 0.14489231099015934 0.0929991650550154 0.0929991650550154 
199.0044305103885 0.08058776886953128 0.08058776886953128 0.06190202574700038 0.06190202574700038 0.11600553616658846 0.11600553616658846 0.09474477762084098 0.09474477762084098 
200.00124059652717 0.07820253533933379 0.07820253533933379 0.05585065115413293 0.05585065115413293 0.13848514863373076 0.13848514863373076 0.10407801841258893 0.10407801841258893 
201.0044305103885 0.10209275691280977 0.10209275691280977 0.06321609151102608 0.06321609151102608 0.13868113358332543 0.13868113358332543 0.1098595886250337 0.1098595886250337 
202.00158116471977 0.08718214999537517 0.08718214999537517 0.06426636512121263 0.06426636512121263 0.12364528513746785 0.12364528513746785 0.09535943754578165 0.09535943754578165 
203.0044305103885 0.10220722423368395 0.10220722423368395 0.06756660785561289 0.06756660785561289 0.12372155952678725 0.12372155952678725 0.09567294417387051 0.09567294417387051 
204.00158116471977 0.11814534994522134 0.11814534994522134 0.06659241279624552 0.06659241279624552 0.13364810541050928 0.13364810541050928 0.08936420903975996 0.08936420903975996 
205.0044305103885 0.120418036799106 0.120418036799106 0.09229572490519483 0.09229572490519483 0.13357017075870242 0.13357017075870242 0.10221680139824837 0.10221680139824837 
206.00158116471977 0.093428014242973 0.093428014242973 0.0852556254455549 0.0852556254455549 0.11167589483117817 0.11167589483117817 0.11660918393952419 0.11660918393952419 
207.00426149095455 0.0965045511407242 0.0965045511407242 0.08589494463800984 0.08589494463800984 0.1247114488972579 0.1247114488972579 0.11724850313197913 0.11724850313197913 
208.00158116471977 0.10001014943445796 0.10001014943445796 0.07782830529562307 0.07782830529562307 0.11073194883273357 0.11073194883273357 0.13770940476074045 0.13770940476074045 
209.0044305103885 0.10121536899642405 0.10121536899642405 0.09257404587456453 0.09257404587456453 0.09774114982624667 0.09774114982624667 0.13924322483262078 0.13924322483262078 
210.00124059652717 0.10852521506002073 0.10852521506002073 0.09257404587456453 0.09257404587456453 0.0918195352828118 0.0918195352828118 0.12385754394799617 0.12385754394799617 
211.0044305103885 0.12746636227629055 0.12746636227629055 0.09234343993258393 0.09234343993258393 0.11021460656583965 0.11021460656583965 0.12413965507353229 0.12413965507353229 
212.00158116471977 0.11677999262883657 0.11677999262883657 0.09231191227372734 0.09231191227372734 0.06949363377996112 0.06949363377996112 0.10829307509253883 0.10829307509253883 
213.0044305103885 0.08650526835764845 0.08650526835764845 0.07692729688911197 0.07692729688911197 0.08963119506429888 0.08963119506429888 0.09287698049137369 0.09287698049137369 
214.00158116471977 0.09571532090130967 0.09571532090130967 0.07610799505231096 0.07610799505231096 0.1022945868646817 0.1022945868646817 0.07678507668435312 0.07678507668435312 
215.0044305103885 0.11038058033084457 0.11038058033084457 0.0897801234422789 0.0897801234422789 0.1027713703069438 0.1027713703069438 0.06259995782437673 0.06259995782437673 
216.00158116471977 0.11450344479536051 0.11450344479536051 0.09446830133331814 0.09446830133331814 0.09531958625798008 0.09531958625798008 0.0800702237914708 0.0800702237914708 
217.00426149095455 0.11324341400200756 0.11324341400200756 0.09446830133331814 0.09446830133331814 0.09743383572863643 0.09743383572863643 0.09255923817718108 0.09255923817718108 
218.00158116471977 0.08857574539124058 0.08857574539124058 0.09154920065248086 0.09154920065248086 0.07735161056632096 0.07735161056632096 0.11084175477424214 0.11084175477424214 
219.0044305103885 0.10249747091245076 0.10249747091245076 0.0930173027745772 0.0930173027745772 0.08148021437428728 0.08148021437428728 0.11232328835864543 0.11232328835864543 
220.00124059652717 0.11204815578295166 0.11204815578295166 0.0930173027745772 0.0930173027745772 0.08148021437428728 0.08148021437428728 0.11232328835864543 0.11232328835864543 
221.0044305103885 0.08741282488335508 0.08741282488335508 0.09348051187365722 0.09348051187365722 0.0819434234733672 0.0819434234733672 0.11278723136432407 0.11278723136432407 
222.00158116471977 0.09893838255475906 0.09893838255475906 0.09428599074547947 0.09428599074547947 0.08274890234518949 0.08274890234518949 0.09645976461455816 0.09645976461455816 
223.0044305103885 0.09504578051016173 0.09504578051016173 0.07911420274899822 0.07911420274899822 0.0675771143487082 0.0675771143487082 0.08324151165814236 0.08324151165814236 
224.00158116471977 0.07260151697238562 0.07260151697238562 0.07911420274899822 0.07911420274899822 0.0675771143487082 0.0675771143487082 0.08324151165814236 0.08324151165814236 
225.0044305103885 0.09991138796326865 0.09991138796326865 0.08021299480625986 0.08021299480625986 0.06867590640596989 0.06867590640596989 0.084340303715404 0.084340303715404 
226.00158116471977 0.11117967505973862 0.11117967505973862 0.08011934793944472 0.08011934793944472 0.06858225953915474 0.06858225953915474 0.06510624171961019 0.06510624171961019 
227.00426149095455 0.07571868137267228 0.07571868137267228 0.06522926624962791 0.06522926624962791 0.05414651406895316 0.05414651406895316 0.06528107203032396 0.06528107203032396 
228.00158116471977 0.0842300760100636 0.0842300760100636 0.06647958739778638 0.06647958739778638 0.07078145060172704 0.07078145060172704 0.06653139317848245 0.06653139317848245 
229.0044305103885 0.1084250128610938 0.1084250128610938 0.08298992582687123 0.08298992582687123 0.08299167741072505 0.08299167741072505 0.06553328620328189 0.06553328620328189 
230.00124059652717 0.08756077633237831 0.08756077633237831 0.08298992582687123 0.08298992582687123 0.06760706202610968 0.06760706202610968 0.06553328620328189 0.06553328620328189 
231.0044305103885 0.09995430779673782 0.09995430779673782 0.08363281383070519 0.08363281383070519 0.06826556121943024 0.06826556121943024 0.06619178539660245 0.06619178539660245 
232.00158116471977 0.11051155390903702 0.11051155390903702 0.0845017998555951 0.0845017998555951 0.06913454724432017 0.06913454724432017 0.05167615603687697 0.05167615603687697 
233.0044305103885 0.09119029846298209 0.09119029846298209 0.09918080574113161 0.09918080574113161 0.06913454724432017 0.06913454724432017 0.05167615603687697 0.05167615603687697 
234.00158116471977 0.10236627490428828 0.10236627490428828 0.09918080574113161 0.09918080574113161 0.06913454724432017 0.06913454724432017 0.04269775617955581 0.04269775617955581 
235.0044305103885 0.10472828637275176 0.10472828637275176 0.0936526835971093 0.0936526835971093 0.06360642510029786 0.06360642510029786 0.03716963403553355 0.03716963403553355 
236.00158116471977 0.08934367098813642 0.08934367098813642 0.08944404465380011 0.08944404465380011 0.07478240154160404 0.07478240154160404 0.03296099509222432 0.03296099509222432 
237.00426149095455 0.07414819332160841 0.07414819332160841 0.0587641885715617 0.0587641885715617 0.08946140742714055 0.08946140742714055 0.04676131123604032 0.04676131123604032 
238.00158116471977 0.07565510543318267 0.07565510543318267 0.06027110068313596 0.06027110068313596 0.09096831953871483 0.09096831953871483 0.05770351171396198 0.05770351171396198 
239.0044305103885 0.07565510543318267 0.07565510543318267 0.06027110068313596 0.06027110068313596 0.09096831953871483 0.09096831953871483 0.05723122309965262 0.05723122309965262 
240.00124059652717 0.07565510543318267 0.07565510543318267 0.06027110068313596 0.06027110068313596 0.09096831953871483 0.09096831953871483 0.05723122309965262 0.05723122309965262 
241.0044305103885 0.07600627824194855 0.07600627824194855 0.060645363636057506 0.060645363636057506 0.07613345593592019 0.07613345593592019 0.05762233843395943 0.05762233843395943 
242.00158116471977 0.07510771777873035 0.07510771777873035 0.059746803172839286 0.059746803172839286 0.07523489547270193 0.07523489547270193 0.056723777970741185 0.056723777970741185 
243.0044305103885 0.07510771777873035 0.07510771777873035 0.04460446930130586 0.04460446930130586 0.07523489547270193 0.07523489547270193 0.056723777970741185 0.056723777970741185 
244.00158116471977 0.07510771777873035 0.07510771777873035 0.04460446930130586 0.04460446930130586 0.07247901186025024 0.07247901186025024 0.05726680559362661 0.05726680559362661 
245.0044305103885 0.07528067227705126 0.07528067227705126 0.044777423799626785 0.044777423799626785 0.07265196635857117 0.07265196635857117 0.05743976009194751 0.05743976009194751 
246.00158116471977 0.07528067227705126 0.07528067227705126 0.042021540187175105 0.042021540187175105 0.07265196635857117 0.07265196635857117 0.05743976009194751 0.05743976009194751 
247.00426149095455 0.059723647774444166 0.059723647774444166 0.04163968823934822 0.04163968823934822 0.07240891900857896 0.07240891900857896 0.07240968484548921 0.07240968484548921 
248.00158116471977 0.054047438270610815 0.054047438270610815 0.026146846943603676 0.026146846943603676 0.05134809412013024 0.05134809412013024 0.06673347534165587 0.06673347534165587 
249.0044305103885 0.054047438270610815 0.054047438270610815 0.026146846943603676 0.026146846943603676 0.05134809412013024 0.05134809412013024 0.06673347534165587 0.06673347534165587 
250.00124059652717 0.054047438270610815 0.054047438270610815 0.026146846943603676 0.026146846943603676 0.05134809412013024 0.05134809412013024 0.06673347534165587 0.06673347534165587 
251.0044305103885 0.054009348677098286 0.054009348677098286 0.026138601619513147 0.026138601619513147 0.05133984879603969 0.05133984879603969 0.0667254965068654 0.0667254965068654 
252.00158116471977 0.054481294811265936 0.054481294811265936 0.026610547753680748 0.026610547753680748 0.05181179493020731 0.05181179493020731 0.067197442641033 0.067197442641033 
253.0044305103885 0.054481294811265936 0.054481294811265936 0.026610547753680748 0.026610547753680748 0.05181179493020731 0.05181179493020731 0.067197442641033 0.067197442641033 
254.00158116471977 0.054481294811265936 0.054481294811265936 0.026279358706256865 0.026279358706256865 0.05245186414064993 0.05245186414064993 0.06783751185147563 0.06783751185147563 
255.0044305103885 0.054884858227720656 0.054884858227720656 0.026682922122711582 0.026682922122711582 0.05285542755710466 0.05285542755710466 0.06824107526793036 0.06824107526793036 
256.00158116471977 0.054884858227720656 0.054884858227720656 0.026682922122711582 0.026682922122711582 0.05285542755710466 0.05285542755710466 0.06824107526793036 0.06824107526793036 
257.00426149095455 0.054884858227720656 0.054884858227720656 0.0266839544489219 0.0266839544489219 0.05285645988331497 0.05285645988331497 0.05285645988331497 0.05285645988331497 
258.00158116471977 0.054884858227720656 0.054884858227720656 0.02617794765116918 0.02617794765116918 0.05285645988331497 0.05285645988331497 0.05285645988331497 0.05285645988331497 
259.0044305103885 0.054884858227720656 0.054884858227720656 0.02617794765116918 0.02617794765116918 0.05285645988331497 0.05285645988331497 0.05285645988331497 0.05285645988331497 
260.00124059652717 0.054884858227720656 0.054884858227720656 0.02617794765116918 0.02617794765116918 0.05285645988331497 0.05285645988331497 0.05285645988331497 0.05285645988331497 
261.0044305103885 0.05462899695236917 0.05462899695236917 0.02601294215577472 0.02601294215577472 0.037306839003305135 0.037306839003305135 0.052691454387920514 0.052691454387920514 
262.00158116471977 0.05942112219149673 0.05942112219149673 0.03080506739490223 0.03080506739490223 0.03080506739490223 0.03080506739490223 0.05748357962704803 0.05748357962704803 
263.0044305103885 0.05942112219149673 0.05942112219149673 0.03080506739490223 0.03080506739490223 0.03080506739490223 0.03080506739490223 0.05748357962704803 0.05748357962704803 
264.00158116471977 0.06498491306020218 0.06498491306020218 0.030471537280117336 0.030471537280117336 0.030471537280117336 0.030471537280117336 0.05823147896607656 0.05823147896607656 
265.0044305103885 0.05602690281445318 0.05602690281445318 0.03133207552859917 0.03133207552859917 0.03133207552859917 0.03133207552859917 0.05909201721455841 0.05909201721455841 
266.00158116471977 0.05602690281445318 0.05602690281445318 0.03133207552859917 0.03133207552859917 0.03133207552859917 0.03133207552859917 0.05909201721455841 0.05909201721455841 
267.00426149095455 0.05602690281445318 0.05602690281445318 0.03133207552859917 0.03133207552859917 0.03133207552859917 0.03133207552859917 0.043707401829943024 0.043707401829943024 
268.00158116471977 0.04849728939338335 0.04849728939338335 0.043707401829943024 0.043707401829943024 0.043707401829943024 0.043707401829943024 0.043707401829943024 0.043707401829943024 
269.0044305103885 0.058315837887614165 0.058315837887614165 0.043707401829943024 0.043707401829943024 0.043707401829943024 0.043707401829943024 0.043707401829943024 0.043707401829943024 
270.00124059652717 0.06584545130868404 0.06584545130868404 0.043707401829943024 0.043707401829943024 0.043707401829943024 0.043707401829943024 0.043707401829943024 0.043707401829943024 
271.0044305103885 0.05199945872340937 0.05199945872340937 0.03980949438386113 0.03980949438386113 0.055194109768476544 0.055194109768476544 0.055194109768476544 0.055194109768476544 
272.00158116471977 0.05758056670029146 0.05758056670029146 0.050954393229448655 0.050954393229448655 0.0550376069498976 0.0550376069498976 0.0550376069498976 0.0550376069498976 
273.0044305103885 0.0673991151945222 0.0673991151945222 0.050954393229448655 0.050954393229448655 0.0550376069498976 0.0550376069498976 0.0550376069498976 0.0550376069498976 
274.00158116471977 0.06486742733867823 0.06486742733867823 0.05182023662423102 0.05182023662423102 0.055903450344679945 0.055903450344679945 0.055903450344679945 0.055903450344679945 
275.0044305103885 0.04892900719734323 0.04892900719734323 0.050958623384989014 0.050958623384989014 0.05504183710543793 0.05504183710543793 0.05504183710543793 0.05504183710543793 
276.00158116471977 0.05146069505318721 0.05146069505318721 0.050958623384989014 0.050958623384989014 0.05504183710543793 0.05504183710543793 0.05504183710543793 0.05504183710543793 
277.00426149095455 0.06653750195528021 0.06653750195528021 0.050958623384989014 0.050958623384989014 0.05504183710543793 0.05504183710543793 0.05504183710543793 0.05504183710543793 
278.00158116471977 0.06653750195528021 0.06653750195528021 0.03965722172082256 0.03965722172082256 0.05504183710543793 0.05504183710543793 0.05504183710543793 0.05504183710543793 
279.0044305103885 0.06653750195528021 0.06653750195528021 0.03965722172082256 0.03965722172082256 0.05504183710543793 0.05504183710543793 0.05504183710543793 0.05504183710543793 
280.00124059652717 0.06653750195528021 0.06653750195528021 0.03965722172082256 0.03965722172082256 0.05504183710543793 0.05504183710543793 0.05504183710543793 0.05504183710543793 
281.0044305103885 0.06653750195528021 0.06653750195528021 0.03965959591672514 0.03965959591672514 0.05504421130134052 0.05504421130134052 0.05504421130134052 0.05504421130134052 
282.00158116471977 0.06658958795576081 0.06658958795576081 0.039628260627473225 0.039628260627473225 0.0550128760120886 0.0550128760120886 0.0550128760120886 0.0550128760120886 
283.0044305103885 0.06658958795576081 0.06658958795576081 0.039628260627473225 0.039628260627473225 0.0550128760120886 0.0550128760120886 0.0550128760120886 0.0550128760120886 
284.00158116471977 0.06709165962395902 0.06709165962395902 0.039636568083062214 0.039636568083062214 0.05502118346767759 0.05502118346767759 0.05502118346767759 0.05502118346767759 
285.0044305103885 0.06528362394484913 0.06528362394484913 0.037828532403952335 0.037828532403952335 0.05321314778856771 0.05321314778856771 0.05321314778856771 0.05321314778856771 
286.00158116471977 0.05339672932275202 0.05339672932275202 0.037828532403952335 0.037828532403952335 0.05321314778856771 0.05321314778856771 0.05321314778856771 0.05321314778856771 
287.00426149095455 0.05339672932275202 0.05339672932275202 0.037828532403952335 0.037828532403952335 0.05321314778856771 0.05321314778856771 0.05321314778856771 0.05321314778856771 
288.00158116471977 0.06528362394484913 0.06528362394484913 0.037828532403952335 0.037828532403952335 0.05321314778856771 0.05321314778856771 0.05321314778856771 0.05321314778856771 
289.0044305103885 0.06528362394484913 0.06528362394484913 0.037828532403952335 0.037828532403952335 0.05321314778856771 0.05321314778856771 0.05321314778856771 0.05321314778856771 
290.00124059652717 0.06528362394484913 0.06528362394484913 0.037828532403952335 0.037828532403952335 0.05321314778856771 0.05321314778856771 0.05321314778856771 0.05321314778856771 
291.0044305103885 0.06528362394484913 0.06528362394484913 0.03775405036402566 0.03775405036402566 0.03775405036402566 0.03775405036402566 0.03775405036402566 0.03775405036402566 
292.00158116471977 0.06643063000400175 0.06643063000400175 0.03804311778572551 0.03804311778572551 0.03804311778572551 0.03804311778572551 0.03804311778572551 0.03804311778572551 
293.0044305103885 0.06643063000400175 0.06643063000400175 0.03804311778572551 0.03804311778572551 0.03804311778572551 0.03804311778572551 0.03804311778572551 0.03804311778572551 
294.00158116471977 0.06643063000400175 0.06643063000400175 0.03696225219231335 0.03696225219231335 0.03696225219231335 0.03696225219231335 0.03696225219231335 0.03696225219231335 
295.0044305103885 0.06482683500773181 0.06482683500773181 0.03535845719604335 0.03535845719604335 0.03535845719604335 0.03535845719604335 0.03535845719604335 0.03535845719604335 
296.00158116471977 0.06482683500773181 0.06482683500773181 0.03535845719604335 0.03535845719604335 0.03535845719604335 0.03535845719604335 0.03535845719604335 0.03535845719604335 
297.00426149095455 0.06482683500773181 0.06482683500773181 0.03535845719604335 0.03535845719604335 0.03535845719604335 0.03535845719604335 0.03535845719604335 0.03535845719604335 
298.00158116471977 0.06482683500773181 0.06482683500773181 0.03535845719604335 0.03535845719604335 0.03535845719604335 0.03535845719604335 0.03535845719604335 0.03535845719604335 
299.0044305103885 0.06482683500773181 0.06482683500773181 0.03535845719604335 0.03535845719604335 0.03535845719604335 0.03535845719604335 0.03535845719604335 0.03535845719604335 
300.00124059652717 0.06482683500773181 0.06482683500773181 0.03535845719604335 0.03535845719604335 0.03535845719604335 0.03535845719604335 0.03535845719604335 0.03535845719604335 
#####################################################################
# End of data export. Simulation finished at: 2017-02-14T18:20+0000 #
#####################################################################
