#####################################################################
# Alchemist log file - simulation started at: 2017-02-14T17:54+0000 #
#####################################################################
# seed = 1.0
#
# The columns have the following meaning: 
# time go-co-to[Mean] go-co-tsync[Mean] go-cmp-to[Mean] go-cmp-tsync[Mean] flex-co-to[Mean] flex-co-tsync[Mean] flex-cmp-to[Mean] flex-cmp-tsync[Mean] 
0.0 NaN NaN NaN NaN NaN NaN NaN NaN 
1.0069263845328553 NaN NaN NaN NaN NaN NaN NaN NaN 
2.0043764065694707 NaN NaN NaN NaN NaN NaN NaN NaN 
3.0069263845328553 NaN NaN NaN NaN NaN NaN NaN NaN 
4.00437640656947 NaN NaN NaN NaN NaN NaN NaN NaN 
5.006926384532855 NaN NaN NaN NaN NaN NaN NaN NaN 
6.001875928287901 NaN NaN NaN NaN NaN NaN NaN NaN 
7.006926384532855 NaN NaN NaN NaN NaN NaN NaN NaN 
8.00437640656947 NaN NaN NaN NaN NaN NaN NaN NaN 
9.002956158688379 NaN NaN NaN NaN NaN NaN NaN NaN 
10.00437640656947 NaN NaN NaN NaN NaN NaN NaN NaN 
11.006926384532855 NaN NaN NaN NaN NaN NaN NaN NaN 
12.00437640656947 NaN NaN NaN NaN NaN NaN NaN NaN 
13.006926384532855 NaN NaN NaN NaN NaN NaN NaN NaN 
14.00437640656947 NaN NaN NaN NaN NaN NaN NaN NaN 
15.006926384532855 NaN NaN NaN NaN NaN NaN NaN NaN 
16.0018759282879 NaN NaN NaN NaN NaN NaN NaN NaN 
17.006926384532854 NaN NaN NaN NaN NaN NaN NaN NaN 
18.00437640656947 NaN NaN NaN NaN NaN NaN NaN NaN 
19.002956158688377 NaN NaN NaN NaN NaN NaN NaN NaN 
20.00437640656947 NaN NaN NaN NaN NaN NaN NaN NaN 
21.006926384532854 1.0 1.0 1.0 1.0 1.0 1.0 1.0 1.0 
22.00437640656947 1.0 1.0 1.0 1.0 1.0 1.0 1.0 1.0 
23.006926384532854 0.9811320754716981 0.9811320754716981 0.9811320754716981 0.9811320754716981 0.9811320754716981 0.9811320754716981 0.9811320754716981 0.9811320754716981 
24.00437640656947 0.9811320754716981 0.9811320754716981 0.9811320754716981 0.9811320754716981 0.9811320754716981 0.9811320754716981 0.9811320754716981 0.9811320754716981 
25.006926384532854 0.9622641509433962 0.9622641509433962 0.9622641509433962 0.9622641509433962 0.9622641509433962 0.9622641509433962 0.9622641509433962 0.9622641509433962 
26.0018759282879 0.9622641509433962 0.9622641509433962 0.9622641509433962 0.9622641509433962 0.9622641509433962 0.9622641509433962 0.9622641509433962 0.9622641509433962 
27.006926384532854 0.9622641509433962 0.9622641509433962 0.9622641509433962 0.9622641509433962 0.9622641509433962 0.9622641509433962 0.9622641509433962 0.9622641509433962 
28.00437640656947 0.9622641509433962 0.9622641509433962 0.9622641509433962 0.9622641509433962 0.9622641509433962 0.9622641509433962 0.9622641509433962 0.9622641509433962 
29.002956158688377 0.9622641509433962 0.9622641509433962 0.9622641509433962 0.9622641509433962 0.9622641509433962 0.9622641509433962 0.9622641509433962 0.9622641509433962 
30.00437640656947 0.9245283018867925 0.9245283018867925 0.9245283018867925 0.9245283018867925 0.9245283018867925 0.9245283018867925 0.9245283018867925 0.9245283018867925 
31.006926384532854 0.9245283018867925 0.9245283018867925 0.9245283018867925 0.9245283018867925 0.9245283018867925 0.9245283018867925 0.9245283018867925 0.9245283018867925 
32.00437640656947 0.9245283018867925 0.9245283018867925 0.9245283018867925 0.9245283018867925 0.9245283018867925 0.9245283018867925 0.9245283018867925 0.9245283018867925 
33.00692638453285 0.8653389657587373 0.8653389657587373 0.9056603773584906 0.9056603773584906 0.8534926808735387 0.8534926808735387 0.9056603773584906 0.9056603773584906 
34.00437640656947 0.752918320119476 0.752918320119476 0.9056603773584906 0.9056603773584906 0.7493204777448901 0.7493204777448901 0.9056603773584906 0.9056603773584906 
35.00692638453285 0.7621646672446166 0.7621646672446166 0.9056603773584906 0.9056603773584906 0.7295895225115501 0.7295895225115501 0.9056603773584906 0.9056603773584906 
36.0018759282879 0.8400789930317141 0.8400789930317141 0.9056603773584906 0.9056603773584906 0.7435103215853454 0.7435103215853454 0.9056603773584906 0.9056603773584906 
37.00692638453285 0.8689890196712396 0.8689890196712396 0.9056603773584906 0.9056603773584906 0.739333351646722 0.739333351646722 0.9056603773584906 0.9056603773584906 
38.00437640656947 0.8846274149951016 0.8846274149951016 0.8867924528301887 0.8867924528301887 0.731528598403911 0.731528598403911 0.8867924528301887 0.8867924528301887 
39.00295615868838 0.8521785694361398 0.8521785694361398 0.8867924528301887 0.8867924528301887 0.6850389151989335 0.6850389151989335 0.8867924528301887 0.8867924528301887 
40.00437640656947 0.8160501791543077 0.8160501791543077 0.8867924528301887 0.8867924528301887 0.6346782133072856 0.6346782133072856 0.8867924528301887 0.8867924528301887 
41.00692638453285 0.789245965869585 0.789245965869585 0.8867924528301887 0.8867924528301887 0.6050922591221777 0.6050922591221777 0.8867924528301887 0.8867924528301887 
42.00437640656947 0.7237955156415318 0.7237955156415318 0.8867924528301887 0.8867924528301887 0.5804814612997488 0.5804814612997488 0.8867924528301887 0.8867924528301887 
43.00692638453285 0.6579097067531614 0.6579097067531614 0.8156412550165077 0.8156412550165077 0.5378760543130611 0.5378760543130611 0.8679245283018868 0.8679245283018868 
44.00437640656947 0.6065216659253336 0.6065216659253336 0.7258808102115722 0.7258808102115722 0.5034695318873439 0.5034695318873439 0.8679245283018868 0.8679245283018868 
45.00692638453285 0.5884471874373834 0.5884471874373834 0.686011722512482 0.686011722512482 0.5097169108218058 0.5097169108218058 0.8155975242806038 0.8155975242806038 
46.0018759282879 0.5963880758333194 0.5963880758333194 0.6446349191122516 0.6446349191122516 0.4989067385404864 0.4989067385404864 0.697372980647639 0.697372980647639 
47.00692638453285 0.5097057067676515 0.5097057067676515 0.6115648636893624 0.6115648636893624 0.45745113211568916 0.45745113211568916 0.6535314146673192 0.6535314146673192 
48.00437640656947 0.46556191578995876 0.46556191578995876 0.6540637241517235 0.6540637241517235 0.4560511150974074 0.4560511150974074 0.6786265330667374 0.6786265330667374 
49.00295615868838 0.4597507007055928 0.4597507007055928 0.6000885869734789 0.6000885869734789 0.45010151583127916 0.45010151583127916 0.6437908089015022 0.6437908089015022 
50.00437640656947 0.37313952340497186 0.37313952340497186 0.48670482170487017 0.48670482170487017 0.39773004499754894 0.39773004499754894 0.6000961670246364 0.6000961670246364 
51.00692638453285 0.35817767114153665 0.35817767114153665 0.465368642595466 0.465368642595466 0.37752730796321055 0.37752730796321055 0.558628789177171 0.558628789177171 
52.00437640656947 0.374515759823202 0.374515759823202 0.4670345912868769 0.4670345912868769 0.38622802762596364 0.38622802762596364 0.5204152250108823 0.5204152250108823 
53.00692638453285 0.3490469643438375 0.3490469643438375 0.42173879517250845 0.42173879517250845 0.37562016094873407 0.37562016094873407 0.4622436634533019 0.4622436634533019 
54.00437640656947 0.34373612556402594 0.34373612556402594 0.4317482673673281 0.4317482673673281 0.3434309452692985 0.3434309452692985 0.4674517874232902 0.4674517874232902 
55.00692638453285 0.35093833499107074 0.35093833499107074 0.44295653246772876 0.44295653246772876 0.3549852030242297 0.3549852030242297 0.479858230911749 0.479858230911749 
56.0018759282879 0.2915028825776746 0.2915028825776746 0.3957868271279882 0.3957868271279882 0.3519525940692993 0.3519525940692993 0.43260458080606234 0.43260458080606234 
57.00692638453285 0.288399431167538 0.288399431167538 0.4101865787926985 0.4101865787926985 0.3373454775283688 0.3373454775283688 0.4278936111293755 0.4278936111293755 
58.00437640656947 0.26953702553466763 0.26953702553466763 0.31861194346666305 0.31861194346666305 0.2823376865955927 0.2823376865955927 0.4095571367021404 0.4095571367021404 
59.00295615868838 0.2758140820874138 0.2758140820874138 0.3168718175730656 0.3168718175730656 0.2893700770993511 0.2893700770993511 0.41255489406460844 0.41255489406460844 
60.00437640656947 0.2782744601498782 0.2782744601498782 0.36644236879518627 0.36644236879518627 0.28817604871673813 0.28817604871673813 0.4002337895269086 0.4002337895269086 
61.00692638453285 0.3228076319927284 0.3228076319927284 0.3396697184751047 0.3396697184751047 0.27281417844665495 0.27281417844665495 0.4160436027366905 0.4160436027366905 
62.00437640656947 0.42302361442030667 0.42302361442030667 0.32198525302101205 0.32198525302101205 0.25932157613920814 0.25932157613920814 0.40731347538777685 0.40731347538777685 
63.00692638453285 0.4205518223554691 0.4205518223554691 0.36612937992563277 0.36612937992563277 0.28491332831912874 0.28491332831912874 0.4203939455555083 0.4203939455555083 
64.00437640656946 0.3640472095896233 0.3640472095896233 0.3430753896862836 0.3430753896862836 0.26383176729000357 0.26383176729000357 0.40296128517999663 0.40296128517999663 
65.00692638453285 0.37233461798059186 0.37233461798059186 0.31694867549347744 0.31694867549347744 0.27227077746013395 0.27227077746013395 0.39866121536776755 0.39866121536776755 
66.0018759282879 0.31749958590597654 0.31749958590597654 0.3483274565295475 0.3483274565295475 0.31133568505079223 0.31133568505079223 0.3986662969348042 0.3986662969348042 
67.00692638453285 0.36704052322859465 0.36704052322859465 0.330911715521667 0.330911715521667 0.28728874935158627 0.28728874935158627 0.3811633146289727 0.3811633146289727 
68.00437640656946 0.5277247536583928 0.5277247536583928 0.31638501468566177 0.31638501468566177 0.2852084938017126 0.2852084938017126 0.4083629309686121 0.4083629309686121 
69.00295615868838 0.46415943306381724 0.46415943306381724 0.32808110004870833 0.32808110004870833 0.30476307275020753 0.30476307275020753 0.40767614053041934 0.40767614053041934 
70.00437640656946 0.32547847972861427 0.32547847972861427 0.3238903232533799 0.3238903232533799 0.2697360544765893 0.2697360544765893 0.4031135802938102 0.4031135802938102 
71.00692638453285 0.39779996591949474 0.39779996591949474 0.33367602320957007 0.33367602320957007 0.22633503667132218 0.22633503667132218 0.41517175745674606 0.41517175745674606 
72.00437640656946 0.49128556229432363 0.49128556229432363 0.34094492083553807 0.34094492083553807 0.2218905061302651 0.2218905061302651 0.4106138119627422 0.4106138119627422 
73.00692638453285 0.41665041118654295 0.41665041118654295 0.3073785353733338 0.3073785353733338 0.2599565613210643 0.2599565613210643 0.38970508820405336 0.38970508820405336 
74.00437640656946 0.35789949487781675 0.35789949487781675 0.29286644134671064 0.29286644134671064 0.26458760826460587 0.26458760826460587 0.4075629266313263 0.4075629266313263 
75.00692638453285 0.3923850629367249 0.3923850629367249 0.30298350337879393 0.30298350337879393 0.22042955565413944 0.22042955565413944 0.39186048462257783 0.39186048462257783 
76.0018759282879 0.3585802878140144 0.3585802878140144 0.22427360389177428 0.22427360389177428 0.22175239821704046 0.22175239821704046 0.37346736165237254 0.37346736165237254 
77.00692638453285 0.3906161957790548 0.3906161957790548 0.21636789843914547 0.21636789843914547 0.28483738411662013 0.28483738411662013 0.39291004792323164 0.39291004792323164 
78.00437640656946 0.48784159555812523 0.48784159555812523 0.2730512746255492 0.2730512746255492 0.3253242240896465 0.3253242240896465 0.3736140617067798 0.3736140617067798 
79.00295615868838 0.39587618076534625 0.39587618076534625 0.27616551589166555 0.27616551589166555 0.3125621815752874 0.3125621815752874 0.39247273546411277 0.39247273546411277 
80.00437640656946 0.2714039589141257 0.2714039589141257 0.2646289245499083 0.2646289245499083 0.3070698594993057 0.3070698594993057 0.391283490537941 0.391283490537941 
81.00692638453285 0.39155718639424564 0.39155718639424564 0.2883092650068535 0.2883092650068535 0.2975038758040794 0.2975038758040794 0.3900696816708701 0.3900696816708701 
82.00437640656946 0.44580193762563225 0.44580193762563225 0.2628665504130835 0.2628665504130835 0.3041903662632296 0.3041903662632296 0.3704358422613269 0.3704358422613269 
83.00692638453285 0.40093352275492294 0.40093352275492294 0.27493570602891304 0.27493570602891304 0.2675121423241587 0.2675121423241587 0.37355622293555374 0.37355622293555374 
84.00437640656946 0.4507566099594297 0.4507566099594297 0.2764484802847603 0.2764484802847603 0.25922004521104886 0.25922004521104886 0.37362520259306725 0.37362520259306725 
85.00692638453285 0.4518662064140882 0.4518662064140882 0.29378522526183076 0.29378522526183076 0.2626012594882471 0.2626012594882471 0.37543335420388957 0.37543335420388957 
86.0018759282879 0.4105449701506773 0.4105449701506773 0.4398494833721685 0.4398494833721685 0.2549685708104327 0.2549685708104327 0.3776287490532747 0.3776287490532747 
87.00692638453285 0.40647133986108036 0.40647133986108036 0.4652427465924988 0.4652427465924988 0.26192280156773246 0.26192280156773246 0.3775990672844378 0.3775990672844378 
88.00437640656946 0.45911893000124326 0.45911893000124326 0.4080152669524747 0.4080152669524747 0.31322630122190315 0.31322630122190315 0.3772975731543949 0.3772975731543949 
89.00295615868838 0.49687340779690686 0.49687340779690686 0.43904329647604373 0.43904329647604373 0.34201310638542015 0.34201310638542015 0.4406153779085116 0.4406153779085116 
90.00437640656946 0.453201078312699 0.453201078312699 0.464704284909559 0.464704284909559 0.34030783103013273 0.34030783103013273 0.5150615239482571 0.5150615239482571 
91.00692638453285 0.4944967653486109 0.4944967653486109 0.5049284970823987 0.5049284970823987 0.3863553947267865 0.3863553947267865 0.4902971265209328 0.4902971265209328 
92.00437640656946 0.5206827521293329 0.5206827521293329 0.556506881679841 0.556506881679841 0.36069290772493323 0.36069290772493323 0.5292633596168276 0.5292633596168276 
93.00692638453285 0.5206827521293329 0.5206827521293329 0.5985877264205404 0.5985877264205404 0.3853718647106324 0.3853718647106324 0.5288960882228542 0.5288960882228542 
94.00437640656946 0.5384493999799064 0.5384493999799064 0.6367981393945644 0.6367981393945644 0.37178392979711156 0.37178392979711156 0.5005726422849263 0.5005726422849263 
95.00692638453285 0.5384493999799064 0.5384493999799064 0.6432733939537817 0.6432733939537817 0.398465558527549 0.398465558527549 0.5332184690414267 0.5332184690414267 
96.0018759282879 0.5384479636583802 0.5384479636583802 0.644886860359098 0.644886860359098 0.3990042911638368 0.3990042911638368 0.5738205035101195 0.5738205035101195 
97.00692638453285 0.5381336290101184 0.5381336290101184 0.6120551672631135 0.6120551672631135 0.38754129804408566 0.38754129804408566 0.5563642193910118 0.5563642193910118 
98.00437640656946 0.5381062535639022 0.5381062535639022 0.6165791879331094 0.6165791879331094 0.39934730327378204 0.39934730327378204 0.5667406391381431 0.5667406391381431 
99.00295615868838 0.5380688276446323 0.5380688276446323 0.649410881029094 0.649410881029094 0.4338274189000181 0.4338274189000181 0.5690899598616345 0.5690899598616345 
100.00437640656946 0.5388464759289087 0.5388464759289087 0.6447091564247734 0.6447091564247734 0.4469207770626727 0.4469207770626727 0.5879363726595993 0.5879363726595993 
101.00692638453285 0.5388464759289087 0.5388464759289087 0.6447091564247734 0.6447091564247734 0.45859632826966246 0.45859632826966246 0.5892526778605798 0.5892526778605798 
102.00437640656946 0.5400013483046555 0.5400013483046555 0.6446833387398586 0.6446833387398586 0.4745962316931676 0.4745962316931676 0.570384753332278 0.570384753332278 
103.00692638453285 0.5400013483046555 0.5400013483046555 0.6261582308348949 0.6261582308348949 0.5017805147185457 0.5017805147185457 0.5725820178041041 0.5725820178041041 
104.00437640656946 0.5368318706562154 0.5368318706562154 0.6418522505856024 0.6418522505856024 0.4979766718549476 0.4979766718549476 0.5686858138194559 0.5686858138194559 
105.00692638453285 0.5368472906993128 0.5368472906993128 0.660377358490566 0.660377358490566 0.4791087473266457 0.4791087473266457 0.5636347934484609 0.5636347934484609 
106.0018759282879 0.518114699238699 0.518114699238699 0.6180711059847783 0.6180711059847783 0.4781473039359124 0.4781473039359124 0.5258989443918571 0.5258989443918571 
107.00692638453285 0.5135907858206878 0.5135907858206878 0.5992031814564764 0.5992031814564764 0.49860979506819775 0.49860979506819775 0.5082040780566223 0.5082040780566223 
108.00437640656946 0.48131422818150027 0.48131422818150027 0.5617189052767034 0.5617189052767034 0.5010590806642486 0.5010590806642486 0.5061662121975966 0.5061662121975966 
109.00295615868838 0.48131358457403495 0.48131358457403495 0.5432331691052692 0.5432331691052692 0.5010584370567833 0.5010584370567833 0.5061662121975966 0.5061662121975966 
110.00437640656946 0.48265689178379706 0.48265689178379706 0.5784695043083536 0.5784695043083536 0.5021880279059305 0.5021880279059305 0.5202804860790995 0.5202804860790995 
111.00692638453285 0.48265689178379706 0.48265689178379706 0.596955240479788 0.596955240479788 0.5021880279059305 0.5021880279059305 0.5584146859801926 0.5584146859801926 
112.00437640656946 0.4837151123781113 0.4837151123781113 0.580077625169495 0.580077625169495 0.5027480638687226 0.5027480638687226 0.576623941204991 0.576623941204991 
113.00692638453285 0.4837151123781113 0.4837151123781113 0.580077625169495 0.580077625169495 0.5027480638687226 0.5027480638687226 0.576623941204991 0.576623941204991 
114.00437640656946 0.44599158942818345 0.44599158942818345 0.5312710178019034 0.5312710178019034 0.4825365320807806 0.4825365320807806 0.5388880921483873 0.5388880921483873 
115.00692638453285 0.44601618472608073 0.44601618472608073 0.5127852816304692 0.5127852816304692 0.48253192260043487 0.48253192260043487 0.5704970709623164 0.5704970709623164 
116.0018759282879 0.4520766430785363 0.4520766430785363 0.5361787104023145 0.5361787104023145 0.4885688040610147 0.4885688040610147 0.5704970709623164 0.5704970709623164 
117.00692638453285 0.4520474383002932 0.4520474383002932 0.5546644465737487 0.5546644465737487 0.46970087953271283 0.46970087953271283 0.5657061626946343 0.5657061626946343 
118.00437640656946 0.44948940298002177 0.44948940298002177 0.5475002460377059 0.5475002460377059 0.4696850928720568 0.4696850928720568 0.5657061626946343 0.5657061626946343 
119.00295615868838 0.4494810692400934 0.4494810692400934 0.5475002460377059 0.5475002460377059 0.4696767591321284 0.4696767591321284 0.5686372565298193 0.5686372565298193 
120.00437640656946 0.45149059068281994 0.45149059068281994 0.5300792163716792 0.5300792163716792 0.4703585152111218 0.4703585152111218 0.5686372565298193 0.5686372565298193 
121.00692638453285 0.43265054391623253 0.43265054391623253 0.49271589491548606 0.49271589491548606 0.45149059068281994 0.45149059068281994 0.5495684787292644 0.5495684787292644 
122.00437640656946 0.43204138185770485 0.43204138185770485 0.5139634600118557 0.5139634600118557 0.4508814286242923 0.4508814286242923 0.5495684787292644 0.5495684787292644 
123.00692638453285 0.43204138185770485 0.43204138185770485 0.532458856939747 0.532458856939747 0.4508814286242923 0.4508814286242923 0.5660377358490566 0.5660377358490566 
124.00437640656946 0.43206508079608746 0.43206508079608746 0.5422653567976883 0.5422653567976883 0.43203720303437304 0.43203720303437304 0.5471698113207547 0.5471698113207547 
125.00692638453285 0.43206508079608746 0.43206508079608746 0.5422653567976883 0.5422653567976883 0.4320065596570454 0.4320065596570454 0.5471698113207547 0.5471698113207547 
126.0018759282879 0.4133462882615867 0.4133462882615867 0.5108054133596904 0.5108054133596904 0.4132877671225446 0.4132877671225446 0.5283018867924528 0.5283018867924528 
127.00692638453285 0.4133462882615867 0.4133462882615867 0.49231001643179917 0.49231001643179917 0.4132877671225446 0.4132877671225446 0.5283018867924528 0.5283018867924528 
128.00437640656946 0.4079278175631439 0.4079278175631439 0.4909385653362597 0.4909385653362597 0.39442878432368594 0.39442878432368594 0.5094339622641509 0.5094339622641509 
129.0029561586884 0.4116828360812827 0.4116828360812827 0.5094339622641509 0.5094339622641509 0.37182067548697617 0.37182067548697617 0.5094339622641509 0.5094339622641509 
130.00437640656946 0.41569483497762205 0.41569483497762205 0.5045779430794448 0.5045779430794448 0.31200488227701206 0.31200488227701206 0.5094339622641509 0.5094339622641509 
131.00692638453285 0.4124234750624335 0.4124234750624335 0.5013065831642562 0.5013065831642562 0.29410442698108075 0.29410442698108075 0.5061626023489624 0.5061626023489624 
132.00437640656946 0.4085475803417345 0.4085475803417345 0.48315178644020806 0.48315178644020806 0.3002881865143705 0.3002881865143705 0.48729467782066055 0.48729467782066055 
133.00692638453285 0.4085475803417345 0.4085475803417345 0.46464802119872817 0.46464802119872817 0.25402713922918563 0.25402713922918563 0.48729467782066055 0.48729467782066055 
134.00437640656946 0.4085850634408361 0.4085850634408361 0.4687909125791806 0.4687909125791806 0.24112336748960903 0.24112336748960903 0.48729467782066055 0.48729467782066055 
135.00692638453285 0.4082391153861517 0.4082391153861517 0.48694872976597614 0.48694872976597614 0.22803627831228465 0.22803627831228465 0.48694872976597614 0.48694872976597614 
136.00187592828792 0.4092247391318182 0.4092247391318182 0.4820927105812699 0.4820927105812699 0.21007380777257942 0.21007380777257942 0.48694872976597614 0.48694872976597614 
137.00692638453285 0.4051889808564227 0.4051889808564227 0.4818203391376019 0.4818203391376019 0.19231630858800675 0.19231630858800675 0.4866763583223081 0.4866763583223081 
138.00437640656946 0.40082359707852044 0.40082359707852044 0.4841475630883702 0.4841475630883702 0.19233541404021492 0.19233541404021492 0.4866763583223081 0.4866763583223081 
139.0029561586884 0.40047798286121006 0.40047798286121006 0.46558717310613373 0.46558717310613373 0.1582994368061045 0.1582994368061045 0.4866763583223081 0.4866763583223081 
140.00437640656946 0.3958397138887098 0.3958397138887098 0.4492480438117698 0.4492480438117698 0.16410259868364588 0.16410259868364588 0.4678084337940062 0.4678084337940062 
141.00692638453285 0.3958397138887098 0.3958397138887098 0.4678084337940062 0.4678084337940062 0.15111634535948235 0.15111634535948235 0.44794278493330236 0.44794278493330236 
142.00437640656946 0.3958397138887098 0.3958397138887098 0.46332418052485985 0.46332418052485985 0.15304412827289463 0.15304412827289463 0.37986347113063346 0.37986347113063346 
143.00692638453285 0.3958397138887098 0.3958397138887098 0.46332418052485985 0.46332418052485985 0.16713532466404368 0.16713532466404368 0.3642386774609011 0.3642386774609011 
144.00437640656946 0.39589186957821465 0.39589186957821465 0.46336468313151163 0.46336468313151163 0.1671874803535485 0.1671874803535485 0.3543346271494058 0.3543346271494058 
145.00692638453285 0.39589186957821465 0.39589186957821465 0.44480429314927517 0.44480429314927517 0.15292330825856953 0.15292330825856953 0.31570379201504806 0.31570379201504806 
146.00187592828792 0.397464390626038 0.397464390626038 0.4492480438117698 0.4492480438117698 0.15306515045646116 0.15306515045646116 0.3152135602142707 0.3152135602142707 
147.00692638453285 0.3965486746746383 0.3965486746746383 0.4668927178426065 0.4668927178426065 0.15071327103813775 0.15071327103813775 0.31652633195846447 0.31652633195846447 
148.00437640656946 0.3965645086692289 0.3965645086692289 0.4534868985807276 0.4534868985807276 0.15216434237923518 0.15216434237923518 0.31652633195846447 0.31652633195846447 
149.0029561586884 0.3965896105143905 0.3965896105143905 0.4534868985807276 0.4534868985807276 0.16597783305285668 0.16597783305285668 0.2847845300298799 0.2847845300298799 
150.00437640656946 0.39600335461177727 0.39600335461177727 0.4668927178426065 0.4668927178426065 0.1605617287223652 0.1605617287223652 0.2848035406553602 0.2848035406553602 
151.00692638453285 0.3771354300834754 0.3771354300834754 0.43959030772946905 0.43959030772946905 0.17062668380528098 0.17062668380528098 0.2513531696032342 0.2513531696032342 
152.00437640656946 0.3771354300834754 0.3771354300834754 0.43959030772946905 0.43959030772946905 0.15172478002882292 0.15172478002882292 0.2488347269470469 0.2488347269470469 
153.00692638453285 0.3771354300834754 0.3771354300834754 0.44802479331430456 0.44802479331430456 0.13235414951662636 0.13235414951662636 0.24040105829097377 0.24040105829097377 
154.00437640656946 0.3786067602726251 0.3786067602726251 0.4302217898161472 0.4302217898161472 0.133825479705776 0.133825479705776 0.22924492894032533 0.22924492894032533 
155.00692638453285 0.3786067602726251 0.3786067602726251 0.4302217898161472 0.4302217898161472 0.13376680649130518 0.13376680649130518 0.24020443059251242 0.24020443059251242 
156.00187592828792 0.3554440109949501 0.3554440109949501 0.42356632593676247 0.42356632593676247 0.11089829060789122 0.11089829060789122 0.21548780403769927 0.21548780403769927 
157.00692638453285 0.35406666852865176 0.35406666852865176 0.41375449788562857 0.41375449788562857 0.12052156713160696 0.12052156713160696 0.1904936493380791 0.1904936493380791 
158.00437640656946 0.35509500753253115 0.35509500753253115 0.4193450407348688 0.4193450407348688 0.12154990613548629 0.12154990613548629 0.1904936493380791 0.1904936493380791 
159.0029561586884 0.33626547008751173 0.33626547008751173 0.40891160179140246 0.40891160179140246 0.13390909758384764 0.13390909758384764 0.23219219567511856 0.23219219567511856 
160.00437640656946 0.33626547008751173 0.33626547008751173 0.3759650444397885 0.3759650444397885 0.13469844396893685 0.13469844396893685 0.2332814896052551 0.2332814896052551 
161.00692638453285 0.3173975455592098 0.3173975455592098 0.3570971199114867 0.3570971199114867 0.13677121523985797 0.13677121523985797 0.22801807549401665 0.22801807549401665 
162.00437640656946 0.29852962103090797 0.29852962103090797 0.37117575273479875 0.37117575273479875 0.15390316703369677 0.15390316703369677 0.24221252148866076 0.24221252148866076 
163.00692638453285 0.2607937719743042 0.2607937719743042 0.3188460088794867 0.3188460088794867 0.18402534878047735 0.18402534878047735 0.2671976259026047 0.2671976259026047 
164.00437640656946 0.2604339873231579 0.2604339873231579 0.2999898233384396 0.2999898233384396 0.18366556412933108 0.18366556412933108 0.24832970137430288 0.24832970137430288 
165.00692638453285 0.2604339873231579 0.2604339873231579 0.31458371813714775 0.31458371813714775 0.17752153557813868 0.17752153557813868 0.22252115554438562 0.22252115554438562 
166.00187592828792 0.2603660828598497 0.2603660828598497 0.31457197914989304 0.31457197914989304 0.19646954242323536 0.19646954242323536 0.2036532310160838 0.2036532310160838 
167.00692638453285 0.25891299763696857 0.25891299763696857 0.3131188939270119 0.3131188939270119 0.1925405557625109 0.1925405557625109 0.19972424435535927 0.19972424435535927 
168.00437640656946 0.25870313022719305 0.25870313022719305 0.3131188939270119 0.3131188939270119 0.19233068835273537 0.19233068835273537 0.19972424435535927 0.19972424435535927 
169.0029561586884 0.2587203768014009 0.2587203768014009 0.3131188939270119 0.3131188939270119 0.18166668812196546 0.18166668812196546 0.16198839529875547 0.16198839529875547 
170.00437640656946 0.23985245227309906 0.23985245227309906 0.29425096939871 0.29425096939871 0.17118101187793774 0.17118101187793774 0.17165153276319406 0.17165153276319406 
171.00692638453285 0.22436687313745185 0.22436687313745185 0.2787653902630628 0.2787653902630628 0.184417561718552 0.184417561718552 0.15007440453991178 0.15007440453991178 
172.00437640656946 0.22436687313745185 0.22436687313745185 0.2787653902630628 0.2787653902630628 0.18347540773840088 0.18347540773840088 0.142837509339938 0.142837509339938 
173.00692638453285 0.22436687313745185 0.22436687313745185 0.2787653902630628 0.2787653902630628 0.16679527666900945 0.16679527666900945 0.14089957879778334 0.14089957879778334 
174.00437640656946 0.22401840668236786 0.22401840668236786 0.2787653902630628 0.2787653902630628 0.1537016770612495 0.1537016770612495 0.14089957879778334 0.14089957879778334 
175.00692638453285 0.2239379635771134 0.2239379635771134 0.2786849471578084 0.2786849471578084 0.1206042665507666 0.1206042665507666 0.13149260969923182 0.13149260969923182 
176.00187592828792 0.2239379635771134 0.2239379635771134 0.2786849471578084 0.2786849471578084 0.14116706926992534 0.14116706926992534 0.11262468517092995 0.11262468517092995 
177.00692638453285 0.22827188434383333 0.22827188434383333 0.28301886792452835 0.28301886792452835 0.13252958947292173 0.13252958947292173 0.1037686182296701 0.1037686182296701 
178.00437640656946 0.2280651992639462 0.2280651992639462 0.28301886792452835 0.28301886792452835 0.08703729509079487 0.08703729509079487 0.1037686182296701 0.1037686182296701 
179.0029561586884 0.22813130696939699 0.22813130696939699 0.28301886792452835 0.28301886792452835 0.0670924591860659 0.0670924591860659 0.1037686182296701 0.1037686182296701 
180.00437640656946 0.22813130696939699 0.22813130696939699 0.28301886792452835 0.28301886792452835 0.07598592769179975 0.07598592769179975 0.1036527231839128 0.1036527231839128 
181.00692638453285 0.21256528472849542 0.21256528472849542 0.26745284568362665 0.26745284568362665 0.052875440681214345 0.052875440681214345 0.09874410120659638 0.09874410120659638 
182.00437640656946 0.21256528472849542 0.21256528472849542 0.26745284568362665 0.26745284568362665 0.040582330547492204 0.040582330547492204 0.09572826394521222 0.09572826394521222 
183.00692638453285 0.19369736020019354 0.19369736020019354 0.2485849211553248 0.2485849211553248 0.0586693710275075 0.0586693710275075 0.11318971023317433 0.11318971023317433 
184.00437640656946 0.19373598238870718 0.19373598238870718 0.2485849211553248 0.2485849211553248 0.058707993216021125 0.058707993216021125 0.11318971023317433 0.11318971023317433 
185.00692638453285 0.19366738200468825 0.19366738200468825 0.2485163207713059 0.2485163207713059 0.06000247262788733 0.06000247262788733 0.11448418964504051 0.11448418964504051 
186.00187592828792 0.19366738200468825 0.19366738200468825 0.2485163207713059 0.2485163207713059 0.06000247262788733 0.06000247262788733 0.11448418964504051 0.11448418964504051 
187.00692638453285 0.20930200462960874 0.20930200462960874 0.26415094339622647 0.26415094339622647 0.06255942025385577 0.06255942025385577 0.11704113727100898 0.11704113727100898 
188.00437640656946 0.2091148283008878 0.2091148283008878 0.26415094339622647 0.26415094339622647 0.06237224392513478 0.06237224392513478 0.11704113727100898 0.11704113727100898 
189.0029561586884 0.20922241608862957 0.20922241608862957 0.26415094339622647 0.26415094339622647 0.062479831712876556 0.062479831712876556 0.11704113727100898 0.11704113727100898 
190.00437640656946 0.19035449156032766 0.19035449156032766 0.24528301886792456 0.24528301886792456 0.08348032361568423 0.08348032361568423 0.11917370464551476 0.11917370464551476 
191.00692638453285 0.19035449156032766 0.19035449156032766 0.24528301886792456 0.24528301886792456 0.0834806081141924 0.0834806081141924 0.1194530098624976 0.1194530098624976 
192.00437640656946 0.17148656703202578 0.17148656703202578 0.2264150943396227 0.2264150943396227 0.10139675541545472 0.10139675541545472 0.1254165565932812 0.1254165565932812 
193.00692638453285 0.17148656703202578 0.17148656703202578 0.2264150943396227 0.2264150943396227 0.10100971932798859 0.10100971932798859 0.12545846003031508 0.12545846003031508 
194.00437640656946 0.17156913617471253 0.17156913617471253 0.2264150943396227 0.2264150943396227 0.10109228847067535 0.10109228847067535 0.12545846003031508 0.12545846003031508 
195.00692638453285 0.17156913617471253 0.17156913617471253 0.2264150943396227 0.2264150943396227 0.1270190838855363 0.1270190838855363 0.12702774484455412 0.12702774484455412 
196.00187592828792 0.17156913617471253 0.17156913617471253 0.2264150943396227 0.2264150943396227 0.13194972240192362 0.13194972240192362 0.12702774484455412 0.12702774484455412 
197.00692638453285 0.17156913617471253 0.17156913617471253 0.2264150943396227 0.2264150943396227 0.11037588457860625 0.11037588457860625 0.12714121910969847 0.12714121910969847 
198.00437640656946 0.17141388436345883 0.17141388436345883 0.2264150943396227 0.2264150943396227 0.0913527082390507 0.0913527082390507 0.12714121910969847 0.12714121910969847 
199.0029561586884 0.17116731099306573 0.17116731099306573 0.2264150943396227 0.2264150943396227 0.09110613486865755 0.09110613486865755 0.12714121910969847 0.12714121910969847 
200.00437640656946 0.17116731099306573 0.17116731099306573 0.2264150943396227 0.2264150943396227 0.08321813829124855 0.08321813829124855 0.11925322253228945 0.11925322253228945 
201.00692638453285 0.17116731099306573 0.17116731099306573 0.2264150943396227 0.2264150943396227 0.06330081162400644 0.06330081162400644 0.12004587948768071 0.12004587948768071 
202.00437640656946 0.15229938646476376 0.15229938646476376 0.20754716981132074 0.20754716981132074 0.058031890748568876 0.058031890748568876 0.13166019769910914 0.13166019769910914 
203.00692638453285 0.13343146193646194 0.13343146193646194 0.1886792452830189 0.1886792452830189 0.06631338213942133 0.06631338213942133 0.10269324095767636 0.10269324095767636 
204.00437640656946 0.1336075886625567 0.1336075886625567 0.1886792452830189 0.1886792452830189 0.07323880875912313 0.07323880875912313 0.10269324095767636 0.10269324095767636 
205.00692638453285 0.1336075886625567 0.1336075886625567 0.1886792452830189 0.1886792452830189 0.08654010974167832 0.08654010974167832 0.10241228284425269 0.10241228284425269 
206.00187592828792 0.1336075886625567 0.1336075886625567 0.1886792452830189 0.1886792452830189 0.08654010974167832 0.08654010974167832 0.10241228284425269 0.10241228284425269 
207.00692638453285 0.1147396641342548 0.1147396641342548 0.16981132075471697 0.16981132075471697 0.09458539149538539 0.09458539149538539 0.11045756459795977 0.11045756459795977 
208.00437640656946 0.13329236249610996 0.13329236249610996 0.16981132075471697 0.16981132075471697 0.0982394883711174 0.0982394883711174 0.09159485496408107 0.09159485496408107 
209.0029561586884 0.13328905503219307 0.13328905503219307 0.16981132075471697 0.16981132075471697 0.09823618090720047 0.09823618090720047 0.09159485496408107 0.09159485496408107 
210.00437640656946 0.13328905503219307 0.13328905503219307 0.16981132075471697 0.16981132075471697 0.10009569049850159 0.10009569049850159 0.09345436455538216 0.09345436455538216 
211.00692638453285 0.13328905503219307 0.13328905503219307 0.16981132075471697 0.16981132075471697 0.1002143419131329 0.1002143419131329 0.09264891975595067 0.09264891975595067 
212.00437640656946 0.13328905503219307 0.13328905503219307 0.16981132075471697 0.16981132075471697 0.09343475598766988 0.09343475598766988 0.09261863372409468 0.09261863372409468 
213.00692638453285 0.13328905503219307 0.13328905503219307 0.16981132075471697 0.16981132075471697 0.09344043086639027 0.09344043086639027 0.09262430860281506 0.09262430860281506 
214.00437640656946 0.1320985669291593 0.1320985669291593 0.15094339622641512 0.15094339622641512 0.1111178672916584 0.1111178672916584 0.054888459546211285 0.054888459546211285 
215.00692638453285 0.11323064240085741 0.11323064240085741 0.1320754716981132 0.1320754716981132 0.1133460688479204 0.1133460688479204 0.0527550918842131 0.0527550918842131 
216.00187592828792 0.11323064240085741 0.11323064240085741 0.1320754716981132 0.1320754716981132 0.1133460688479204 0.1133460688479204 0.05272373034490723 0.05272373034490723 
217.00692638453285 0.11323064240085741 0.11323064240085741 0.1320754716981132 0.1320754716981132 0.1133460688479204 0.1133460688479204 0.05272373034490723 0.05272373034490723 
218.00437640656946 0.11323064240085741 0.11323064240085741 0.1320754716981132 0.1320754716981132 0.09394395569455656 0.09394395569455656 0.056117661347406 0.056117661347406 
219.0029561586884 0.11320754716981134 0.11320754716981134 0.11320754716981134 0.11320754716981134 0.13151957164571665 0.13151957164571665 0.0372497368191041 0.0372497368191041 
220.00437640656946 0.11320754716981134 0.11320754716981134 0.11320754716981134 0.11320754716981134 0.13260172544581794 0.13260172544581794 0.038350659572870135 0.038350659572870135 
221.00692638453285 0.11320754716981134 0.11320754716981134 0.11320754716981134 0.11320754716981134 0.11387455464798685 0.11387455464798685 0.03835427542894334 0.03835427542894334 
222.00437640656946 0.11320754716981134 0.11320754716981134 0.11320754716981134 0.11320754716981134 0.11367480843426687 0.11367480843426687 0.03815452921522337 0.03815452921522337 
223.00692638453285 0.11320754716981134 0.11320754716981134 0.11320754716981134 0.11320754716981134 0.09473314935755393 0.09473314935755393 0.03808079466681232 0.03808079466681232 
224.00437640656946 0.11320754716981134 0.11320754716981134 0.11320754716981134 0.11320754716981134 0.07586522482925206 0.07586522482925206 0.03808079466681232 0.03808079466681232 
225.00692638453285 0.11320754716981134 0.11320754716981134 0.11320754716981134 0.11320754716981134 0.07582116382109277 0.07582116382109277 0.03803673365865305 0.03803673365865305 
226.00187592828792 0.11320754716981134 0.11320754716981134 0.11320754716981134 0.11320754716981134 0.07582116382109277 0.07582116382109277 0.03808531476448901 0.03808531476448901 
227.00692638453285 0.11320754716981134 0.11320754716981134 0.11320754716981134 0.11320754716981134 0.05695323929279089 0.05695323929279089 0.019217390236187133 0.019217390236187133 
228.00437640656946 0.11320754716981134 0.11320754716981134 0.11320754716981134 0.11320754716981134 0.05625734964465609 0.05625734964465609 0.01852150058805232 0.01852150058805232 
229.0029561586884 0.11320754716981134 0.11320754716981134 0.11320754716981134 0.11320754716981134 0.05625734964465609 0.05625734964465609 0.01852150058805232 0.01852150058805232 
230.00437640656946 0.11320754716981134 0.11320754716981134 0.11320754716981134 0.11320754716981134 0.0564697589374401 0.0564697589374401 0.01873390988083632 0.01873390988083632 
231.00692638453285 0.11320754716981134 0.11320754716981134 0.11320754716981134 0.11320754716981134 0.056563318132950555 0.056563318132950555 0.018827469076346786 0.018827469076346786 
232.00437640656946 0.11320754716981134 0.11320754716981134 0.11320754716981134 0.11320754716981134 0.05590982726964536 0.05590982726964536 0.018173978213041595 0.018173978213041595 
233.00692638453285 0.11320754716981134 0.11320754716981134 0.11320754716981134 0.11320754716981134 0.05558731979295404 0.05558731979295404 0.017851470736350242 0.017851470736350242 
234.00437640656946 0.11320754716981134 0.11320754716981134 0.11320754716981134 0.11320754716981134 0.05558731979295404 0.05558731979295404 0.017851470736350242 0.017851470736350242 
235.00692638453285 0.11320754716981134 0.11320754716981134 0.11320754716981134 0.11320754716981134 0.03668483273768305 0.03668483273768305 0.017816908209381168 0.017816908209381168 
236.00187592828792 0.11320754716981134 0.11320754716981134 0.11320754716981134 0.11320754716981134 0.03668483273768305 0.03668483273768305 0.017816908209381168 0.017816908209381168 
237.00692638453285 0.11320754716981134 0.11320754716981134 0.09674024678559989 0.09674024678559989 0.03668483273768305 0.03668483273768305 0.017816908209381168 0.017816908209381168 
238.00437640656946 0.11320754716981134 0.11320754716981134 0.07859398423305823 0.07859398423305823 0.03587510394535739 0.03587510394535739 0.01700717941705551 0.01700717941705551 
239.0029561586884 0.11320754716981134 0.11320754716981134 0.07859398423305823 0.07859398423305823 0.03466701109354305 0.03466701109354305 0.01700717941705551 0.01700717941705551 
240.00437640656946 0.09433962264150945 0.09433962264150945 0.059726059704756335 0.059726059704756335 0.055056323308554964 0.055056323308554964 0.030431691933999815 0.030431691933999815 
241.00692638453285 0.09433962264150945 0.09433962264150945 0.058533528412480246 0.058533528412480246 0.07368993491087555 0.07368993491087555 0.030481557244948082 0.030481557244948082 
242.00437640656946 0.07547169811320756 0.07547169811320756 0.05781186643672003 0.05781186643672003 0.08487139776534959 0.08487139776534959 0.02975989526918786 0.02975989526918786 
243.00692638453285 0.07547169811320756 0.07547169811320756 0.05911424234040177 0.05911424234040177 0.06623425603637893 0.06623425603637893 0.031062271172869662 0.031062271172869662 
244.00437640656946 0.07547169811320756 0.07547169811320756 0.05911424234040177 0.05911424234040177 0.06623425603637893 0.06623425603637893 0.031062271172869662 0.031062271172869662 
245.00692638453285 0.07547169811320756 0.07547169811320756 0.04053049604902948 0.04053049604902948 0.06621700139566318 0.06621700139566318 0.031045016532153923 0.031045016532153923 
246.00187592828792 0.07547169811320756 0.07547169811320756 0.04053049604902948 0.04053049604902948 0.06621700139566318 0.06621700139566318 0.031045016532153923 0.031045016532153923 
247.00692638453285 0.07547169811320756 0.07547169811320756 0.04053049604902948 0.04053049604902948 0.04763325510429085 0.04763325510429085 0.031045016532153923 0.031045016532153923 
248.00437640656946 0.07547169811320756 0.07547169811320756 0.04053049604902948 0.04053049604902948 0.046854882689028474 0.046854882689028474 0.030266644116891547 0.030266644116891547 
249.0029561586884 0.07547169811320756 0.07547169811320756 0.04053049604902948 0.04053049604902948 0.046854882689028474 0.046854882689028474 0.030266644116891547 0.030266644116891547 
250.00437640656946 0.07547169811320756 0.07547169811320756 0.04053049604902948 0.04053049604902948 0.027986958160726584 0.027986958160726584 0.030266644116891547 0.030266644116891547 
251.00692638453285 0.07547169811320756 0.07547169811320756 0.05681288079244345 0.05681288079244345 0.030191573087499778 0.030191573087499778 0.030191573087499778 0.030191573087499778 
252.00437640656946 0.07547169811320756 0.07547169811320756 0.05681288079244345 0.05681288079244345 0.030191573087499778 0.030191573087499778 0.030191573087499778 0.030191573087499778 
253.00692638453285 0.056603773584905676 0.056603773584905676 0.03794495626414155 0.03794495626414155 0.04654902886030551 0.04654902886030551 0.04654902886030551 0.04654902886030551 
254.00437640656946 0.056603773584905676 0.056603773584905676 0.03794495626414155 0.03794495626414155 0.04654902886030551 0.04654902886030551 0.04654902886030551 0.04654902886030551 
255.00692638453285 0.056603773584905676 0.056603773584905676 0.03794495626414155 0.03794495626414155 0.04654033563824397 0.04654033563824397 0.04654033563824397 0.04654033563824397 
256.0018759282879 0.056603773584905676 0.056603773584905676 0.03794495626414155 0.03794495626414155 0.04654033563824397 0.04654033563824397 0.04654033563824397 0.04654033563824397 
257.00692638453285 0.056603773584905676 0.056603773584905676 0.03794495626414155 0.03794495626414155 0.04654033563824397 0.04654033563824397 0.04654033563824397 0.04654033563824397 
258.00437640656946 0.056603773584905676 0.056603773584905676 0.03794495626414155 0.03794495626414155 0.04596029350712132 0.04596029350712132 0.04596029350712132 0.04596029350712132 
259.0029561586884 0.056603773584905676 0.056603773584905676 0.03794495626414155 0.03794495626414155 0.04596029350712132 0.04596029350712132 0.04596029350712132 0.04596029350712132 
260.00437640656946 0.056603773584905676 0.056603773584905676 0.03794495626414155 0.03794495626414155 0.02709236897881943 0.02709236897881943 0.02709236897881943 0.02709236897881943 
261.00692638453285 0.056603773584905676 0.056603773584905676 0.04518008486931222 0.04518008486931222 0.026920705144053942 0.026920705144053942 0.026920705144053942 0.026920705144053942 
262.00437640656946 0.056603773584905676 0.056603773584905676 0.04518008486931222 0.04518008486931222 0.026920705144053942 0.026920705144053942 0.026920705144053942 0.026920705144053942 
263.00692638453285 0.056603773584905676 0.056603773584905676 0.04518008486931222 0.04518008486931222 0.008052780615752068 0.008052780615752068 0.026920705144053942 0.026920705144053942 
264.00437640656946 0.056603773584905676 0.056603773584905676 0.04518008486931222 0.04518008486931222 0.008052780615752068 0.008052780615752068 0.026920705144053942 0.026920705144053942 
265.00692638453285 0.056603773584905676 0.056603773584905676 0.045156245116344 0.045156245116344 0.019476469331345485 0.019476469331345485 0.02689686539108575 0.02689686539108575 
266.0018759282879 0.056603773584905676 0.056603773584905676 0.045156245116344 0.045156245116344 0.019476469331345485 0.019476469331345485 0.02689686539108575 0.02689686539108575 
267.00692638453285 0.056603773584905676 0.056603773584905676 0.045156245116344 0.045156245116344 0.008028940862783862 0.008028940862783862 0.02689686539108575 0.02689686539108575 
268.00437640656946 0.03773584905660378 0.03773584905660378 0.02628832058804216 0.02628832058804216 0.026325763960814454 0.026325763960814454 0.04519368848911633 0.04519368848911633 
269.0029561586884 0.03773584905660378 0.03773584905660378 0.03773584905660378 0.03773584905660378 0.026325763960814454 0.026325763960814454 0.04519368848911633 0.04519368848911633 
270.00437640656946 0.03773584905660378 0.03773584905660378 0.03773584905660378 0.03773584905660378 0.026325763960814454 0.026325763960814454 0.04519368848911633 0.04519368848911633 
271.00692638453285 0.01886792452830189 0.01886792452830189 0.01886792452830189 0.01886792452830189 0.045156245116344 0.045156245116344 0.06402416964464588 0.06402416964464588 
272.00437640656946 0.01886792452830189 0.01886792452830189 0.01886792452830189 0.01886792452830189 0.045156245116344 0.045156245116344 0.06402416964464588 0.06402416964464588 
273.00692638453285 0.01886792452830189 0.01886792452830189 0.01886792452830189 0.01886792452830189 0.045156245116344 0.045156245116344 0.045156245116344 0.045156245116344 
274.00437640656946 0.01886792452830189 0.01886792452830189 0.01886792452830189 0.01886792452830189 0.045156245116344 0.045156245116344 0.045156245116344 0.045156245116344 
275.00692638453285 0.01886792452830189 0.01886792452830189 0.01886792452830189 0.01886792452830189 0.04489829582423734 0.04489829582423734 0.04489829582423734 0.04489829582423734 
276.0018759282879 0.01886792452830189 0.01886792452830189 0.01886792452830189 0.01886792452830189 0.04489829582423734 0.04489829582423734 0.04489829582423734 0.04489829582423734 
277.00692638453285 0.01886792452830189 0.01886792452830189 0.01886792452830189 0.01886792452830189 0.04489829582423734 0.04489829582423734 0.04489829582423734 0.04489829582423734 
278.00437640656946 0.01886792452830189 0.01886792452830189 0.01886792452830189 0.01886792452830189 0.026030371295935478 0.026030371295935478 0.04489829582423734 0.04489829582423734 
279.0029561586884 0.01886792452830189 0.01886792452830189 0.01886792452830189 0.01886792452830189 0.026030371295935478 0.026030371295935478 0.04489829582423734 0.04489829582423734 
280.00437640656946 0.01886792452830189 0.01886792452830189 0.01886792452830189 0.01886792452830189 0.026030371295935478 0.026030371295935478 0.04489829582423734 0.04489829582423734 
281.00692638453285 0.01886792452830189 0.01886792452830189 0.01886792452830189 0.01886792452830189 0.026030371295935478 0.026030371295935478 0.04489829582423734 0.04489829582423734 
282.00437640656946 0.01886792452830189 0.01886792452830189 0.01886792452830189 0.01886792452830189 0.026030371295935478 0.026030371295935478 0.04489829582423734 0.04489829582423734 
283.00692638453285 0.01886792452830189 0.01886792452830189 0.01886792452830189 0.01886792452830189 0.026030371295935478 0.026030371295935478 0.04489829582423734 0.04489829582423734 
284.00437640656946 0.01886792452830189 0.01886792452830189 0.01886792452830189 0.01886792452830189 0.026030371295935478 0.026030371295935478 0.04489829582423734 0.04489829582423734 
285.00692638453285 0.01886792452830189 0.01886792452830189 0.01886792452830189 0.01886792452830189 0.025544190677641937 0.025544190677641937 0.04441211520594383 0.04441211520594383 
286.0018759282879 0.01886792452830189 0.01886792452830189 0.01886792452830189 0.01886792452830189 0.025544190677641937 0.025544190677641937 0.04441211520594383 0.04441211520594383 
287.00692638453285 0.01886792452830189 0.01886792452830189 0.01886792452830189 0.01886792452830189 0.03773584905660378 0.03773584905660378 0.04441211520594383 0.04441211520594383 
288.00437640656946 0.01886792452830189 0.01886792452830189 0.01886792452830189 0.01886792452830189 0.03773584905660378 0.03773584905660378 0.025544190677641937 0.025544190677641937 
289.0029561586884 0.01886792452830189 0.01886792452830189 0.01886792452830189 0.01886792452830189 0.025544190677641937 0.025544190677641937 0.025544190677641937 0.025544190677641937 
290.00437640656946 0.01886792452830189 0.01886792452830189 0.01886792452830189 0.01886792452830189 0.025544190677641937 0.025544190677641937 0.025544190677641937 0.025544190677641937 
291.00692638453285 0.01886792452830189 0.01886792452830189 0.01886792452830189 0.01886792452830189 0.00667626614934004 0.00667626614934004 0.00667626614934004 0.00667626614934004 
292.00437640656946 0.01886792452830189 0.01886792452830189 0.01886792452830189 0.01886792452830189 0.00667626614934004 0.00667626614934004 0.00667626614934004 0.00667626614934004 
293.00692638453285 0.01886792452830189 0.01886792452830189 0.01886792452830189 0.01886792452830189 0.00667626614934004 0.00667626614934004 0.00667626614934004 0.00667626614934004 
294.00437640656946 0.01886792452830189 0.01886792452830189 0.01886792452830189 0.01886792452830189 0.00667626614934004 0.00667626614934004 0.00667626614934004 0.00667626614934004 
295.00692638453285 0.01886792452830189 0.01886792452830189 0.01886792452830189 0.01886792452830189 0.0056761781638862835 0.0056761781638862835 0.0056761781638862835 0.0056761781638862835 
296.0018759282879 0.01886792452830189 0.01886792452830189 0.01886792452830189 0.01886792452830189 0.0056761781638862835 0.0056761781638862835 0.0056761781638862835 0.0056761781638862835 
297.00692638453285 0.01886792452830189 0.01886792452830189 0.01886792452830189 0.01886792452830189 0.0056761781638862835 0.0056761781638862835 0.0056761781638862835 0.0056761781638862835 
298.00437640656946 0.01886792452830189 0.01886792452830189 0.01886792452830189 0.01886792452830189 0.0056761781638862835 0.0056761781638862835 0.0056761781638862835 0.0056761781638862835 
299.0029561586884 0.01886792452830189 0.01886792452830189 0.01886792452830189 0.01886792452830189 0.0056761781638862835 0.0056761781638862835 0.0056761781638862835 0.0056761781638862835 
300.00437640656946 0.01886792452830189 0.01886792452830189 0.01886792452830189 0.01886792452830189 0.0056761781638862835 0.0056761781638862835 0.0056761781638862835 0.0056761781638862835 
#####################################################################
# End of data export. Simulation finished at: 2017-02-14T18:08+0000 #
#####################################################################
