#####################################################################
# Alchemist log file - simulation started at: 2017-02-14T18:07+0000 #
#####################################################################
# seed = 0.0
#
# The columns have the following meaning: 
# time go-co-to[Mean] go-co-tsync[Mean] go-cmp-to[Mean] go-cmp-tsync[Mean] flex-co-to[Mean] flex-co-tsync[Mean] flex-cmp-to[Mean] flex-cmp-tsync[Mean] 
0.0 NaN NaN NaN NaN NaN NaN NaN NaN 
1.0104093954000732 NaN NaN NaN NaN NaN NaN NaN NaN 
2.0035652813881613 NaN NaN NaN NaN NaN NaN NaN NaN 
3.0010620704485436 NaN NaN NaN NaN NaN NaN NaN NaN 
4.003565281388161 NaN NaN NaN NaN NaN NaN NaN NaN 
5.010409395400073 NaN NaN NaN NaN NaN NaN NaN NaN 
6.003565281388161 NaN NaN NaN NaN NaN NaN NaN NaN 
7.010409395400073 NaN NaN NaN NaN NaN NaN NaN NaN 
8.00072266393435 NaN NaN NaN NaN NaN NaN NaN NaN 
9.010409395400073 NaN NaN NaN NaN NaN NaN NaN NaN 
10.00356528138816 NaN NaN NaN NaN NaN NaN NaN NaN 
11.010409395400073 NaN NaN NaN NaN NaN NaN NaN NaN 
12.00356528138816 NaN NaN NaN NaN NaN NaN NaN NaN 
13.001062070448544 NaN NaN NaN NaN NaN NaN NaN NaN 
14.00356528138816 NaN NaN NaN NaN NaN NaN NaN NaN 
15.010409395400073 NaN NaN NaN NaN NaN NaN NaN NaN 
16.003565281388163 NaN NaN NaN NaN NaN NaN NaN NaN 
17.010409395400075 NaN NaN NaN NaN NaN NaN NaN NaN 
18.00072266393435 NaN NaN NaN NaN NaN NaN NaN NaN 
19.010409395400075 NaN NaN NaN NaN NaN NaN NaN NaN 
20.003565281388163 NaN NaN NaN NaN NaN NaN NaN NaN 
21.010409395400075 1.0 1.0 1.0 1.0 1.0 1.0 1.0 1.0 
22.003565281388163 1.0 1.0 1.0 1.0 1.0 1.0 1.0 1.0 
23.001062070448544 1.0 1.0 1.0 1.0 1.0 1.0 1.0 1.0 
24.003565281388163 0.9629629629629629 0.9629629629629629 0.9629629629629629 0.9629629629629629 0.9629629629629629 0.9629629629629629 0.9629629629629629 0.9629629629629629 
25.010409395400075 0.9444444444444444 0.9444444444444444 0.9444444444444444 0.9444444444444444 0.9444444444444444 0.9444444444444444 0.9444444444444444 0.9444444444444444 
26.003565281388163 0.9259259259259259 0.9259259259259259 0.9259259259259259 0.9259259259259259 0.9259259259259259 0.9259259259259259 0.9259259259259259 0.9259259259259259 
27.010409395400075 0.9074074074074074 0.9074074074074074 0.9074074074074074 0.9074074074074074 0.9074074074074074 0.9074074074074074 0.9074074074074074 0.9074074074074074 
28.00072266393435 0.8888888888888888 0.8888888888888888 0.8888888888888888 0.8888888888888888 0.8888888888888888 0.8888888888888888 0.8888888888888888 0.8888888888888888 
29.010409395400075 0.8888888888888888 0.8888888888888888 0.8888888888888888 0.8888888888888888 0.8888888888888888 0.8888888888888888 0.8888888888888888 0.8888888888888888 
30.003565281388163 0.8703703703703705 0.8703703703703705 0.8703703703703705 0.8703703703703705 0.8703703703703705 0.8703703703703705 0.8703703703703705 0.8703703703703705 
31.010409395400075 0.8518518518518519 0.8518518518518519 0.8518518518518519 0.8518518518518519 0.8518518518518519 0.8518518518518519 0.8518518518518519 0.8518518518518519 
32.00356528138816 0.8518518518518519 0.8518518518518519 0.8518518518518519 0.8518518518518519 0.8518518518518519 0.8518518518518519 0.8518518518518519 0.8518518518518519 
33.00106207044854 0.8333333333333333 0.8333333333333333 0.8333333333333333 0.8333333333333333 0.8333333333333333 0.8333333333333333 0.8333333333333333 0.8333333333333333 
34.00356528138816 0.8333333333333333 0.8333333333333333 0.8333333333333333 0.8333333333333333 0.8333333333333333 0.8333333333333333 0.8333333333333333 0.8333333333333333 
35.010409395400075 0.8333333333333333 0.8333333333333333 0.8333333333333333 0.8333333333333333 0.8333333333333333 0.8333333333333333 0.8333333333333333 0.8333333333333333 
36.00356528138816 0.8333333333333333 0.8333333333333333 0.8333333333333333 0.8333333333333333 0.8333333333333333 0.8333333333333333 0.8333333333333333 0.8333333333333333 
37.010409395400075 0.7930936729226701 0.7930936729226701 0.8333333333333333 0.8333333333333333 0.801800657038929 0.801800657038929 0.8333333333333333 0.8333333333333333 
38.000722663934354 0.7281115932728811 0.7281115932728811 0.8333333333333333 0.8333333333333333 0.73681857738914 0.73681857738914 0.8333333333333333 0.8333333333333333 
39.010409395400075 0.7089877873542275 0.7089877873542275 0.8333333333333333 0.8333333333333333 0.6915266206275527 0.6915266206275527 0.8333333333333333 0.8333333333333333 
40.00356528138816 0.6673830339971564 0.6673830339971564 0.8148148148148148 0.8148148148148148 0.6721208961690985 0.6721208961690985 0.8148148148148148 0.8148148148148148 
41.010409395400075 0.6312915596409214 0.6312915596409214 0.8148148148148148 0.8148148148148148 0.6474698724245803 0.6474698724245803 0.8148148148148148 0.8148148148148148 
42.00356528138816 0.5941839064549017 0.5941839064549017 0.8148148148148148 0.8148148148148148 0.5982772782049017 0.5982772782049017 0.8148148148148148 0.8148148148148148 
43.00106207044854 0.5757095614091716 0.5757095614091716 0.7738039480959988 0.7738039480959988 0.6004800955980565 0.6004800955980565 0.8148148148148148 0.8148148148148148 
44.00356528138816 0.5217657150741745 0.5217657150741745 0.7238796774775492 0.7238796774775492 0.5388197036588642 0.5388197036588642 0.8148148148148148 0.8148148148148148 
45.010409395400075 0.528423448172828 0.528423448172828 0.700419697351079 0.700419697351079 0.4878102179525031 0.4878102179525031 0.7768326071720908 0.7768326071720908 
46.00356528138816 0.5600135061225582 0.5600135061225582 0.6562399141443174 0.6562399141443174 0.4258770840493082 0.4258770840493082 0.6975074522288982 0.6975074522288982 
47.010409395400075 0.5097709490506944 0.5097709490506944 0.6130828358027587 0.6130828358027587 0.3735506949508178 0.3735506949508178 0.6575521361801797 0.6575521361801797 
48.000722663934354 0.42669821319021717 0.42669821319021717 0.5617948224787399 0.5617948224787399 0.33355153007134775 0.33355153007134775 0.5909241479813183 0.5909241479813183 
49.010409395400075 0.5161711567123758 0.5161711567123758 0.5247931189361089 0.5247931189361089 0.30738799873275613 0.30738799873275613 0.5296706730421283 0.5296706730421283 
50.00356528138816 0.5549362698649465 0.5549362698649465 0.45200603892524993 0.45200603892524993 0.2621453544385119 0.2621453544385119 0.47143649006320604 0.47143649006320604 
51.010409395400075 0.46299209344034925 0.46299209344034925 0.44471926475121537 0.44471926475121537 0.2592559512893135 0.2592559512893135 0.4441174702595024 0.4441174702595024 
52.00356528138816 0.4529472458389782 0.4529472458389782 0.44295157873837226 0.44295157873837226 0.26196607946157746 0.26196607946157746 0.4149010946812731 0.4149010946812731 
53.00106207044854 0.5114923929725481 0.5114923929725481 0.40178243520940093 0.40178243520940093 0.268075537276562 0.268075537276562 0.39569584559873344 0.39569584559873344 
54.00356528138816 0.4754823084379203 0.4754823084379203 0.3113472543281279 0.3113472543281279 0.2660394754734936 0.2660394754734936 0.32169938600978787 0.32169938600978787 
55.010409395400075 0.4037722067893838 0.4037722067893838 0.2915257742038394 0.2915257742038394 0.27314141245861273 0.27314141245861273 0.31342750920857393 0.31342750920857393 
56.00356528138816 0.4043578891492497 0.4043578891492497 0.2799428600619674 0.2799428600619674 0.29673710299225486 0.29673710299225486 0.29644864318691194 0.29644864318691194 
57.010409395400075 0.45264388708939013 0.45264388708939013 0.2755680731923725 0.2755680731923725 0.3440527060213508 0.3440527060213508 0.277862142111412 0.277862142111412 
58.000722663934354 0.4949206353841461 0.4949206353841461 0.24808857887537353 0.24808857887537353 0.3292712227385368 0.3292712227385368 0.23348804389836414 0.23348804389836414 
59.010409395400075 0.4835492422360238 0.4835492422360238 0.2340814205958316 0.2340814205958316 0.34710904679505394 0.34710904679505394 0.20932245739509772 0.20932245739509772 
60.00356528138816 0.445676053726859 0.445676053726859 0.2339778054214585 0.2339778054214585 0.3474201390309556 0.3474201390309556 0.22829659797203186 0.22829659797203186 
61.010409395400075 0.4516608214460035 0.4516608214460035 0.24475088630387018 0.24475088630387018 0.3417197294961014 0.3417197294961014 0.22960075290339924 0.22960075290339924 
62.00356528138816 0.39911392966523745 0.39911392966523745 0.19730559074841095 0.19730559074841095 0.32948952779049784 0.32948952779049784 0.2268480281444103 0.2268480281444103 
63.00106207044854 0.37088998712119453 0.37088998712119453 0.2006200665005555 0.2006200665005555 0.289135365519256 0.289135365519256 0.23351778087853242 0.23351778087853242 
64.00356528138816 0.3499423513079412 0.3499423513079412 0.22399483354929844 0.22399483354929844 0.29301194339277453 0.29301194339277453 0.23548182122960257 0.23548182122960257 
65.01040939540007 0.39363245678553604 0.39363245678553604 0.21422770422296664 0.21422770422296664 0.2672195244124845 0.2672195244124845 0.22691907522446444 0.22691907522446444 
66.00356528138816 0.40951007235095566 0.40951007235095566 0.21218589397790108 0.21218589397790108 0.2960920539766705 0.2960920539766705 0.20624634705304387 0.20624634705304387 
67.01040939540007 0.40650189563624306 0.40650189563624306 0.22391458379574755 0.22391458379574755 0.3212250535872052 0.3212250535872052 0.20474460850493223 0.20474460850493223 
68.00072266393435 0.510376033041468 0.510376033041468 0.22451425483833526 0.22451425483833526 0.2627339548353466 0.2627339548353466 0.20279690303558323 0.20279690303558323 
69.01040939540007 0.5298413727762133 0.5298413727762133 0.20866724850518287 0.20866724850518287 0.2588659375714891 0.2588659375714891 0.2240452286472783 0.2240452286472783 
70.00356528138816 0.4448378796882172 0.4448378796882172 0.19535571031313514 0.19535571031313514 0.27379619112023335 0.27379619112023335 0.2242057658241789 0.2242057658241789 
71.01040939540007 0.470946836532091 0.470946836532091 0.1845444888450993 0.1845444888450993 0.25174806764126334 0.25174806764126334 0.23182547456330332 0.23182547456330332 
72.00356528138816 0.5007218728343868 0.5007218728343868 0.19673737038746897 0.19673737038746897 0.22223590269400545 0.22223590269400545 0.23992468359610072 0.23992468359610072 
73.00106207044854 0.43732022403904885 0.43732022403904885 0.2003230659314526 0.2003230659314526 0.22218941113777887 0.22218941113777887 0.24861110822989402 0.24861110822989402 
74.00356528138816 0.4378748387634387 0.4378748387634387 0.20173500729106644 0.20173500729106644 0.2239999120556003 0.2239999120556003 0.24991856971876256 0.24991856971876256 
75.01040939540007 0.44001191629441055 0.44001191629441055 0.20214877872083742 0.20214877872083742 0.22753896663552992 0.22753896663552992 0.231813822630015 0.231813822630015 
76.00356528138816 0.4690936295330145 0.4690936295330145 0.18742734215106419 0.18742734215106419 0.20597724512774335 0.20597724512774335 0.21969128319430128 0.21969128319430128 
77.01040939540007 0.42194670788805405 0.42194670788805405 0.18756694344653135 0.18756694344653135 0.18756183580622837 0.18756183580622837 0.221157877011971 0.221157877011971 
78.00072266393435 0.324823266468429 0.324823266468429 0.18753495668785486 0.18753495668785486 0.19275333167461228 0.19275333167461228 0.196816305237959 0.196816305237959 
79.01040939540007 0.3595676749516865 0.3595676749516865 0.17949894532497113 0.17949894532497113 0.1881269195218062 0.1881269195218062 0.1689712059912008 0.1689712059912008 
80.00356528138816 0.4405664523314648 0.4405664523314648 0.18552754752247128 0.18552754752247128 0.19432258345773293 0.19432258345773293 0.17518627213861054 0.17518627213861054 
81.01040939540007 0.4124310704813025 0.4124310704813025 0.16856432454760062 0.16856432454760062 0.2665123384809035 0.2665123384809035 0.17670514452541183 0.17670514452541183 
82.00356528138816 0.43480867613853585 0.43480867613853585 0.16618473564427144 0.16618473564427144 0.2980006700396519 0.2980006700396519 0.18461808260894577 0.18461808260894577 
83.00106207044854 0.49949773163474553 0.49949773163474553 0.1622025884984556 0.1622025884984556 0.32243133496671883 0.32243133496671883 0.19688271978255836 0.19688271978255836 
84.00356528138816 0.482967550081849 0.482967550081849 0.1622403066107492 0.1622403066107492 0.3427581082334659 0.3427581082334659 0.19689910361026916 0.19689910361026916 
85.01040939540007 0.4478309311179934 0.4478309311179934 0.13438317941237043 0.13438317941237043 0.3554376616182656 0.3554376616182656 0.21314939212522108 0.21314939212522108 
86.00356528138816 0.4606461100510174 0.4606461100510174 0.1359745880859412 0.1359745880859412 0.36876948765431666 0.36876948765431666 0.23061494608346345 0.23061494608346345 
87.01040939540007 0.423760963002824 0.423760963002824 0.14215037509216433 0.14215037509216433 0.3163088634997455 0.3163088634997455 0.2535739614594332 0.2535739614594332 
88.00072266393435 0.47427894519310976 0.47427894519310976 0.1434976124918304 0.1434976124918304 0.33716286960379366 0.33716286960379366 0.27350215826668295 0.27350215826668295 
89.01040939540007 0.4855728122513587 0.4855728122513587 0.14252656650833398 0.14252656650833398 0.30060257991728917 0.30060257991728917 0.30658561408697504 0.30658561408697504 
90.00356528138816 0.40856259947564394 0.40856259947564394 0.14080429729811075 0.14080429729811075 0.3214700775123016 0.3214700775123016 0.3045470637318332 0.3045470637318332 
91.01040939540007 0.46751143991163047 0.46751143991163047 0.17660058598861503 0.17660058598861503 0.34284443974461126 0.34284443974461126 0.30319600838542243 0.30319600838542243 
92.00356528138816 0.4612441255658412 0.4612441255658412 0.18958751787129338 0.18958751787129338 0.30471773130957264 0.30471773130957264 0.29926345425106865 0.29926345425106865 
93.00106207044854 0.4296829374753635 0.4296829374753635 0.19757945570050364 0.19757945570050364 0.29989175037143795 0.29989175037143795 0.32879301800666716 0.32879301800666716 
94.00356528138816 0.48682679369128773 0.48682679369128773 0.1902913966238007 0.1902913966238007 0.2742772470749926 0.2742772470749926 0.34232972241601634 0.34232972241601634 
95.01040939540007 0.4869276266633477 0.4869276266633477 0.24226829979940623 0.24226829979940623 0.2858780301694199 0.2858780301694199 0.3273511590402985 0.3273511590402985 
96.00356528138816 0.4164277403658575 0.4164277403658575 0.26019378507545954 0.26019378507545954 0.27673214018245124 0.27673214018245124 0.3373149619557945 0.3373149619557945 
97.01040939540007 0.4418779392230691 0.4418779392230691 0.27028653440393424 0.27028653440393424 0.2712457393092895 0.2712457393092895 0.3378387173438391 0.3378387173438391 
98.00072266393435 0.4898361600959017 0.4898361600959017 0.3000263602399013 0.3000263602399013 0.2727752238453185 0.2727752238453185 0.3401828748747614 0.3401828748747614 
99.01040939540007 0.4805511092340614 0.4805511092340614 0.33648239622771126 0.33648239622771126 0.279289186029796 0.279289186029796 0.3470146863890624 0.3470146863890624 
100.00356528138816 0.5217418299139905 0.5217418299139905 0.3733382824083332 0.3733382824083332 0.27799217059901177 0.27799217059901177 0.3585953147559889 0.3585953147559889 
101.01040939540007 0.4858534329679122 0.4858534329679122 0.3547056445721973 0.3547056445721973 0.24084101424435736 0.24084101424435736 0.35677308201459973 0.35677308201459973 
102.00356528138816 0.4456287259117055 0.4456287259117055 0.36514981877052943 0.36514981877052943 0.24203133846728953 0.24203133846728953 0.3760219996009734 0.3760219996009734 
103.00106207044854 0.4597752929437933 0.4597752929437933 0.35264145651321704 0.35264145651321704 0.2526217078051313 0.2526217078051313 0.3575034810824549 0.3575034810824549 
104.00356528138816 0.45879377795122595 0.45879377795122595 0.35258782733761973 0.35258782733761973 0.2921757526479065 0.2921757526479065 0.3561696364775651 0.3561696364775651 
105.01040939540007 0.4432668461861786 0.4432668461861786 0.35258782733761973 0.35258782733761973 0.30879353647650215 0.30879353647650215 0.33772333612581296 0.33772333612581296 
106.00356528138816 0.46595454971643413 0.46595454971643413 0.35256995042627104 0.35256995042627104 0.3018265424958683 0.3018265424958683 0.327349817299771 0.327349817299771 
107.01040939540007 0.4758758563872558 0.4758758563872558 0.3531882990444835 0.3531882990444835 0.32569027659800903 0.32569027659800903 0.32796816591798345 0.32796816591798345 
108.00072266393435 0.4210641253067175 0.4210641253067175 0.3531663364641905 0.3531663364641905 0.32051741019878527 0.32051741019878527 0.3083442286860631 0.3083442286860631 
109.01040939540007 0.4266697504009432 0.4266697504009432 0.3531663364641905 0.3531663364641905 0.3178396128100725 0.3178396128100725 0.3083442286860631 0.3083442286860631 
110.00356528138816 0.4588059842134038 0.4588059842134038 0.3458584185769248 0.3458584185769248 0.31702791487948423 0.31702791487948423 0.3259817383143579 0.3259817383143579 
111.01040939540007 0.4445133187551262 0.4445133187551262 0.34593272874883685 0.34593272874883685 0.3171022250513961 0.3171022250513961 0.32605604848626984 0.32605604848626984 
112.00356528138816 0.4671888160232039 0.4671888160232039 0.353396983633943 0.353396983633943 0.3624633211837798 0.3624633211837798 0.32331322324234274 0.32331322324234274 
113.00106207044854 0.47548612674530666 0.47548612674530666 0.353396983633943 0.353396983633943 0.35911573771020694 0.35911573771020694 0.32331322324234274 0.32331322324234274 
114.00356528138816 0.4342639866170905 0.4342639866170905 0.35660879774313275 0.35660879774313275 0.36811216547779557 0.36811216547779557 0.3569384839732027 0.3569384839732027 
115.01040939540007 0.4402593413532653 0.4402593413532653 0.35660879774313275 0.35660879774313275 0.36811216547779557 0.36811216547779557 0.35666416999976225 0.35666416999976225 
116.00356528138816 0.4437969066944447 0.4437969066944447 0.35340569787017617 0.35340569787017617 0.36814651190624337 0.36814651190624337 0.356674824328952 0.356674824328952 
117.01040939540007 0.4437969066944447 0.4437969066944447 0.3538792642135266 0.3538792642135266 0.37914364195299716 0.37914364195299716 0.357116710514931 0.357116710514931 
118.00072266393435 0.4814814814814815 0.4814814814814815 0.3606023294341218 0.3606023294341218 0.3791208479526403 0.3791208479526403 0.35709391651457423 0.35709391651457423 
119.01040939540007 0.4733179980704819 0.4733179980704819 0.3606023294341218 0.3606023294341218 0.3791208479526403 0.3791208479526403 0.35709391651457423 0.35709391651457423 
120.00356528138816 0.4279265428081105 0.4279265428081105 0.3606023294341218 0.3606023294341218 0.3791208479526403 0.3791208479526403 0.35709391651457423 0.35709391651457423 
121.01040939540007 0.4269975887658305 0.4269975887658305 0.360821922497287 0.360821922497287 0.3793404410158055 0.3793404410158055 0.33619534115047944 0.35731350957773944 
122.00356528138816 0.44064177035556973 0.44064177035556973 0.3607579676565597 0.3607579676565597 0.37927648617507814 0.37927648617507814 0.33575310322081564 0.35687127164807564 
123.00106207044854 0.41269717077181245 0.41269717077181245 0.3237209306195227 0.3237209306195227 0.3422394491380411 0.3422394491380411 0.27442363070156445 0.2999091655990888 
124.00356528138816 0.4444444444444444 0.4444444444444444 0.32369887778978945 0.32369887778978945 0.32369736880617633 0.32369736880617633 0.25930777740103855 0.30377229979422654 
125.01040939540007 0.43535200699116483 0.43535200699116483 0.32369887778978945 0.32369887778978945 0.32369736880617633 0.32369736880617633 0.25885426855613103 0.29600162525861207 
126.00356528138816 0.3989928573310145 0.3989928573310145 0.32377108656167247 0.32377108656167247 0.3237695775780593 0.3237695775780593 0.2409015369795689 0.28364096612237677 
127.01040939540007 0.4080852947842941 0.4080852947842941 0.3241433073598686 0.3241433073598686 0.32414179837625545 0.32414179837625545 0.20304606530492184 0.2580953902719035 
128.00072266393437 0.4262928945993735 0.4262928945993735 0.3241251538550424 0.3241251538550424 0.3241236448714293 0.3241236448714293 0.1780585704736653 0.24049024765456825 
129.01040939540007 0.4262928945993735 0.4262928945993735 0.3241251538550424 0.3241251538550424 0.3241236448714293 0.3241236448714293 0.1847023161227729 0.22736279886544855 
130.00356528138815 0.4444444444444444 0.4444444444444444 0.3241251538550424 0.3241251538550424 0.3237618239452777 0.3237618239452777 0.18035329769376943 0.20563709583756754 
131.01040939540007 0.4444444444444444 0.4444444444444444 0.3243919410474124 0.3243919410474124 0.32402861113764764 0.32402861113764764 0.1806200848861394 0.19519681243717363 
132.00356528138815 0.4074074074074074 0.4074074074074074 0.30584778518498534 0.30584778518498534 0.3243663037035039 0.3243663037035039 0.16162048476059485 0.17181582102841186 
133.00106207044854 0.4074074074074074 0.4074074074074074 0.29870549478031944 0.29870549478031944 0.30932082420387214 0.30932082420387214 0.1526493233697207 0.1628446596375377 
134.00356528138815 0.4074074074074074 0.4074074074074074 0.298680437114557 0.298680437114557 0.3092661870880742 0.3092661870880742 0.15398011275782636 0.15398011275782636 
135.01040939540007 0.4074074074074074 0.4074074074074074 0.298680437114557 0.298680437114557 0.30127427131053264 0.30127427131053264 0.14150816377805492 0.14150816377805492 
136.00356528138815 0.4074074074074074 0.4074074074074074 0.29877220276303906 0.29877220276303906 0.2895010611515753 0.2895010611515753 0.14216782152721585 0.14216782152721585 
137.01040939540007 0.4074074074074074 0.4074074074074074 0.2733303674596534 0.2733303674596534 0.25750108817271816 0.25750108817271816 0.14243629064752159 0.14243629064752159 
138.00072266393437 0.3888888888888889 0.3888888888888889 0.25479938039526606 0.25479938039526606 0.2389701011083308 0.2389701011083308 0.15678493834528373 0.15678493834528373 
139.01040939540007 0.3888888888888889 0.3888888888888889 0.2382860470440177 0.2382860470440177 0.2200699601805129 0.2200699601805129 0.15467517275917983 0.15467517275917983 
140.00356528138815 0.3888888888888889 0.3888888888888889 0.22642107123657843 0.22642107123657843 0.1964387051813998 0.1964387051813998 0.15916364461305454 0.15916364461305454 
141.01040939540007 0.36765160371531563 0.36765160371531563 0.1939863634048765 0.1939863634048765 0.1854308472307827 0.1854308472307827 0.16124077912322185 0.15983602211802664 
142.00356528138815 0.36765160371531563 0.36765160371531563 0.1939773153703487 0.1939773153703487 0.18010874313272995 0.18010874313272995 0.15615120971476454 0.1547464527095693 
143.00106207044854 0.3723755555376405 0.3723755555376405 0.19627156238391044 0.19627156238391044 0.18301886245897475 0.18301886245897475 0.15675430500581397 0.15675430500581397 
144.00356528138815 0.3605105797302013 0.3605105797302013 0.1671289508293969 0.1671289508293969 0.1828501414171349 0.1828501414171349 0.13806706544545563 0.15658558396397415 
145.01040939540007 0.30787361713071904 0.30787361713071904 0.13585771645823155 0.13585771645823155 0.18125315808837597 0.18125315808837597 0.15287283421086728 0.1896693148199701 
146.00356528138815 0.30122007441963977 0.30122007441963977 0.12958950874755276 0.12958950874755276 0.1935034688962157 0.1935034688962157 0.16447118420384532 0.1827491462944296 
147.01040939540007 0.33333333333333337 0.33333333333333337 0.13010824829698966 0.13010824829698966 0.1935025877033766 0.1935025877033766 0.1464588434099456 0.16473680550052994 
148.00072266393437 0.3043717992047024 0.3043717992047024 0.13001639661340972 0.13001639661340972 0.1934107360197967 0.1934107360197967 0.15160839798759007 0.13597662026031357 
149.01040939540007 0.3043717992047024 0.3043717992047024 0.13009034124171806 0.13009034124171806 0.2003696421285919 0.2003696421285919 0.15857986592120332 0.14318864462186107 
150.00356528138815 0.31481481481481477 0.31481481481481477 0.11671547537450472 0.11671547537450472 0.1869947762613786 0.1869947762613786 0.1399665177650914 0.12940503419109628 
151.01040939540007 0.31481481481481477 0.31481481481481477 0.13226109507164674 0.13226109507164674 0.1869112665958794 0.1869112665958794 0.13988300809959223 0.11080300600707861 
152.00356528138815 0.2962962962962963 0.2962962962962963 0.10763044407572837 0.10763044407572837 0.14376209708144252 0.14376209708144252 0.13736355233663325 0.10828355024411962 
153.00106207044854 0.2962962962962963 0.2962962962962963 0.11066883049420312 0.11066883049420312 0.14770586753124015 0.14770586753124015 0.14040193875510798 0.11132193666259434 
154.00356528138815 0.2962962962962963 0.2962962962962963 0.1132606876163048 0.1132606876163048 0.14135057663010844 0.14135057663010844 0.14005307997763047 0.12153456145911196 
155.01040939540007 0.2962962962962963 0.2962962962962963 0.13085996107550296 0.13085996107550296 0.14183742752758371 0.14183742752758371 0.14053993087510577 0.12202141235658727 
156.00356528138815 0.2962962962962963 0.2962962962962963 0.11383599808755047 0.11383599808755047 0.10190450116051317 0.10190450116051317 0.11912552302655371 0.10060700450803521 
157.01040939540007 0.2962962962962963 0.2962962962962963 0.11448608429827924 0.11448608429827924 0.10255458737124185 0.10255458737124185 0.11977560923728245 0.10125709071876393 
158.00072266393437 0.2962962962962963 0.2962962962962963 0.11457272344182658 0.11457272344182658 0.10264122651478923 0.10264122651478923 0.1198622483808298 0.10134372986231129 
159.01040939540007 0.27777777777777785 0.27777777777777785 0.09666476957957319 0.09666476957957319 0.08473327265253586 0.08473327265253586 0.12047281303709494 0.10195429451857642 
160.00356528138815 0.25925925925925924 0.25925925925925924 0.06921609946470694 0.06921609946470694 0.06623175056090297 0.06623175056090297 0.10208883033773179 0.08357031181921326 
161.01040939540007 0.25925925925925924 0.25925925925925924 0.08416491564607402 0.08416491564607402 0.04756026418677173 0.04756026418677173 0.1192012528994546 0.10068273438093608 
162.00356528138815 0.25925925925925924 0.25925925925925924 0.08117441122031444 0.08117441122031444 0.05302150264570933 0.05302150264570933 0.12680034469900645 0.10828182618048794 
163.00106207044854 0.25925925925925924 0.25925925925925924 0.08156874275315223 0.08156874275315223 0.05373506959576059 0.05373506959576059 0.12604119602988503 0.10752267751136652 
164.00356528138815 0.25925925925925924 0.25925925925925924 0.08386742208110454 0.08386742208110454 0.05248965434266035 0.05248965434266035 0.12479578077678483 0.10627726225826631 
165.01040939540007 0.25925925925925924 0.25925925925925924 0.08226287326518791 0.08226287326518791 0.050885105526743794 0.050885105526743794 0.12319123196086824 0.10467271344234971 
166.00356528138815 0.25925925925925924 0.25925925925925924 0.08233568710867742 0.08233568710867742 0.045746450012552314 0.045746450012552314 0.08101553940963975 0.08101553940963975 
167.01040939540007 0.25925925925925924 0.25925925925925924 0.08233568710867742 0.08233568710867742 0.042021620316209526 0.042021620316209526 0.08215956766557198 0.08215956766557198 
168.00072266393437 0.24074074074074076 0.24074074074074076 0.08230202375120596 0.08230202375120596 0.06050647547725659 0.06050647547725659 0.09223601316465652 0.110754531683175 
169.01040939540007 0.24074074074074076 0.24074074074074076 0.08230202375120596 0.08230202375120596 0.06050647547725659 0.06050647547725659 0.07371749464613794 0.110754531683175 
170.00356528138815 0.24074074074074076 0.24074074074074076 0.08245629841495232 0.08245629841495232 0.061006246964607186 0.061006246964607186 0.06429943253010997 0.11110002850677925 
171.01040939540007 0.24074074074074076 0.24074074074074076 0.08245629841495232 0.08245629841495232 0.06077050972253664 0.06077050972253664 0.06429943253010997 0.11110002850677925 
172.00356528138815 0.22222222222222218 0.22222222222222218 0.07364929804305134 0.07364929804305134 0.07960114377573749 0.07960114377573749 0.06346137673120889 0.10049841376824592 
173.00106207044854 0.22222222222222218 0.22222222222222218 0.07564556886239523 0.07564556886239523 0.08159741459508135 0.08159741459508135 0.08041591567794681 0.11745295271498384 
174.00356528138815 0.22222222222222218 0.22222222222222218 0.0751553119839774 0.0751553119839774 0.08434045898617126 0.08434045898617126 0.08315896006903671 0.12019599710607375 
175.01040939540007 0.22222222222222218 0.22222222222222218 0.0753179783248002 0.0753179783248002 0.12035866344689654 0.12035866344689654 0.08332162640985948 0.12035866344689654 
176.00356528138815 0.2037037037037037 0.2037037037037037 0.07568093471108199 0.07568093471108199 0.11256516728306375 0.11256516728306375 0.09320859333271549 0.13024563036975256 
177.01040939540007 0.2037037037037037 0.2037037037037037 0.07568093471108199 0.07568093471108199 0.11256516728306375 0.11256516728306375 0.09320859333271549 0.13024563036975256 
178.00072266393437 0.2037037037037037 0.2037037037037037 0.0758364250070843 0.0758364250070843 0.11273809556980467 0.11273809556980467 0.09330532243975546 0.13034235947679243 
179.01040939540007 0.2037037037037037 0.2037037037037037 0.0758364250070843 0.0758364250070843 0.11273809556980467 0.11273809556980467 0.09330532243975546 0.11182384095827397 
180.00356528138815 0.2037037037037037 0.2037037037037037 0.0758364250070843 0.0758364250070843 0.11273809556980467 0.11273809556980467 0.09332276043049412 0.11184127894901263 
181.01040939540007 0.2037037037037037 0.2037037037037037 0.0758364250070843 0.0758364250070843 0.11273809556980467 0.11273809556980467 0.09332276043049412 0.11184127894901263 
182.00356528138815 0.2037037037037037 0.2037037037037037 0.07571904455198186 0.07571904455198186 0.1010837315929564 0.1010837315929564 0.10018691497216436 0.11870543349068288 
183.00106207044854 0.2037037037037037 0.2037037037037037 0.07470778720424488 0.07470778720424488 0.10007247424521949 0.10007247424521949 0.09917565762442744 0.11769417614294594 
184.00356528138815 0.2037037037037037 0.2037037037037037 0.08221737355319447 0.08221737355319447 0.08221737355319447 0.08221737355319447 0.10006791391446836 0.11858643243298683 
185.01040939540007 0.1851851851851852 0.1851851851851852 0.07759222443098276 0.07759222443098276 0.09806180685068343 0.09806180685068343 0.1159123472119573 0.13443086573047575 
186.00356528138815 0.1851851851851852 0.1851851851851852 0.07043433541286483 0.07043433541286483 0.09090391783256545 0.09090391783256545 0.0906269700549299 0.10914548857344847 
187.01040939540007 0.1851851851851852 0.1851851851851852 0.07043433541286483 0.07043433541286483 0.09090391783256545 0.09090391783256545 0.0906269700549299 0.10914548857344847 
188.00072266393437 0.1851851851851852 0.1851851851851852 0.07047402948517414 0.07047402948517414 0.0905717284436519 0.0905717284436519 0.09094361190487481 0.09094361190487481 
189.01040939540007 0.1851851851851852 0.1851851851851852 0.07047402948517414 0.07047402948517414 0.0905717284436519 0.0905717284436519 0.09094361190487481 0.09094361190487481 
190.00356528138815 0.1851851851851852 0.1851851851851852 0.07047402948517414 0.07047402948517414 0.09094361190487481 0.09094361190487481 0.09094361190487481 0.09094361190487481 
191.01040939540007 0.1851851851851852 0.1851851851851852 0.07047402948517414 0.07047402948517414 0.09094361190487481 0.09094361190487481 0.09094361190487481 0.09094361190487481 
192.00356528138815 0.1851851851851852 0.1851851851851852 0.07723207316346782 0.07723207316346782 0.09770165558316836 0.09770165558316836 0.09770165558316836 0.09770165558316836 
193.00106207044854 0.1851851851851852 0.1851851851851852 0.09573058017694826 0.09573058017694826 0.09881983199861938 0.09881983199861938 0.09881983199861938 0.09881983199861938 
194.00356528138815 0.1851851851851852 0.1851851851851852 0.0973025643767861 0.0973025643767861 0.09942497285031665 0.09942497285031665 0.09942497285031665 0.09942497285031665 
195.01040939540007 0.1851851851851852 0.1851851851851852 0.09729468377454513 0.09729468377454513 0.09942497285031665 0.09942497285031665 0.08070143337884579 0.08070143337884579 
196.00356528138815 0.1851851851851852 0.1851851851851852 0.09632605034356842 0.09632605034356842 0.09942318276748037 0.09942318276748037 0.0806996432960095 0.0806996432960095 
197.01040939540007 0.16666666666666669 0.16666666666666669 0.07780753182504986 0.07780753182504986 0.08090466424896181 0.08090466424896181 0.06218112477749097 0.06218112477749097 
198.00072266393437 0.16666666666666669 0.16666666666666669 0.07878592611635966 0.07878592611635966 0.0809162151921312 0.0809162151921312 0.06219267572066035 0.06219267572066035 
199.01040939540007 0.16666666666666669 0.16666666666666669 0.07878592611635966 0.07878592611635966 0.0809162151921312 0.0809162151921312 0.06219267572066035 0.06219267572066035 
200.00356528138815 0.16666666666666669 0.16666666666666669 0.07043366340048281 0.07043366340048281 0.0809162151921312 0.0809162151921312 0.06219267572066035 0.06219267572066035 
201.01040939540007 0.16666666666666669 0.16666666666666669 0.07043366340048281 0.07043366340048281 0.0809162151921312 0.0809162151921312 0.06219267572066035 0.06219267572066035 
202.00356528138815 0.1301877365740856 0.1301877365740856 0.06799524344569395 0.06799524344569395 0.07109237586960591 0.07109237586960591 0.052368836398135055 0.052368836398135055 
203.00106207044854 0.1301877365740856 0.1301877365740856 0.0681057393915734 0.0681057393915734 0.05175654460763184 0.05175654460763184 0.0681057393915734 0.0681057393915734 
204.00356528138815 0.12962962962962962 0.12962962962962962 0.058812305969708836 0.058812305969708836 0.06098162970428582 0.06098162970428582 0.07733082448822737 0.07733082448822737 
205.01040939540007 0.12962962962962962 0.12962962962962962 0.05881633810113449 0.05881633810113449 0.06098566183571142 0.06098566183571142 0.07733485661965296 0.07733485661965296 
206.00356528138815 0.12962962962962962 0.12962962962962962 0.05881633810113449 0.05881633810113449 0.06098566183571142 0.06098566183571142 0.07733485661965296 0.07733485661965296 
207.01040939540007 0.12962962962962962 0.12962962962962962 0.05881633810113449 0.05881633810113449 0.06098566183571142 0.06098566183571142 0.07733485661965296 0.07733485661965296 
208.00072266393437 0.11165928484202216 0.11165928484202216 0.05880640488758951 0.05880640488758951 0.0609757286221665 0.0609757286221665 0.07732492340610804 0.07732492340610804 
209.01040939540007 0.11165928484202216 0.11165928484202216 0.05880640488758951 0.05880640488758951 0.0609757286221665 0.0609757286221665 0.07732492340610804 0.07732492340610804 
210.00356528138815 0.11165928484202216 0.11165928484202216 0.05880640488758951 0.05880640488758951 0.0609757286221665 0.0609757286221665 0.07732492340610804 0.07732492340610804 
211.01040939540007 0.11165928484202216 0.11165928484202216 0.05880640488758951 0.05880640488758951 0.0609757286221665 0.0609757286221665 0.07732492340610804 0.07732492340610804 
212.00356528138815 0.12962962962962962 0.12962962962962962 0.058821347513179675 0.058821347513179675 0.0609906712477566 0.0609906712477566 0.07733986603169815 0.07733986603169815 
213.00106207044854 0.11111111111111109 0.11111111111111109 0.056400421508620124 0.056400421508620124 0.09343745854565715 0.09343745854565715 0.09343745854565715 0.09343745854565715 
214.00356528138815 0.11111111111111109 0.11111111111111109 0.056296581923470666 0.056296581923470666 0.0933336189605077 0.0933336189605077 0.0933336189605077 0.0933336189605077 
215.01040939540007 0.11111111111111109 0.11111111111111109 0.056296581923470666 0.056296581923470666 0.0933336189605077 0.0933336189605077 0.0933336189605077 0.0933336189605077 
216.00356528138815 0.11111111111111109 0.11111111111111109 0.056296581923470666 0.056296581923470666 0.0933336189605077 0.0933336189605077 0.0933336189605077 0.0933336189605077 
217.01040939540007 0.11111111111111109 0.11111111111111109 0.056296581923470666 0.056296581923470666 0.0933336189605077 0.0933336189605077 0.07481510044198919 0.07481510044198919 
218.00072266393437 0.09259259259259262 0.09259259259259262 0.05574840819255959 0.05574840819255959 0.11130396374811515 0.11130396374811515 0.09278544522959667 0.09278544522959667 
219.01040939540007 0.09259259259259262 0.09259259259259262 0.05574840819255959 0.05574840819255959 0.11130396374811515 0.11130396374811515 0.09278544522959667 0.09278544522959667 
220.00356528138815 0.09259259259259262 0.09259259259259262 0.056122370366962264 0.056122370366962264 0.11130396374811515 0.11130396374811515 0.09278544522959667 0.09278544522959667 
221.01040939540007 0.09259259259259262 0.09259259259259262 0.056122370366962264 0.056122370366962264 0.11130396374811515 0.11130396374811515 0.09278544522959667 0.09278544522959667 
222.00356528138815 0.09259259259259262 0.09259259259259262 0.055915807875622614 0.055915807875622614 0.11132478668527192 0.11132478668527192 0.0928062681667534 0.0928062681667534 
223.00106207044854 0.0740740740740741 0.0740740740740741 0.03739728935710406 0.03739728935710406 0.0928062681667534 0.0928062681667534 0.07428774964823487 0.07428774964823487 
224.00356528138815 0.0740740740740741 0.0740740740740741 0.037374689254622936 0.037374689254622936 0.07421262920400232 0.07421262920400232 0.05569411068548384 0.05569411068548384 
225.01040939540007 0.0740740740740741 0.0740740740740741 0.037374689254622936 0.037374689254622936 0.05569411068548384 0.05569411068548384 0.05569411068548384 0.05569411068548384 
226.00356528138815 0.0740740740740741 0.0740740740740741 0.037374689254622936 0.037374689254622936 0.05569411068548384 0.05569411068548384 0.05569411068548384 0.05569411068548384 
227.01040939540007 0.0740740740740741 0.0740740740740741 0.037374689254622936 0.037374689254622936 0.05569411068548384 0.05569411068548384 0.05569411068548384 0.05569411068548384 
228.00072266393437 0.0740740740740741 0.0740740740740741 0.037374689254622936 0.037374689254622936 0.037175592166965324 0.037175592166965324 0.05569411068548384 0.05569411068548384 
229.01040939540007 0.0740740740740741 0.0740740740740741 0.037374689254622936 0.037374689254622936 0.037175592166965324 0.037175592166965324 0.05569411068548384 0.05569411068548384 
230.00356528138815 0.0740740740740741 0.0740740740740741 0.037455112671641644 0.037455112671641644 0.037455112671641644 0.037455112671641644 0.05569411068548384 0.05569411068548384 
231.01040939540007 0.05555555555555554 0.05555555555555554 0.018936594153123147 0.018936594153123147 0.018936594153123147 0.018936594153123147 0.0371755921669653 0.0371755921669653 
232.00356528138815 0.05555555555555554 0.05555555555555554 0.01879655231358175 0.01879655231358175 0.01879655231358175 0.01879655231358175 0.037412305694939404 0.037412305694939404 
233.00106207044854 0.05555555555555554 0.05555555555555554 0.01879655231358175 0.01879655231358175 0.01879655231358175 0.01879655231358175 0.037412305694939404 0.037412305694939404 
234.00356528138815 0.05555555555555554 0.05555555555555554 0.018817891261001904 0.018817891261001904 0.018817891261001904 0.018817891261001904 0.03736435597704032 0.03736435597704032 
235.01040939540007 0.05555555555555554 0.05555555555555554 0.018817891261001904 0.018817891261001904 0.018817891261001904 0.018817891261001904 0.03736435597704032 0.03736435597704032 
236.00356528138815 0.05555555555555554 0.05555555555555554 0.018817891261001904 0.018817891261001904 0.018817891261001904 0.018817891261001904 0.03736435597704032 0.03736435597704032 
237.01040939540007 0.05555555555555554 0.05555555555555554 0.018817891261001904 0.018817891261001904 0.018817891261001904 0.018817891261001904 0.03736435597704032 0.03736435597704032 
238.00072266393437 0.05555555555555554 0.05555555555555554 0.018817891261001904 0.018817891261001904 0.018817891261001904 0.018817891261001904 0.018845837458521794 0.018845837458521794 
239.01040939540007 0.05555555555555554 0.05555555555555554 0.018817891261001904 0.018817891261001904 0.018817891261001904 0.018817891261001904 0.018845837458521794 0.018845837458521794 
240.00356528138815 0.05555555555555554 0.05555555555555554 0.018845837458521794 0.018845837458521794 0.018845837458521794 0.018845837458521794 0.018845837458521794 0.018845837458521794 
241.01040939540007 0.05555555555555554 0.05555555555555554 0.018845837458521794 0.018845837458521794 0.018845837458521794 0.018845837458521794 0.018845837458521794 0.018845837458521794 
242.00356528138815 0.05555555555555554 0.05555555555555554 0.018855098755258957 0.018855098755258957 0.018855098755258957 0.018855098755258957 0.018855098755258957 0.018855098755258957 
243.00106207044854 0.05555555555555554 0.05555555555555554 0.018855098755258957 0.018855098755258957 0.018855098755258957 0.018855098755258957 0.018855098755258957 0.018855098755258957 
244.00356528138815 0.05555555555555554 0.05555555555555554 0.03242612556864683 0.03242612556864683 0.03242612556864683 0.03242612556864683 0.03242612556864683 0.03242612556864683 
245.01040939540007 0.05555555555555554 0.05555555555555554 0.03242612556864683 0.03242612556864683 0.03242612556864683 0.03242612556864683 0.03242612556864683 0.03242612556864683 
246.00356528138815 0.05555555555555554 0.05555555555555554 0.03242612556864683 0.03242612556864683 0.03242612556864683 0.03242612556864683 0.03242612556864683 0.03242612556864683 
247.01040939540007 0.05555555555555554 0.05555555555555554 0.03242612556864683 0.03242612556864683 0.03242612556864683 0.03242612556864683 0.03242612556864683 0.03242612556864683 
248.00072266393437 0.05555555555555554 0.05555555555555554 0.03242612556864683 0.03242612556864683 0.03242612556864683 0.03242612556864683 0.03242612556864683 0.03242612556864683 
249.01040939540007 0.05555555555555554 0.05555555555555554 0.03242612556864683 0.03242612556864683 0.03242612556864683 0.03242612556864683 0.03242612556864683 0.03242612556864683 
250.00356528138815 0.05555555555555554 0.05555555555555554 0.03242612556864683 0.03242612556864683 0.03242612556864683 0.03242612556864683 0.03242612556864683 0.03242612556864683 
251.01040939540007 0.05555555555555554 0.05555555555555554 0.03242612556864683 0.03242612556864683 0.03242612556864683 0.03242612556864683 0.03242612556864683 0.03242612556864683 
252.00356528138815 0.05555555555555554 0.05555555555555554 0.032321721349693626 0.032321721349693626 0.032321721349693626 0.032321721349693626 0.032321721349693626 0.032321721349693626 
253.00106207044854 0.05555555555555554 0.05555555555555554 0.032321721349693626 0.032321721349693626 0.032321721349693626 0.032321721349693626 0.032321721349693626 0.032321721349693626 
254.00356528138815 0.05555555555555554 0.05555555555555554 0.033226148831350985 0.033226148831350985 0.033226148831350985 0.033226148831350985 0.033226148831350985 0.033226148831350985 
255.01040939540007 0.05555555555555554 0.05555555555555554 0.033226148831350985 0.033226148831350985 0.033226148831350985 0.033226148831350985 0.033226148831350985 0.033226148831350985 
256.00356528138815 0.05555555555555554 0.05555555555555554 0.033226148831350985 0.033226148831350985 0.033226148831350985 0.033226148831350985 0.033226148831350985 0.033226148831350985 
257.0104093954001 0.05555555555555554 0.05555555555555554 0.033226148831350985 0.033226148831350985 0.033226148831350985 0.033226148831350985 0.033226148831350985 0.033226148831350985 
258.00072266393437 0.05555555555555554 0.05555555555555554 0.033226148831350985 0.033226148831350985 0.033226148831350985 0.033226148831350985 0.033226148831350985 0.033226148831350985 
259.0104093954001 0.05555555555555554 0.05555555555555554 0.033226148831350985 0.033226148831350985 0.033226148831350985 0.033226148831350985 0.033226148831350985 0.033226148831350985 
260.00356528138815 0.03703703703703704 0.03703703703703704 0.014707630312832468 0.014707630312832468 0.014707630312832468 0.014707630312832468 0.014707630312832468 0.014707630312832468 
261.0104093954001 0.03703703703703704 0.03703703703703704 0.014707630312832468 0.014707630312832468 0.014707630312832468 0.014707630312832468 0.014707630312832468 0.014707630312832468 
262.00356528138815 0.03703703703703704 0.03703703703703704 0.014631034337589381 0.014631034337589381 0.014631034337589381 0.014631034337589381 0.014631034337589381 0.014631034337589381 
263.00106207044854 0.03703703703703704 0.03703703703703704 0.014631034337589381 0.014631034337589381 0.014631034337589381 0.014631034337589381 0.014631034337589381 0.014631034337589381 
264.00356528138815 0.03703703703703704 0.03703703703703704 0.015756961053682787 0.015756961053682787 0.015756961053682787 0.015756961053682787 0.015756961053682787 0.015756961053682787 
265.0104093954001 0.03703703703703704 0.03703703703703704 0.015756961053682787 0.015756961053682787 0.015756961053682787 0.015756961053682787 0.015756961053682787 0.015756961053682787 
266.00356528138815 0.03703703703703704 0.03703703703703704 0.015756961053682787 0.015756961053682787 0.015756961053682787 0.015756961053682787 0.015756961053682787 0.015756961053682787 
267.0104093954001 0.03703703703703704 0.03703703703703704 0.015756961053682787 0.015756961053682787 0.015756961053682787 0.015756961053682787 0.015756961053682787 0.015756961053682787 
268.00072266393437 0.03703703703703704 0.03703703703703704 0.015756961053682787 0.015756961053682787 0.015756961053682787 0.015756961053682787 0.015756961053682787 0.015756961053682787 
269.0104093954001 0.03703703703703704 0.03703703703703704 0.015756961053682787 0.015756961053682787 0.015756961053682787 0.015756961053682787 0.015756961053682787 0.015756961053682787 
270.00356528138815 0.03703703703703704 0.03703703703703704 0.015756961053682787 0.015756961053682787 0.015756961053682787 0.015756961053682787 0.015756961053682787 0.015756961053682787 
271.0104093954001 0.03703703703703704 0.03703703703703704 0.015756961053682787 0.015756961053682787 0.015756961053682787 0.015756961053682787 0.015756961053682787 0.015756961053682787 
272.00356528138815 0.03703703703703704 0.03703703703703704 0.01570649796936796 0.01570649796936796 0.01570649796936796 0.01570649796936796 0.01570649796936796 0.01570649796936796 
273.00106207044854 0.03703703703703704 0.03703703703703704 0.01570649796936796 0.01570649796936796 0.01570649796936796 0.01570649796936796 0.01570649796936796 0.01570649796936796 
274.00356528138815 0.01851851851851853 0.01851851851851853 0.009905179364892677 0.009905179364892677 0.009905179364892677 0.009905179364892677 0.018571962437798534 0.018571962437798534 
275.0104093954001 0.01851851851851853 0.01851851851851853 0.009905179364892677 0.009905179364892677 0.009905179364892677 0.009905179364892677 0.018571962437798534 0.018571962437798534 
276.00356528138815 0.01851851851851853 0.01851851851851853 0.009905179364892677 0.009905179364892677 0.009905179364892677 0.009905179364892677 0.018571962437798534 0.018571962437798534 
277.0104093954001 0.01851851851851853 0.01851851851851853 0.009905179364892677 0.009905179364892677 0.009905179364892677 0.009905179364892677 0.018571962437798534 0.018571962437798534 
278.00072266393437 0.01851851851851853 0.01851851851851853 0.009905179364892677 0.009905179364892677 0.009905179364892677 0.009905179364892677 0.018571962437798534 0.018571962437798534 
279.0104093954001 0.01851851851851853 0.01851851851851853 0.009905179364892677 0.009905179364892677 0.009905179364892677 0.009905179364892677 0.018571962437798534 0.018571962437798534 
280.00356528138815 0.01851851851851853 0.01851851851851853 0.009905179364892677 0.009905179364892677 0.009905179364892677 0.009905179364892677 0.018571962437798534 0.018571962437798534 
281.0104093954001 0.01851851851851853 0.01851851851851853 0.009905179364892677 0.009905179364892677 0.009905179364892677 0.009905179364892677 0.018571962437798534 0.018571962437798534 
282.00356528138815 0.01851851851851853 0.01851851851851853 0.01026056325047087 0.01026056325047087 0.01026056325047087 0.01026056325047087 0.032088256202002334 0.032088256202002334 
283.00106207044854 0.01851851851851853 0.01851851851851853 0.01026056325047087 0.01026056325047087 0.01026056325047087 0.01026056325047087 0.032088256202002334 0.032088256202002334 
284.00356528138815 0.01851851851851853 0.01851851851851853 0.010359083937680109 0.010359083937680109 0.010359083937680109 0.010359083937680109 0.010359083937680109 0.010359083937680109 
285.0104093954001 0.01851851851851853 0.01851851851851853 0.010359083937680109 0.010359083937680109 0.010359083937680109 0.010359083937680109 0.010359083937680109 0.010359083937680109 
286.00356528138815 0.01851851851851853 0.01851851851851853 0.010359083937680109 0.010359083937680109 0.010359083937680109 0.010359083937680109 0.010359083937680109 0.010359083937680109 
287.0104093954001 0.01851851851851853 0.01851851851851853 0.010359083937680109 0.010359083937680109 0.010359083937680109 0.010359083937680109 0.010359083937680109 0.010359083937680109 
288.00072266393437 0.01851851851851853 0.01851851851851853 0.010359083937680109 0.010359083937680109 0.010359083937680109 0.010359083937680109 0.010359083937680109 0.010359083937680109 
289.0104093954001 0.01851851851851853 0.01851851851851853 0.010359083937680109 0.010359083937680109 0.010359083937680109 0.010359083937680109 0.010359083937680109 0.010359083937680109 
290.00356528138815 0.01851851851851853 0.01851851851851853 0.01851851851851853 0.01851851851851853 0.010359083937680109 0.010359083937680109 0.010359083937680109 0.010359083937680109 
291.0104093954001 0.01851851851851853 0.01851851851851853 0.01851851851851853 0.01851851851851853 0.010359083937680109 0.010359083937680109 0.010359083937680109 0.010359083937680109 
292.00356528138815 0.01851851851851853 0.01851851851851853 0.010751124247558391 0.010751124247558391 0.010751124247558391 0.010751124247558391 0.010751124247558391 0.010751124247558391 
293.00106207044854 0.01851851851851853 0.01851851851851853 0.010751124247558391 0.010751124247558391 0.010751124247558391 0.010751124247558391 0.010751124247558391 0.010751124247558391 
294.00356528138815 0.01851851851851853 0.01851851851851853 0.010780619422639522 0.010780619422639522 0.010780619422639522 0.010780619422639522 0.010780619422639522 0.010780619422639522 
295.0104093954001 0.01851851851851853 0.01851851851851853 0.010780619422639522 0.010780619422639522 0.010780619422639522 0.010780619422639522 0.010780619422639522 0.010780619422639522 
296.00356528138815 0.01851851851851853 0.01851851851851853 0.01851851851851853 0.01851851851851853 0.010780619422639522 0.010780619422639522 0.010780619422639522 0.010780619422639522 
297.0104093954001 0.01851851851851853 0.01851851851851853 0.01851851851851853 0.01851851851851853 0.010780619422639522 0.010780619422639522 0.010780619422639522 0.010780619422639522 
298.00072266393437 0.01851851851851853 0.01851851851851853 0.010780619422639522 0.010780619422639522 0.010780619422639522 0.010780619422639522 0.010780619422639522 0.010780619422639522 
299.0104093954001 0.01851851851851853 0.01851851851851853 0.010780619422639522 0.010780619422639522 0.010780619422639522 0.010780619422639522 0.010780619422639522 0.010780619422639522 
300.00356528138815 0.01851851851851853 0.01851851851851853 0.010780619422639522 0.010780619422639522 0.010780619422639522 0.010780619422639522 0.010780619422639522 0.010780619422639522 
#####################################################################
# End of data export. Simulation finished at: 2017-02-14T18:19+0000 #
#####################################################################
