#####################################################################
# Alchemist log file - simulation started at: 2017-02-14T17:29+0000 #
#####################################################################
# seed = 31.0
#
# The columns have the following meaning: 
# time go-co-to[Mean] go-co-tsync[Mean] go-cmp-to[Mean] go-cmp-tsync[Mean] flex-co-to[Mean] flex-co-tsync[Mean] flex-cmp-to[Mean] flex-cmp-tsync[Mean] 
0.0 NaN NaN NaN NaN NaN NaN NaN NaN 
1.0001179127808975 NaN NaN NaN NaN NaN NaN NaN NaN 
2.0194048141418586 NaN NaN NaN NaN NaN NaN NaN NaN 
3.0001179127808975 NaN NaN NaN NaN NaN NaN NaN NaN 
4.00802377947276 NaN NaN NaN NaN NaN NaN NaN NaN 
5.0001179127808975 NaN NaN NaN NaN NaN NaN NaN NaN 
6.007397683686504 NaN NaN NaN NaN NaN NaN NaN NaN 
7.0001179127808975 NaN NaN NaN NaN NaN NaN NaN NaN 
8.019404814141858 NaN NaN NaN NaN NaN NaN NaN NaN 
9.000117912780897 NaN NaN NaN NaN NaN NaN NaN NaN 
10.013048682164849 NaN NaN NaN NaN NaN NaN NaN NaN 
11.000117912780897 NaN NaN NaN NaN NaN NaN NaN NaN 
12.019404814141858 NaN NaN NaN NaN NaN NaN NaN NaN 
13.000117912780897 NaN NaN NaN NaN NaN NaN NaN NaN 
14.00802377947276 NaN NaN NaN NaN NaN NaN NaN NaN 
15.000117912780897 NaN NaN NaN NaN NaN NaN NaN NaN 
16.007397683686506 NaN NaN NaN NaN NaN NaN NaN NaN 
17.000117912780897 NaN NaN NaN NaN NaN NaN NaN NaN 
18.019404814141858 NaN NaN NaN NaN NaN NaN NaN NaN 
19.000117912780897 NaN NaN NaN NaN NaN NaN NaN NaN 
20.01304868216485 NaN NaN NaN NaN NaN NaN NaN NaN 
21.000117912780897 1.0 1.0 1.0 1.0 1.0 1.0 1.0 1.0 
22.019404814141858 1.0 1.0 1.0 1.0 1.0 1.0 1.0 1.0 
23.000117912780897 0.9818181818181818 0.9818181818181818 0.9818181818181818 0.9818181818181818 0.9818181818181818 0.9818181818181818 0.9818181818181818 0.9818181818181818 
24.008023779472758 0.9818181818181818 0.9818181818181818 0.9818181818181818 0.9818181818181818 0.9818181818181818 0.9818181818181818 0.9818181818181818 0.9818181818181818 
25.000117912780897 0.9818181818181818 0.9818181818181818 0.9818181818181818 0.9818181818181818 0.9818181818181818 0.9818181818181818 0.9818181818181818 0.9818181818181818 
26.007397683686506 0.9818181818181818 0.9818181818181818 0.9818181818181818 0.9818181818181818 0.9818181818181818 0.9818181818181818 0.9818181818181818 0.9818181818181818 
27.000117912780897 0.9818181818181818 0.9818181818181818 0.9818181818181818 0.9818181818181818 0.9818181818181818 0.9818181818181818 0.9818181818181818 0.9818181818181818 
28.019404814141858 0.9818181818181818 0.9818181818181818 0.9818181818181818 0.9818181818181818 0.9818181818181818 0.9818181818181818 0.9818181818181818 0.9818181818181818 
29.000117912780897 0.9818181818181818 0.9818181818181818 0.9818181818181818 0.9818181818181818 0.9818181818181818 0.9818181818181818 0.9818181818181818 0.9818181818181818 
30.01304868216485 0.9818181818181818 0.9818181818181818 0.9818181818181818 0.9818181818181818 0.9818181818181818 0.9818181818181818 0.9818181818181818 0.9818181818181818 
31.000117912780897 0.9636363636363636 0.9636363636363636 0.9636363636363636 0.9636363636363636 0.9636363636363636 0.9636363636363636 0.9636363636363636 0.9636363636363636 
32.01940481414186 0.9636363636363636 0.9636363636363636 0.9636363636363636 0.9636363636363636 0.9636363636363636 0.9636363636363636 0.9636363636363636 0.9636363636363636 
33.000117912780894 0.9454545454545454 0.9454545454545454 0.9454545454545454 0.9454545454545454 0.9454545454545454 0.9454545454545454 0.9454545454545454 0.9454545454545454 
34.00802377947276 0.9454545454545454 0.9454545454545454 0.9454545454545454 0.9454545454545454 0.9454545454545454 0.9454545454545454 0.9454545454545454 0.9454545454545454 
35.000117912780894 0.9454545454545454 0.9454545454545454 0.9454545454545454 0.9454545454545454 0.9454545454545454 0.9454545454545454 0.9454545454545454 0.9454545454545454 
36.007397683686506 0.9454545454545454 0.9454545454545454 0.9454545454545454 0.9454545454545454 0.9454545454545454 0.9454545454545454 0.9454545454545454 0.9454545454545454 
37.000117912780894 0.9105611694268355 0.9105611694268355 0.9272727272727272 0.9272727272727272 0.9105611694268355 0.9105611694268355 0.9272727272727272 0.9272727272727272 
38.01940481414186 0.8103738474383049 0.8103738474383049 0.9272727272727272 0.9272727272727272 0.8151727945321919 0.8151727945321919 0.9272727272727272 0.9272727272727272 
39.000117912780894 0.7707888998882321 0.7707888998882321 0.9272727272727272 0.9272727272727272 0.7675214541550271 0.7675214541550271 0.9272727272727272 0.9272727272727272 
40.01304868216485 0.8594973472963173 0.8594973472963173 0.9272727272727272 0.9272727272727272 0.7660511429759522 0.7660511429759522 0.9272727272727272 0.9272727272727272 
41.000117912780894 0.8442323147509441 0.8442323147509441 0.9272727272727272 0.9272727272727272 0.7132939333597437 0.7132939333597437 0.9272727272727272 0.9272727272727272 
42.01940481414186 0.6951313628994559 0.6951313628994559 0.9272727272727272 0.9272727272727272 0.6573923229798763 0.6573923229798763 0.9272727272727272 0.9272727272727272 
43.000117912780894 0.6923243265998738 0.6923243265998738 0.9272727272727272 0.9272727272727272 0.6295919903635764 0.6295919903635764 0.9272727272727272 0.9272727272727272 
44.00802377947276 0.624871867870633 0.624871867870633 0.9272727272727272 0.9272727272727272 0.47073287909317274 0.47073287909317274 0.9272727272727272 0.9272727272727272 
45.000117912780894 0.5210366731502225 0.5210366731502225 0.9090909090909091 0.9090909090909091 0.3880057387327478 0.3880057387327478 0.9090909090909091 0.9090909090909091 
46.007397683686506 0.5600764519527871 0.5600764519527871 0.8006177037403267 0.8006177037403267 0.36675531681369816 0.36675531681369816 0.9090909090909091 0.9090909090909091 
47.000117912780894 0.5785275073639444 0.5785275073639444 0.7441866041909276 0.7441866041909276 0.3308499749221763 0.3308499749221763 0.9090909090909091 0.9090909090909091 
48.01940481414186 0.4270904405371295 0.4270904405371295 0.7470716205197626 0.7470716205197626 0.3031168674693287 0.3031168674693287 0.809049123533998 0.809049123533998 
49.000117912780894 0.3918095458177082 0.3918095458177082 0.688636687627361 0.688636687627361 0.31078659023327293 0.31078659023327293 0.7639343722399247 0.7639343722399247 
50.01304868216485 0.4770393375111326 0.4770393375111326 0.589290397311674 0.589290397311674 0.2700178588037981 0.2700178588037981 0.768264205992896 0.768264205992896 
51.000117912780894 0.4379833863633788 0.4379833863633788 0.5756560408997294 0.5756560408997294 0.2400227667141726 0.2400227667141726 0.7043127638783657 0.7043127638783657 
52.01940481414186 0.3355466096037109 0.3355466096037109 0.47278145034885116 0.47278145034885116 0.24551564701814224 0.24551564701814224 0.5799531026442498 0.5799531026442498 
53.000117912780894 0.3550155315374631 0.3550155315374631 0.4353641449333423 0.4353641449333423 0.26041771979140454 0.26041771979140454 0.5783518531904986 0.5783518531904986 
54.00802377947276 0.3624367213326825 0.3624367213326825 0.4550204397704083 0.4550204397704083 0.26673730072438784 0.26673730072438784 0.4989218039358258 0.4989218039358258 
55.000117912780894 0.32062126555537007 0.32062126555537007 0.4283735927884088 0.4283735927884088 0.2592421534635196 0.2592421534635196 0.4536419928741756 0.4536419928741756 
56.007397683686506 0.37790503023284727 0.37790503023284727 0.3836944495724453 0.3836944495724453 0.3022555212847084 0.3022555212847084 0.44020711715615257 0.44020711715615257 
57.000117912780894 0.4439272189983589 0.4439272189983589 0.3491317529078514 0.3491317529078514 0.34846455762141915 0.34846455762141915 0.4244408578500434 0.4244408578500434 
58.01940481414186 0.43652431374866685 0.43652431374866685 0.31993525632373737 0.31993525632373737 0.3733505487436714 0.3733505487436714 0.3795319211132557 0.3795319211132557 
59.000117912780894 0.5158290694796028 0.5158290694796028 0.3336432213980751 0.3336432213980751 0.44555650134799546 0.44555650134799546 0.3429007642029495 0.3429007642029495 
60.01304868216485 0.5693259145105075 0.5693259145105075 0.29537631142245724 0.29537631142245724 0.46383714382152896 0.46383714382152896 0.31931611900201085 0.31931611900201085 
61.000117912780894 0.54843627205933 0.54843627205933 0.26424374787577104 0.26424374787577104 0.4815260582060205 0.4815260582060205 0.30107238586384116 0.30107238586384116 
62.01940481414186 0.5555832525583031 0.5555832525583031 0.283747406144221 0.283747406144221 0.4820844708212177 0.4820844708212177 0.3177508550773233 0.3177508550773233 
63.000117912780894 0.6052394536429266 0.6052394536429266 0.308148676018971 0.308148676018971 0.48202072266816465 0.48202072266816465 0.30665820445559216 0.30665820445559216 
64.00802377947275 0.5911027227287053 0.5911027227287053 0.2992594182979679 0.2992594182979679 0.5045080885978329 0.5045080885978329 0.29502320777743213 0.29502320777743213 
65.0001179127809 0.590466769967343 0.590466769967343 0.2873838342429025 0.2873838342429025 0.508531524826764 0.508531524826764 0.3083492350977522 0.3083492350977522 
66.0073976836865 0.5887557271092143 0.5887557271092143 0.2750297739222325 0.2750297739222325 0.43263808536035175 0.43263808536035175 0.2774955162642691 0.2774955162642691 
67.0001179127809 0.5498582726911874 0.5498582726911874 0.2895481065411678 0.2895481065411678 0.39940527211660515 0.39940527211660515 0.2920129022543127 0.2920129022543127 
68.01940481414186 0.5238013137062263 0.5238013137062263 0.26582576994494606 0.26582576994494606 0.38952250629111457 0.38952250629111457 0.30243337587228625 0.30243337587228625 
69.0001179127809 0.454173321149035 0.454173321149035 0.25931462360016877 0.25931462360016877 0.3456808846355131 0.3456808846355131 0.3321496773642515 0.3321496773642515 
70.01304868216485 0.48073488956810606 0.48073488956810606 0.265301843186638 0.265301843186638 0.33207920977056604 0.33207920977056604 0.3367925402291661 0.3367925402291661 
71.0001179127809 0.46217634899455856 0.46217634899455856 0.23591568567333424 0.23591568567333424 0.2910137876959632 0.2910137876959632 0.322251716503821 0.322251716503821 
72.01940481414186 0.38406431352602266 0.38406431352602266 0.24167897722699164 0.24167897722699164 0.2652540812823432 0.2652540812823432 0.3068906088554438 0.3068906088554438 
73.0001179127809 0.373063805053787 0.373063805053787 0.253506764278485 0.253506764278485 0.24531658000561735 0.24531658000561735 0.31917689591765486 0.31917689591765486 
74.00802377947275 0.39449138447384574 0.39449138447384574 0.2596841019993199 0.2596841019993199 0.24030604267906336 0.24030604267906336 0.30731820459988896 0.30731820459988896 
75.0001179127809 0.3686783131545511 0.3686783131545511 0.25934460511602564 0.25934460511602564 0.2571509672220267 0.2571509672220267 0.30404870739644363 0.30404870739644363 
76.0073976836865 0.40021493583353507 0.40021493583353507 0.2822762924796065 0.2822762924796065 0.27498935304401 0.27498935304401 0.3524848730868085 0.3524848730868085 
77.0001179127809 0.42789532277001613 0.42789532277001613 0.2822875161613517 0.2822875161613517 0.2752121695874316 0.2752121695874316 0.32303293831343066 0.32303293831343066 
78.01940481414186 0.3324844639944088 0.3324844639944088 0.24565736105501246 0.24565736105501246 0.25332079986635775 0.25332079986635775 0.3115993173883758 0.3115993173883758 
79.0001179127809 0.27702731167380745 0.27702731167380745 0.22440403354984645 0.22440403354984645 0.24797797171966915 0.24797797171966915 0.29392883925107754 0.29392883925107754 
80.01304868216485 0.3395350275402384 0.3395350275402384 0.2952531418385954 0.2952531418385954 0.2540108292652389 0.2540108292652389 0.29938338330985265 0.29938338330985265 
81.0001179127809 0.3917260861648901 0.3917260861648901 0.3510949350926221 0.3510949350926221 0.24303268321690663 0.24303268321690663 0.29036604563724694 0.29036604563724694 
82.01940481414186 0.430911762843961 0.430911762843961 0.3456754028098778 0.3456754028098778 0.27041902399529005 0.27041902399529005 0.2954547084875724 0.2954547084875724 
83.0001179127809 0.4534061616142642 0.4534061616142642 0.3269430182697446 0.3269430182697446 0.29408965924771513 0.29408965924771513 0.30791003359246005 0.30791003359246005 
84.00802377947275 0.39276704874574725 0.39276704874574725 0.3103095376155911 0.3103095376155911 0.2639425052173315 0.2639425052173315 0.2854705468899101 0.2854705468899101 
85.0001179127809 0.3713556667273806 0.3713556667273806 0.32336938104825963 0.32336938104825963 0.2761189158146192 0.2761189158146192 0.28586504027701376 0.28586504027701376 
86.0073976836865 0.40103128284630163 0.40103128284630163 0.38183609472549657 0.38183609472549657 0.3383755634359289 0.3383755634359289 0.3234126794538633 0.3234126794538633 
87.0001179127809 0.385734043396664 0.385734043396664 0.3777970226689996 0.3777970226689996 0.30299740581971524 0.30299740581971524 0.3092290757334464 0.3092290757334464 
88.01940481414186 0.3579164958845488 0.3579164958845488 0.3732305765834352 0.3732305765834352 0.33573602362536215 0.33573602362536215 0.30566093984054904 0.30566093984054904 
89.0001179127809 0.3484715939755056 0.3484715939755056 0.4402711364209305 0.4402711364209305 0.3688417156528152 0.3688417156528152 0.30545003805131987 0.30545003805131987 
90.01304868216485 0.3860608754744421 0.3860608754744421 0.4755077539156077 0.4755077539156077 0.34228324551361033 0.34228324551361033 0.31255748145670825 0.31255748145670825 
91.0001179127809 0.40374575039096927 0.40374575039096927 0.45277404523891224 0.45277404523891224 0.3018376847658944 0.3018376847658944 0.3072833128374348 0.3072833128374348 
92.01940481414186 0.4553495603758666 0.4553495603758666 0.4677952994327227 0.4677952994327227 0.30620527420421334 0.30620527420421334 0.2821184414223492 0.2821184414223492 
93.0001179127809 0.4810581198757853 0.4810581198757853 0.4740638347477896 0.4740638347477896 0.30884778397208035 0.30884778397208035 0.2741034204306443 0.2741034204306443 
94.00802377947275 0.4920712196539746 0.4920712196539746 0.3737609828432381 0.3737609828432381 0.28056364928662725 0.28056364928662725 0.28993291878933836 0.28993291878933836 
95.0001179127809 0.5321699640812273 0.5321699640812273 0.3762153128897591 0.3762153128897591 0.29603229507497325 0.29603229507497325 0.2934085374803429 0.2934085374803429 
96.0073976836865 0.506297479337552 0.506297479337552 0.4639944207083198 0.4639944207083198 0.31565460863165345 0.31565460863165345 0.28146058824172226 0.28146058824172226 
97.0001179127809 0.5118148136646434 0.5118148136646434 0.4263344346798892 0.4263344346798892 0.326465916745522 0.326465916745522 0.2862547134561556 0.2862547134561556 
98.01940481414186 0.49634327486141344 0.49634327486141344 0.41526568603760283 0.41526568603760283 0.31477622660100707 0.31477622660100707 0.2620267640720048 0.2620267640720048 
99.0001179127809 0.49553664836406475 0.49553664836406475 0.45673979691592986 0.45673979691592986 0.3261452952509896 0.3261452952509896 0.26590170643339295 0.26590170643339295 
100.01304868216485 0.5733432825702123 0.5733432825702123 0.43734868231840424 0.43734868231840424 0.3430758253882486 0.3430758253882486 0.29464483557880206 0.29464483557880206 
101.0001179127809 0.5755342477170471 0.5755342477170471 0.445818795258244 0.445818795258244 0.3632234655313176 0.3632234655313176 0.31840200883294695 0.31840200883294695 
102.01940481414186 0.546984264164378 0.546984264164378 0.509783815920764 0.509783815920764 0.34620709170515657 0.34620709170515657 0.34206363686244556 0.34206363686244556 
103.0001179127809 0.5578712728832936 0.5578712728832936 0.5456747487173713 0.5456747487173713 0.38226635065640097 0.38226635065640097 0.3428308876321917 0.3428308876321917 
104.00802377947275 0.5756003228690028 0.5756003228690028 0.5144986300265809 0.5144986300265809 0.3452780388215539 0.3452780388215539 0.33323002560339554 0.33323002560339554 
105.0001179127809 0.5860244714935486 0.5860244714935486 0.5161001067557835 0.5161001067557835 0.3312527589074126 0.3312527589074126 0.320712588212787 0.320712588212787 
106.0073976836865 0.5732308386979648 0.5732308386979648 0.542164913125014 0.542164913125014 0.3675013956624237 0.3675013956624237 0.3026306132967039 0.3026306132967039 
107.0001179127809 0.5469833004021771 0.5469833004021771 0.5366952687996525 0.5366952687996525 0.3180366630209903 0.3180366630209903 0.27562417577740045 0.27562417577740045 
108.01940481414186 0.5273394512129258 0.5273394512129258 0.5046087809857658 0.5046087809857658 0.27615603582569476 0.27615603582569476 0.2676298799346491 0.2676298799346491 
109.0001179127809 0.5071269723878755 0.5071269723878755 0.4757010151020512 0.4757010151020512 0.30469022486511027 0.30469022486511027 0.2723670668522846 0.2723670668522846 
110.01304868216485 0.4388190859994419 0.4388190859994419 0.4601840479414038 0.4601840479414038 0.3164254450318587 0.3164254450318587 0.2820138738917011 0.2820138738917011 
111.0001179127809 0.4335568110388319 0.4335568110388319 0.4178307164534615 0.4178307164534615 0.24945338472115614 0.24945338472115614 0.27406309672674406 0.27406309672674406 
112.01940481414186 0.4940823183701993 0.4940823183701993 0.3482991960347471 0.3482991960347471 0.22607234365713366 0.22607234365713366 0.2589159148187095 0.2589159148187095 
113.0001179127809 0.46623795496010945 0.46623795496010945 0.36191665357946196 0.36191665357946196 0.23307739352761145 0.23307739352761145 0.28266362146608476 0.28266362146608476 
114.00802377947275 0.39377218122756164 0.39377218122756164 0.3700197240713928 0.3700197240713928 0.24380186491211142 0.24380186491211142 0.27768024409315406 0.27768024409315406 
115.0001179127809 0.4391065001416684 0.4391065001416684 0.32348615984125645 0.32348615984125645 0.24539495282982313 0.24539495282982313 0.2527432196485035 0.2527432196485035 
116.0073976836865 0.47121285232251553 0.47121285232251553 0.328138055829385 0.328138055829385 0.2536846151153393 0.2536846151153393 0.24526058346542465 0.24526058346542465 
117.0001179127809 0.4475407274211214 0.4475407274211214 0.3105891078059411 0.3105891078059411 0.2709596349150534 0.2709596349150534 0.2850904327979353 0.2850904327979353 
118.01940481414186 0.4556958095026631 0.4556958095026631 0.29808621194724366 0.29808621194724366 0.2580980046284298 0.2580980046284298 0.28675170930616395 0.28675170930616395 
119.0001179127809 0.5123616539049672 0.5123616539049672 0.2842545340865304 0.2842545340865304 0.25811733552286487 0.25811733552286487 0.27409078984805696 0.27409078984805696 
120.01304868216485 0.4867799015318953 0.4867799015318953 0.28072607965837126 0.28072607965837126 0.2523074530476385 0.2523074530476385 0.271169965672785 0.271169965672785 
121.0001179127809 0.42495304488097163 0.42495304488097163 0.2803182329209212 0.2803182329209212 0.2926633285026223 0.2926633285026223 0.25717492618918714 0.25717492618918714 
122.01940481414186 0.4481057728822944 0.4481057728822944 0.2686374335738345 0.2686374335738345 0.3038352438478938 0.3038352438478938 0.23558961286024227 0.23558961286024227 
123.0001179127809 0.4520074303598569 0.4520074303598569 0.28491316726908583 0.28491316726908583 0.29983194234411176 0.29983194234411176 0.22663869963712233 0.22663869963712233 
124.00802377947275 0.4624164573889999 0.4624164573889999 0.2562920269021506 0.2562920269021506 0.28209290718554436 0.28209290718554436 0.2240142257026712 0.2240142257026712 
125.0001179127809 0.484411009370568 0.484411009370568 0.24857855386752833 0.24857855386752833 0.2849271988121692 0.2849271988121692 0.22825540577370668 0.22825540577370668 
126.0073976836865 0.4599675338704143 0.4599675338704143 0.2575979795333344 0.2575979795333344 0.29436458091751844 0.29436458091751844 0.2307412352079981 0.2307412352079981 
127.0001179127809 0.4324694912550753 0.4324694912550753 0.2562658288354732 0.2562658288354732 0.29550545870809514 0.29550545870809514 0.23781822896161833 0.23781822896161833 
128.01940481414186 0.455691746916752 0.455691746916752 0.26236091955492213 0.26236091955492213 0.3462563911130225 0.3462563911130225 0.22800481446132334 0.22800481446132334 
129.0001179127809 0.4272056756536158 0.4272056756536158 0.24251936354974724 0.24251936354974724 0.33391344824718167 0.33391344824718167 0.19261725017603604 0.19261725017603604 
130.01304868216485 0.4553038437551084 0.4553038437551084 0.2255039510239813 0.2255039510239813 0.38032790736547106 0.38032790736547106 0.2121158219792254 0.2121158219792254 
131.0001179127809 0.4465095179734095 0.4465095179734095 0.1889989980268448 0.1889989980268448 0.402419744112211 0.402419744112211 0.2135606621482344 0.2135606621482344 
132.01940481414186 0.40278343975988723 0.40278343975988723 0.19493830089146452 0.19493830089146452 0.4330772533259959 0.4330772533259959 0.23129943892812518 0.23129943892812518 
133.0001179127809 0.40278343975988723 0.40278343975988723 0.20135448997799849 0.20135448997799849 0.41728625651073664 0.41728625651073664 0.22452550786408212 0.22452550786408212 
134.00802377947275 0.40908908675511335 0.40908908675511335 0.18955261913668275 0.18955261913668275 0.4277139777808935 0.4277139777808935 0.2213358161824665 0.2213358161824665 
135.0001179127809 0.3987927501377534 0.3987927501377534 0.1896299556934004 0.1896299556934004 0.37279783089443674 0.37279783089443674 0.2387366406942887 0.2387366406942887 
136.00739768368652 0.3980375551133876 0.3980375551133876 0.20002963673327678 0.20002963673327678 0.3345248853083894 0.3345248853083894 0.2664616009271213 0.2664616009271213 
137.0001179127809 0.3901520735489294 0.3901520735489294 0.18760159931931975 0.18760159931931975 0.3586033331669577 0.3586033331669577 0.27072933641433145 0.27072933641433145 
138.01940481414186 0.3367287748228437 0.3367287748228437 0.16731708102712317 0.16731708102712317 0.26743052864064326 0.26743052864064326 0.27329514739767563 0.27329514739767563 
139.0001179127809 0.3367287748228437 0.3367287748228437 0.17580733992646624 0.17580733992646624 0.2334292727442812 0.2334292727442812 0.2770489204791625 0.2770489204791625 
140.01304868216485 0.3694222048302928 0.3694222048302928 0.17398621579818493 0.17398621579818493 0.20020913651554417 0.20020913651554417 0.25703593885291015 0.25703593885291015 
141.0001179127809 0.36686751284308655 0.36686751284308655 0.16527129965990112 0.16527129965990112 0.20033161591863655 0.20033161591863655 0.2479364737251663 0.2479364737251663 
142.01940481414186 0.36780592447785426 0.36780592447785426 0.1567322749643559 0.1567322749643559 0.2142253521055891 0.2142253521055891 0.2296761356721258 0.2296761356721258 
143.0001179127809 0.3703606164650604 0.3703606164650604 0.16563255719245187 0.16563255719245187 0.22916875504366685 0.22916875504366685 0.21300581529108753 0.21300581529108753 
144.00802377947275 0.3353537841357307 0.3353537841357307 0.15142812447390502 0.15142812447390502 0.1762428190697327 0.1762428190697327 0.18594661909111163 0.18594661909111163 
145.0001179127809 0.3353537841357307 0.3353537841357307 0.14330638973349658 0.14330638973349658 0.17573901124866767 0.17573901124866767 0.18636278223108482 0.18636278223108482 
146.00739768368652 0.3517462738452915 0.3517462738452915 0.14539221852143994 0.14539221852143994 0.21644836094583278 0.21644836094583278 0.17330878870069172 0.17330878870069172 
147.0001179127809 0.3456636767961891 0.3456636767961891 0.14688066482569181 0.14688066482569181 0.21007326486380168 0.21007326486380168 0.17277499950227176 0.17277499950227176 
148.01940481414186 0.34609620123413987 0.34609620123413987 0.1374117392372368 0.1374117392372368 0.22116145893407252 0.22116145893407252 0.17172743546572844 0.17172743546572844 
149.0001179127809 0.3339969801014241 0.3339969801014241 0.11972837993327376 0.11972837993327376 0.2316511003132876 0.2316511003132876 0.1612110127044108 0.1612110127044108 
150.01304868216485 0.2957061348869505 0.2957061348869505 0.13974841794505002 0.13974841794505002 0.2448163594164797 0.2448163594164797 0.15462594911620764 0.15462594911620764 
151.0001179127809 0.2957061348869505 0.2957061348869505 0.14019512907902276 0.14019512907902276 0.21892680694213776 0.21892680694213776 0.11804963812735453 0.11804963812735453 
152.01940481414186 0.34921092595736003 0.34921092595736003 0.16969275853092702 0.16969275853092702 0.190458487021155 0.190458487021155 0.10148746745640785 0.10148746745640785 
153.0001179127809 0.34312832890825756 0.34312832890825756 0.1957913565515803 0.1957913565515803 0.18165098229337925 0.18165098229337925 0.10149491473115407 0.10149491473115407 
154.00802377947275 0.3330673329140419 0.3330673329140419 0.19599869278733945 0.19599869278733945 0.15866050488979103 0.15866050488979103 0.10078182733186195 0.10078182733186195 
155.0001179127809 0.3391499299631443 0.3391499299631443 0.19577889531582346 0.19577889531582346 0.1284618384863586 0.1284618384863586 0.10059770260453675 0.10059770260453675 
156.00739768368652 0.3478270976101378 0.3478270976101378 0.2517279889842662 0.2517279889842662 0.1446933137469316 0.1446933137469316 0.10073247120587767 0.10073247120587767 
157.0001179127809 0.3478270976101378 0.3478270976101378 0.24316194316688894 0.24316194316688894 0.12436817766860404 0.12436817766860404 0.10044233874694734 0.10044233874694734 
158.01940481414186 0.3339014445902265 0.3339014445902265 0.24407059773604975 0.24407059773604975 0.1141325176563999 0.1141325176563999 0.1049062242887424 0.1049062242887424 
159.0001179127809 0.32728416920922837 0.32728416920922837 0.25424909535670925 0.25424909535670925 0.12444399971778902 0.12444399971778902 0.1049062242887424 0.1049062242887424 
160.01304868216485 0.34372878208589475 0.34372878208589475 0.23300308355514343 0.23300308355514343 0.09983228954907357 0.09983228954907357 0.12666886172885414 0.12666886172885414 
161.0001179127809 0.3503460574668929 0.3503460574668929 0.22209917634658147 0.22209917634658147 0.09004145113370686 0.09004145113370686 0.12586550794957313 0.12586550794957313 
162.01940481414186 0.3483893523160837 0.3483893523160837 0.2526171619713754 0.2526171619713754 0.12012954636379772 0.12012954636379772 0.13097758897308026 0.13097758897308026 
163.0001179127809 0.3483893523160837 0.3483893523160837 0.26443908822297946 0.26443908822297946 0.12213210554680554 0.12213210554680554 0.13096242904913588 0.13096242904913588 
164.00802377947275 0.3501571397498642 0.3501571397498642 0.257348936327606 0.257348936327606 0.13149464854527798 0.13149464854527798 0.1311395637085453 0.1311395637085453 
165.0001179127809 0.34353986436886597 0.34353986436886597 0.25746617305612984 0.25746617305612984 0.1316344033010171 0.1316344033010171 0.1366923157171093 0.1366923157171093 
166.00739768368652 0.35915910016771 0.35915910016771 0.2667447088332444 0.2667447088332444 0.1138875680877326 0.1138875680877326 0.14605514503525793 0.14605514503525793 
167.0001179127809 0.3657763755487081 0.3657763755487081 0.2708065618817205 0.2708065618817205 0.12322349942773424 0.12322349942773424 0.15011699808373397 0.15011699808373397 
168.01940481414186 0.3493690717168624 0.3493690717168624 0.27657972724367197 0.27657972724367197 0.11718090401007138 0.11718090401007138 0.13925810182045384 0.13925810182045384 
169.0001179127809 0.3493690717168624 0.3493690717168624 0.2765664226665826 0.2765664226665826 0.12756611532464374 0.12756611532464374 0.13947002003781325 0.13947002003781325 
170.01304868216485 0.36651725354957515 0.36651725354957515 0.2765664226665826 0.2765664226665826 0.14928833565671393 0.14928833565671393 0.13947002003781325 0.13947002003781325 
171.0001179127809 0.3586388370928265 0.3586388370928265 0.2662714564431677 0.2662714564431677 0.1311149529765504 0.1311149529765504 0.139162168122169 0.139162168122169 
172.01940481414186 0.3559609523480579 0.3559609523480579 0.25507081522247665 0.25507081522247665 0.14557536945831182 0.14557536945831182 0.13655385841429998 0.13655385841429998 
173.0001179127809 0.3638393688048066 0.3638393688048066 0.2650242831534169 0.2650242831534169 0.14592207683868821 0.14592207683868821 0.14366516726016088 0.14366516726016088 
174.00802377947275 0.31414263852104096 0.31414263852104096 0.2569317596788659 0.2569317596788659 0.14241625414044967 0.14241625414044967 0.15744753737102835 0.15744753737102835 
175.0001179127809 0.31414263852104096 0.31414263852104096 0.24710772029431927 0.24710772029431927 0.15053882524574053 0.15053882524574053 0.1572654433811511 0.1572654433811511 
176.00739768368652 0.3501726040865882 0.3501726040865882 0.24242241762920388 0.24242241762920388 0.15836395053954988 0.15836395053954988 0.15788401998343468 0.15788401998343468 
177.0001179127809 0.34173312914029824 0.34173312914029824 0.25361862120643475 0.25361862120643475 0.1579372722891384 0.1579372722891384 0.1591248356565424 0.1591248356565424 
178.01940481414186 0.30085443931306216 0.30085443931306216 0.20757367792533274 0.20757367792533274 0.17728382161733208 0.17728382161733208 0.17590559012127954 0.17590559012127954 
179.0001179127809 0.3092939142593521 0.3092939142593521 0.20756447160419905 0.20756447160419905 0.17418843419074875 0.17418843419074875 0.17590559012127954 0.17590559012127954 
180.01304868216485 0.2784326991546159 0.2784326991546159 0.20712814260922943 0.20712814260922943 0.15581339244823472 0.15581339244823472 0.1577237719394614 0.1577237719394614 
181.0001179127809 0.2784326991546159 0.2784326991546159 0.19729193466359088 0.19729193466359088 0.21188499859075488 0.21188499859075488 0.14788576774832193 0.14788576774832193 
182.01940481414186 0.27790141731495693 0.27790141731495693 0.17776932049480326 0.17776932049480326 0.22350033712032025 0.22350033712032025 0.163997962380349 0.163997962380349 
183.0001179127809 0.269461942368667 0.269461942368667 0.18843910771647943 0.18843910771647943 0.2067094933889892 0.2067094933889892 0.17459104945062653 0.17459104945062653 
184.00802377947275 0.28246961596280096 0.28246961596280096 0.19696590237669087 0.19696590237669087 0.1809914426328829 0.1809914426328829 0.18316626296896044 0.18316626296896044 
185.0001179127809 0.29090909090909084 0.29090909090909084 0.1970573372568189 0.1970573372568189 0.1747746466710659 0.1747746466710659 0.18319877319753064 0.18319877319753064 
186.00739768368652 0.27437857308194413 0.27437857308194413 0.19719623463305397 0.19719623463305397 0.17499043906483785 0.17499043906483785 0.18348583239901503 0.18348583239901503 
187.0001179127809 0.27437857308194413 0.27437857308194413 0.1828417532035844 0.1828417532035844 0.1510358477193981 0.1510358477193981 0.17976779575176005 0.17976779575176005 
188.01940481414186 0.2790969959551507 0.2790969959551507 0.17377162092091977 0.17377162092091977 0.11389952971099536 0.11389952971099536 0.16050129500599025 0.16050129500599025 
189.0001179127809 0.27073630494051953 0.27073630494051953 0.1844170886505198 0.1844170886505198 0.11389952971099536 0.11389952971099536 0.16050129500599025 0.16050129500599025 
190.01304868216485 0.28254839989445973 0.28254839989445973 0.18448712001668277 0.18448712001668277 0.10767620627824963 0.10767620627824963 0.16050129500599025 0.16050129500599025 
191.0001179127809 0.29090909090909084 0.29090909090909084 0.17406368487108295 0.17406368487108295 0.1056134621472811 0.1056134621472811 0.15809380325543618 0.15809380325543618 
192.01940481414186 0.25587181922469143 0.25587181922469143 0.16483782592485896 0.16483782592485896 0.08623129121058576 0.08623129121058576 0.1482510337731658 0.1482510337731658 
193.0001179127809 0.25587181922469143 0.25587181922469143 0.1728773494495637 0.1728773494495637 0.07756828154314763 0.07756828154314763 0.14820353226688063 0.14820353226688063 
194.00802377947275 0.24121186042038004 0.24121186042038004 0.15448268049496366 0.15448268049496366 0.10063695865784458 0.10063695865784458 0.1481370839196042 0.1481370839196042 
195.0001179127809 0.21466935122393066 0.21466935122393066 0.14490806891468982 0.14490806891468982 0.10189112109168676 0.10189112109168676 0.15775193736807763 0.15775193736807763 
196.00739768368652 0.2280029453490051 0.2280029453490051 0.14372937591157153 0.14372937591157153 0.10133472167585338 0.10133472167585338 0.15652574285867413 0.15652574285867413 
197.0001179127809 0.2363636363636364 0.2363636363636364 0.15075498190848655 0.15075498190848655 0.10383595096660851 0.10383595096660851 0.15550481186998014 0.15550481186998014 
198.01940481414186 0.19280712411664838 0.19280712411664838 0.1315573981005213 0.1315573981005213 0.1205585042573353 0.1205585042573353 0.11748033319184994 0.11748033319184994 
199.0001179127809 0.19280712411664838 0.19280712411664838 0.1315573981005213 0.1315573981005213 0.14181109406839318 0.14181109406839318 0.11748033319184994 0.11748033319184994 
200.01304868216485 0.20547264247373076 0.20547264247373076 0.1315454397243284 0.1315454397243284 0.14181109406839318 0.14181109406839318 0.11748033319184994 0.11748033319184994 
201.0001179127809 0.19111579087236616 0.19111579087236616 0.13124640915514468 0.13124640915514468 0.1205154536792962 0.1205154536792962 0.11702850194349665 0.11702850194349665 
202.01940481414186 0.20382496658045365 0.20382496658045365 0.13867474666908192 0.13867474666908192 0.12466810743617857 0.12466810743617857 0.11657298711639628 0.11657298711639628 
203.0001179127809 0.21818181818181812 0.21818181818181812 0.13867474666908192 0.13867474666908192 0.10578019491531782 0.10578019491531782 0.11653135365939751 0.11653135365939751 
204.00802377947275 0.1916975121310652 0.1916975121310652 0.13870089563343843 0.13870089563343843 0.08073202999795964 0.08073202999795964 0.09834953547757933 0.09834953547757933 
205.0001179127809 0.1916975121310652 0.1916975121310652 0.13831379163030158 0.13831379163030158 0.08586200978738819 0.08586200978738819 0.0854810913549226 0.0854810913549226 
206.00739768368652 0.2033589912706442 0.2033589912706442 0.12348078609697236 0.12348078609697236 0.07667148679700718 0.07667148679700718 0.08335579328869114 0.08335579328869114 
207.0001179127809 0.16897951389353197 0.16897951389353197 0.11492285410435343 0.11492285410435343 0.12236137657152768 0.12236137657152768 0.07479786129607222 0.07479786129607222 
208.01940481414186 0.16562052262288768 0.16562052262288768 0.11290149762923339 0.11290149762923339 0.13146114562158326 0.13146114562158326 0.08211095022549944 0.08211095022549944 
209.0001179127809 0.1818181818181818 0.1818181818181818 0.11336222589669114 0.11336222589669114 0.11329211918720969 0.11329211918720969 0.08211095022549944 0.08211095022549944 
210.01304868216485 0.157495091504888 0.157495091504888 0.11333348138445053 0.11333348138445053 0.12315271916718992 0.12315271916718992 0.08211095022549944 0.08211095022549944 
211.0001179127809 0.1393132733230698 0.1393132733230698 0.10408369268042163 0.10408369268042163 0.12848938083607198 0.12848938083607198 0.09106221551050245 0.09106221551050245 
212.01940481414186 0.13783750496170077 0.13783750496170077 0.0948582524069938 0.0948582524069938 0.11930548022351048 0.11930548022351048 0.10004734133231456 0.10004734133231456 
213.0001179127809 0.12163984576640666 0.12163984576640666 0.0948582524069938 0.0948582524069938 0.11098657651109439 0.11098657651109439 0.1000368640742918 0.1000368640742918 
214.00802377947275 0.12925688625925133 0.12925688625925133 0.0948582524069938 0.0948582524069938 0.11377512311967047 0.11377512311967047 0.1000368640742918 0.1000368640742918 
215.0001179127809 0.1272727272727273 0.1272727272727273 0.0766764342251756 0.0766764342251756 0.14189581238547888 0.14189581238547888 0.11195989414480605 0.11195989414480605 
216.00739768368652 0.11018327057153489 0.11018327057153489 0.07716978652799415 0.07716978652799415 0.1477230180545881 0.1477230180545881 0.11367276672356999 0.11367276672356999 
217.0001179127809 0.11018327057153489 0.11018327057153489 0.07763207871323723 0.07763207871323723 0.1477230180545881 0.1477230180545881 0.11413505890881302 0.11413505890881302 
218.01940481414186 0.11126491590225773 0.11126491590225773 0.07712345938728037 0.07712345938728037 0.16520989658618357 0.16520989658618357 0.11362643958285619 0.11362643958285619 
219.0001179127809 0.09485979619578895 0.09485979619578895 0.07712345938728037 0.07712345938728037 0.14880477687971477 0.14880477687971477 0.11362643958285619 0.11362643958285619 
220.01304868216485 0.11086760756625848 0.11086760756625848 0.07712201855707704 0.07712201855707704 0.14880477687971477 0.14880477687971477 0.11362643958285619 0.11362643958285619 
221.0001179127809 0.1272727272727273 0.1272727272727273 0.07712201855707704 0.07712201855707704 0.13062295869789664 0.13062295869789664 0.11362643958285619 0.11362643958285619 
222.01940481414186 0.0996518436856832 0.0996518436856832 0.06641727735925146 0.06641727735925146 0.12768652025980284 0.12768652025980284 0.10278554270173151 0.10278554270173151 
223.0001179127809 0.0996518436856832 0.0996518436856832 0.06641727735925146 0.06641727735925146 0.1354048047546499 0.1354048047546499 0.10278639850563624 0.10278639850563624 
224.00802377947275 0.10013815612027704 0.10013815612027704 0.06641727735925146 0.06641727735925146 0.10023671265320173 0.10023671265320173 0.10278639850563624 0.10278639850563624 
225.0001179127809 0.08373303641380826 0.08373303641380826 0.06641727735925146 0.06641727735925146 0.09251928396225946 0.09251928396225946 0.10278639850563624 0.10278639850563624 
226.00739768368652 0.09268578938444029 0.09268578938444029 0.06675379094324481 0.06675379094324481 0.07997952843323618 0.07997952843323618 0.1031237678935344 0.1031237678935344 
227.0001179127809 0.10909090909090907 0.10909090909090907 0.0672608830426675 0.0672608830426675 0.08620358857821347 0.08620358857821347 0.08544904181113892 0.08544904181113892 
228.01940481414186 0.08405835710784301 0.08405835710784301 0.07022954249813436 0.07022954249813436 0.06828754001771926 0.06828754001771926 0.05205406490296938 0.05205406490296938 
229.0001179127809 0.08405835710784301 0.08405835710784301 0.07022954249813436 0.07022954249813436 0.05010572183590104 0.05010572183590104 0.05205406490296938 0.05205406490296938 
230.01304868216485 0.09180475452653748 0.09180475452653748 0.07022954249813436 0.07022954249813436 0.04175662687982403 0.04175662687982403 0.05205406490296938 0.05205406490296938 
231.0001179127809 0.08162369496504604 0.08162369496504604 0.07022954249813436 0.07022954249813436 0.023574808698005864 0.023574808698005864 0.05205406490296938 0.05205406490296938 
232.01940481414186 0.09890984952941768 0.09890984952941768 0.06883129065847497 0.06883129065847497 0.022176556858346488 0.022176556858346488 0.05065581306331 0.05065581306331 
233.0001179127809 0.10909090909090907 0.10909090909090907 0.06883129065847497 0.06883129065847497 0.02224963158770423 0.02224963158770423 0.05072888779266776 0.05072888779266776 
234.00802377947275 0.08266010526818364 0.08266010526818364 0.06883129065847497 0.06883129065847497 0.02224963158770423 0.02224963158770423 0.05072888779266776 0.05072888779266776 
235.0001179127809 0.08266010526818364 0.08266010526818364 0.06883129065847497 0.06883129065847497 0.02224963158770423 0.02224963158770423 0.03254706961084956 0.03254706961084956 
236.00739768368652 0.09103105774267095 0.09103105774267095 0.06877763560700735 0.06877763560700735 0.030381598892861076 0.030381598892861076 0.032566489288739696 0.032566489288739696 
237.0001179127809 0.08236463332704118 0.08236463332704118 0.06876629565479798 0.06876629565479798 0.03189623403872272 0.03189623403872272 0.03255514933653033 0.03255514933653033 
238.01940481414186 0.1004244846752793 0.1004244846752793 0.06783970524532752 0.06783970524532752 0.02221939667228927 0.02221939667228927 0.031628558927059874 0.031628558927059874 
239.0001179127809 0.10909090909090907 0.10909090909090907 0.06783970524532752 0.06783970524532752 0.030885821087919065 0.030885821087919065 0.031628558927059874 0.031628558927059874 
240.01304868216485 0.07434719498233629 0.07434719498233629 0.06783970524532752 0.06783970524532752 0.023264265183235593 0.023264265183235593 0.031628558927059874 0.031628558927059874 
241.0001179127809 0.07434719498233629 0.07434719498233629 0.06783970524532752 0.06783970524532752 0.023264265183235593 0.023264265183235593 0.031628558927059874 0.031628558927059874 
242.01940481414186 0.09090971843434534 0.09090971843434534 0.06671956652523515 0.06671956652523515 0.03982678863524465 0.03982678863524465 0.03050842020696749 0.03050842020696749 
243.0001179127809 0.08224329401871555 0.08224329401871555 0.06671956652523515 0.06671956652523515 0.03137240208170576 0.03137240208170576 0.03072045806905839 0.03072045806905839 
244.00802377947275 0.1004244846752793 0.1004244846752793 0.06671956652523515 0.06671956652523515 0.0495535927382695 0.0495535927382695 0.03072045806905839 0.03072045806905839 
245.0001179127809 0.10909090909090907 0.10909090909090907 0.06671956652523515 0.06671956652523515 0.0495535927382695 0.0495535927382695 0.03072045806905839 0.03072045806905839 
246.00739768368652 0.09249199199492102 0.09249199199492102 0.06683133634623754 0.06683133634623754 0.04671526358272588 0.04671526358272588 0.03104426575215169 0.03104426575215169 
247.0001179127809 0.09249199199492102 0.09249199199492102 0.06684611750030581 0.06684611750030581 0.053962021891310025 0.053962021891310025 0.031059046906219936 0.031059046906219936 
248.01940481414186 0.0911578854733403 0.0911578854733403 0.06568510281430935 0.06568510281430935 0.041329863674929794 0.041329863674929794 0.029898032220223497 0.029898032220223497 
249.0001179127809 0.08160201082005568 0.08160201082005568 0.06568510281430935 0.06568510281430935 0.0331936551286908 0.0331936551286908 0.029898032220223497 0.029898032220223497 
250.01304868216485 0.09953503443762446 0.09953503443762446 0.06568510281430935 0.06568510281430935 0.019850424300763805 0.019850424300763805 0.029898032220223497 0.029898032220223497 
251.0001179127809 0.10909090909090907 0.10909090909090907 0.06568510281430935 0.06568510281430935 0.019850424300763805 0.019850424300763805 0.029898032220223497 0.029898032220223497 
252.01940481414186 0.0745154930635294 0.0745154930635294 0.05897442816287497 0.05897442816287497 0.03132156783114762 0.03132156783114762 0.041369175750607314 0.041369175750607314 
253.0001179127809 0.0745154930635294 0.0745154930635294 0.06401622062815202 0.06401622062815202 0.031300814601904405 0.031300814601904405 0.0413484225213641 0.0413484225213641 
254.00802377947275 0.0909090909090909 0.0909090909090909 0.06770054613776091 0.06770054613776091 0.031300814601904405 0.031300814601904405 0.0413484225213641 0.0413484225213641 
255.0001179127809 0.08135321625580627 0.08135321625580627 0.06770054613776091 0.06770054613776091 0.031300814601904405 0.031300814601904405 0.0413484225213641 0.0413484225213641 
256.0073976836865 0.08135321625580627 0.08135321625580627 0.06435900877086045 0.06435900877086045 0.047402760638514306 0.047402760638514306 0.04167045743482936 0.04167045743482936 
257.00011791278087 0.0909090909090909 0.0909090909090909 0.05957786179145244 0.05957786179145244 0.05652200270712964 0.05652200270712964 0.04193110292069834 0.04193110292069834 
258.01940481414186 0.07457371998558344 0.07457371998558344 0.06631415814570836 0.06631415814570836 0.06325829906138558 0.06325829906138558 0.04866739927495429 0.04866739927495429 
259.00011791278087 0.07457371998558344 0.07457371998558344 0.06631415814570836 0.06631415814570836 0.06325829906138558 0.06325829906138558 0.04866739927495429 0.04866739927495429 
260.0130486821648 0.0909090909090909 0.0909090909090909 0.06631415814570836 0.06631415814570836 0.06325829906138558 0.06325829906138558 0.04866739927495429 0.04866739927495429 
261.00011791278087 0.081220886612044 0.081220886612044 0.06631415814570836 0.06631415814570836 0.06325829906138558 0.06325829906138558 0.04866739927495429 0.04866739927495429 
262.01940481414186 0.081220886612044 0.081220886612044 0.06631415814570836 0.06631415814570836 0.06325829906138558 0.06325829906138558 0.04866739927495429 0.04866739927495429 
263.00011791278087 0.0909090909090909 0.0909090909090909 0.06631415814570836 0.06631415814570836 0.07191727203580228 0.07191727203580228 0.04877657855204446 0.04877657855204446 
264.00802377947275 0.07457371998558344 0.07457371998558344 0.06631415814570836 0.06631415814570836 0.057386519730678084 0.057386519730678084 0.04877657855204446 0.04877657855204446 
265.00011791278087 0.07457371998558344 0.07457371998558344 0.06631415814570836 0.06631415814570836 0.057386519730678084 0.057386519730678084 0.04877657855204446 0.04877657855204446 
266.0073976836865 0.0909090909090909 0.0909090909090909 0.06478311507332372 0.06478311507332372 0.07319189297348476 0.07319189297348476 0.04737997911732549 0.04737997911732549 
267.00011791278087 0.08350125743460372 0.08350125743460372 0.0640147166453649 0.0640147166453649 0.06689241564372203 0.06689241564372203 0.04661158068936665 0.04661158068936665 
268.01940481414186 0.06531943925278552 0.06531943925278552 0.05512940027612026 0.05512940027612026 0.05800709927447738 0.05800709927447738 0.05590808250194017 0.05590808250194017 
269.00011791278087 0.07272727272727271 0.07272727272727271 0.05512940027612026 0.05512940027612026 0.05800709927447738 0.05800709927447738 0.05590808250194017 0.05590808250194017 
270.0130486821648 0.05554916706985077 0.05554916706985077 0.05512940027612026 0.05512940027612026 0.040828993617055435 0.040828993617055435 0.05590808250194017 0.05590808250194017 
271.00011791278087 0.05554916706985077 0.05554916706985077 0.05512940027612026 0.05512940027612026 0.039736346185698844 0.039736346185698844 0.05590808250194017 0.05590808250194017 
272.01940481414186 0.07272727272727271 0.07272727272727271 0.05512940027612026 0.05512940027612026 0.039736346185698844 0.039736346185698844 0.037726264320122 0.037726264320122 
273.00011791278087 0.06531943925278552 0.06531943925278552 0.05512940027612026 0.05512940027612026 0.04831993817751307 0.04831993817751307 0.03788488406730697 0.03788488406730697 
274.00802377947275 0.06531943925278552 0.06531943925278552 0.05512940027612026 0.05512940027612026 0.04746745160787087 0.04746745160787087 0.03788488406730697 0.03788488406730697 
275.00011791278087 0.07272727272727271 0.07272727272727271 0.05512940027612026 0.05512940027612026 0.029820962105859893 0.029820962105859893 0.03788488406730697 0.03788488406730697 
276.0073976836865 0.05570860580917789 0.05570860580917789 0.05375323345029147 0.05375323345029147 0.05428856213009865 0.05428856213009865 0.039933922351194 0.039933922351194 
277.00011791278087 0.05570860580917789 0.05570860580917789 0.05227193173418613 0.05227193173418613 0.061966840719373806 0.061966840719373806 0.03845262063508866 0.03845262063508866 
278.01940481414186 0.07272727272727271 0.07272727272727271 0.05227193173418613 0.05227193173418613 0.022832453687366572 0.022832453687366572 0.02027080245327048 0.02027080245327048 
279.00011791278087 0.06497930482668232 0.06497930482668232 0.05227193173418613 0.05227193173418613 0.01367287338198607 0.01367287338198607 0.02027080245327048 0.02027080245327048 
280.0130486821648 0.06497930482668232 0.06497930482668232 0.05227193173418613 0.05227193173418613 0.010828500288985635 0.010828500288985635 0.02027080245327048 0.02027080245327048 
281.00011791278087 0.07272727272727271 0.07272727272727271 0.05227193173418613 0.05227193173418613 0.010828500288985635 0.010828500288985635 0.02027080245327048 0.02027080245327048 
282.01940481414186 0.05565578528485087 0.05565578528485087 0.05227193173418613 0.05227193173418613 0.010828500288985635 0.010828500288985635 0.02027080245327048 0.02027080245327048 
283.00011791278087 0.05565578528485087 0.05565578528485087 0.05227193173418613 0.05227193173418613 0.01096335876559916 0.01096335876559916 0.020405660929884013 0.020405660929884013 
284.00802377947275 0.07272727272727271 0.07272727272727271 0.05227193173418613 0.05227193173418613 0.013807731858599607 0.013807731858599607 0.020405660929884013 0.020405660929884013 
285.00011791278087 0.06497930482668232 0.06497930482668232 0.05227193173418613 0.05227193173418613 0.013807731858599607 0.013807731858599607 0.020405660929884013 0.020405660929884013 
286.0073976836865 0.06497930482668232 0.06497930482668232 0.053348874319330226 0.053348874319330226 0.020645539280214856 0.020645539280214856 0.020645539280214856 0.020645539280214856 
287.00011791278087 0.07272727272727271 0.07272727272727271 0.05215159284382503 0.05215159284382503 0.030627321902163968 0.030627321902163968 0.019448257804709643 0.019448257804709643 
288.01940481414186 0.05582588801479669 0.05582588801479669 0.05215159284382503 0.05215159284382503 0.023122552975681304 0.023122552975681304 0.019448257804709643 0.019448257804709643 
289.00011791278087 0.05582588801479669 0.05582588801479669 0.05215159284382503 0.05215159284382503 0.023122552975681304 0.023122552975681304 0.019448257804709643 0.019448257804709643 
290.0130486821648 0.07272727272727271 0.07272727272727271 0.05215159284382503 0.05215159284382503 0.04002393768815734 0.04002393768815734 0.019448257804709643 0.019448257804709643 
291.00011791278087 0.06447993263558643 0.06447993263558643 0.05215159284382503 0.05215159284382503 0.03177659759647108 0.03177659759647108 0.019448257804709643 0.019448257804709643 
292.01940481414186 0.06447993263558643 0.06447993263558643 0.06154820862981839 0.06154820862981839 0.022379981810477706 0.022379981810477706 0.019448257804709643 0.019448257804709643 
293.00011791278087 0.07272727272727271 0.07272727272727271 0.06447993263558643 0.06447993263558643 0.01961114283147939 0.01961114283147939 0.01961114283147939 0.01961114283147939 
294.00802377947275 0.05582588801479669 0.05582588801479669 0.05291514775345048 0.05291514775345048 0.012106373904996725 0.012106373904996725 0.0174429737353368 0.0174429737353368 
295.00011791278087 0.05582588801479669 0.05582588801479669 0.06116248784513676 0.06116248784513676 0.029455119903624444 0.029455119903624444 0.0174429737353368 0.0174429737353368 
296.0073976836865 0.05454545454545455 0.05454545454545455 0.05454545454545455 0.05454545454545455 0.04538112980374439 0.04538112980374439 0.02803238380511666 0.02803238380511666 
297.00011791278087 0.036363636363636355 0.036363636363636355 0.036363636363636355 0.036363636363636355 0.056560193901198715 0.056560193901198715 0.03921144790257097 0.03921144790257097 
298.01940481414186 0.036363636363636355 0.036363636363636355 0.036363636363636355 0.036363636363636355 0.07272727272727271 0.07272727272727271 0.03921144790257097 0.03921144790257097 
299.00011791278087 0.036363636363636355 0.036363636363636355 0.036363636363636355 0.036363636363636355 0.05537852672864501 0.05537852672864501 0.03921144790257097 0.03921144790257097 
300.0130486821648 0.036363636363636355 0.036363636363636355 0.036363636363636355 0.036363636363636355 0.05537852672864501 0.05537852672864501 0.03921144790257097 0.03921144790257097 
#####################################################################
# End of data export. Simulation finished at: 2017-02-14T17:41+0000 #
#####################################################################
