#####################################################################
# Alchemist log file - simulation started at: 2017-02-14T18:08+0000 #
#####################################################################
# seed = 12.0
#
# The columns have the following meaning: 
# time go-co-to[Mean] go-co-tsync[Mean] go-cmp-to[Mean] go-cmp-tsync[Mean] flex-co-to[Mean] flex-co-tsync[Mean] flex-cmp-to[Mean] flex-cmp-tsync[Mean] 
0.0 NaN NaN NaN NaN NaN NaN NaN NaN 
1.0033610890336062 NaN NaN NaN NaN NaN NaN NaN NaN 
2.001118149311931 NaN NaN NaN NaN NaN NaN NaN NaN 
3.003361089033606 NaN NaN NaN NaN NaN NaN NaN NaN 
4.001118149311932 NaN NaN NaN NaN NaN NaN NaN NaN 
5.003361089033606 NaN NaN NaN NaN NaN NaN NaN NaN 
6.001118149311932 NaN NaN NaN NaN NaN NaN NaN NaN 
7.003361089033606 NaN NaN NaN NaN NaN NaN NaN NaN 
8.001118149311932 NaN NaN NaN NaN NaN NaN NaN NaN 
9.003361089033607 NaN NaN NaN NaN NaN NaN NaN NaN 
10.001118149311932 NaN NaN NaN NaN NaN NaN NaN NaN 
11.003361089033607 NaN NaN NaN NaN NaN NaN NaN NaN 
12.001118149311932 NaN NaN NaN NaN NaN NaN NaN NaN 
13.003361089033607 NaN NaN NaN NaN NaN NaN NaN NaN 
14.001118149311932 NaN NaN NaN NaN NaN NaN NaN NaN 
15.003361089033607 NaN NaN NaN NaN NaN NaN NaN NaN 
16.00111814931193 NaN NaN NaN NaN NaN NaN NaN NaN 
17.003361089033607 NaN NaN NaN NaN NaN NaN NaN NaN 
18.00111814931193 NaN NaN NaN NaN NaN NaN NaN NaN 
19.003361089033607 NaN NaN NaN NaN NaN NaN NaN NaN 
20.00111814931193 NaN NaN NaN NaN NaN NaN NaN NaN 
21.003361089033607 1.0 1.0 1.0 1.0 1.0 1.0 1.0 1.0 
22.00111814931193 1.0 1.0 1.0 1.0 1.0 1.0 1.0 1.0 
23.003361089033607 0.9857142857142858 0.9857142857142858 0.9857142857142858 0.9857142857142858 0.9857142857142858 0.9857142857142858 0.9857142857142858 0.9857142857142858 
24.00111814931193 0.9857142857142858 0.9857142857142858 0.9857142857142858 0.9857142857142858 0.9857142857142858 0.9857142857142858 0.9857142857142858 0.9857142857142858 
25.003361089033607 0.9714285714285714 0.9714285714285714 0.9714285714285714 0.9714285714285714 0.9714285714285714 0.9714285714285714 0.9714285714285714 0.9714285714285714 
26.00111814931193 0.9428571428571428 0.9428571428571428 0.9428571428571428 0.9428571428571428 0.9428571428571428 0.9428571428571428 0.9428571428571428 0.9428571428571428 
27.003361089033607 0.9142857142857143 0.9142857142857143 0.9142857142857143 0.9142857142857143 0.9142857142857143 0.9142857142857143 0.9142857142857143 0.9142857142857143 
28.00111814931193 0.8857142857142857 0.8857142857142857 0.8857142857142857 0.8857142857142857 0.8857142857142857 0.8857142857142857 0.8857142857142857 0.8857142857142857 
29.003361089033607 0.8571428571428571 0.8571428571428571 0.8571428571428571 0.8571428571428571 0.8571428571428571 0.8571428571428571 0.8571428571428571 0.8571428571428571 
30.00111814931193 0.8571428571428571 0.8571428571428571 0.8571428571428571 0.8571428571428571 0.8571428571428571 0.8571428571428571 0.8571428571428571 0.8571428571428571 
31.003361089033607 0.8571428571428571 0.8571428571428571 0.8571428571428571 0.8571428571428571 0.8571428571428571 0.8571428571428571 0.8571428571428571 0.8571428571428571 
32.001118149311935 0.8428571428571427 0.8428571428571427 0.8428571428571427 0.8428571428571427 0.8428571428571427 0.8428571428571427 0.8428571428571427 0.8428571428571427 
33.0033610890336 0.8428571428571427 0.8428571428571427 0.8428571428571427 0.8428571428571427 0.8428571428571427 0.8428571428571427 0.8428571428571427 0.8428571428571427 
34.001118149311935 0.8285714285714285 0.8285714285714285 0.8285714285714285 0.8285714285714285 0.8285714285714285 0.8285714285714285 0.8285714285714285 0.8285714285714285 
35.0033610890336 0.8285714285714285 0.8285714285714285 0.8285714285714285 0.8285714285714285 0.8285714285714285 0.8285714285714285 0.8285714285714285 0.8285714285714285 
36.001118149311935 0.8202328393264755 0.8202328393264755 0.8285714285714285 0.8285714285714285 0.8202328393264755 0.8202328393264755 0.8285714285714285 0.8285714285714285 
37.0033610890336 0.7621794020359739 0.7621794020359739 0.8285714285714285 0.8285714285714285 0.7660632450804522 0.7660632450804522 0.8285714285714285 0.8285714285714285 
38.001118149311935 0.7238871330185971 0.7238871330185971 0.8142857142857144 0.8142857142857144 0.7277709760630755 0.7277709760630755 0.8142857142857144 0.8142857142857144 
39.0033610890336 0.6986834100739423 0.6986834100739423 0.8 0.8 0.722596486308533 0.722596486308533 0.8 0.8 
40.001118149311935 0.6805736090233795 0.6805736090233795 0.7857142857142858 0.7857142857142858 0.7044866852579701 0.7044866852579701 0.7857142857142858 0.7857142857142858 
41.0033610890336 0.6591470118905169 0.6591470118905169 0.7857142857142858 0.7857142857142858 0.6731223716306243 0.6731223716306243 0.7857142857142858 0.7857142857142858 
42.001118149311935 0.6454445248179782 0.6454445248179782 0.7857142857142858 0.7857142857142858 0.6497673943638071 0.6497673943638071 0.7857142857142858 0.7857142857142858 
43.0033610890336 0.6990383874976589 0.6990383874976589 0.7857142857142858 0.7857142857142858 0.6386231974244481 0.6386231974244481 0.7857142857142858 0.7857142857142858 
44.001118149311935 0.680372576100791 0.680372576100791 0.7857142857142858 0.7857142857142858 0.5911991614890242 0.5911991614890242 0.7857142857142858 0.7857142857142858 
45.0033610890336 0.6675660807504943 0.6675660807504943 0.7857142857142858 0.7857142857142858 0.5839081959938823 0.5839081959938823 0.7857142857142858 0.7857142857142858 
46.001118149311935 0.6730756052997551 0.6730756052997551 0.7857142857142858 0.7857142857142858 0.5536294686936417 0.5536294686936417 0.7857142857142858 0.7857142857142858 
47.0033610890336 0.6046374570476745 0.6046374570476745 0.7714285714285715 0.7714285714285715 0.5342133563203386 0.5342133563203386 0.7714285714285715 0.7714285714285715 
48.001118149311935 0.5191719854658146 0.5191719854658146 0.7714285714285715 0.7714285714285715 0.46993597462479914 0.46993597462479914 0.7714285714285715 0.7714285714285715 
49.0033610890336 0.5392701418414381 0.5392701418414381 0.7714285714285715 0.7714285714285715 0.4293986582591715 0.4293986582591715 0.7714285714285715 0.7714285714285715 
50.001118149311935 0.6137364699640119 0.6137364699640119 0.7714285714285715 0.7714285714285715 0.42988956646692417 0.42988956646692417 0.7632210948931142 0.7632210948931142 
51.0033610890336 0.5770174902721935 0.5770174902721935 0.7714285714285715 0.7714285714285715 0.41905865925466185 0.41905865925466185 0.7086524044029876 0.7086524044029876 
52.001118149311935 0.5181440873681368 0.5181440873681368 0.7632210948931142 0.7632210948931142 0.39787628209508447 0.39787628209508447 0.6854505352525105 0.6854505352525105 
53.0033610890336 0.5215503218129843 0.5215503218129843 0.7051657778007315 0.7051657778007315 0.3923838981506637 0.3923838981506637 0.6722304478966769 0.6722304478966769 
54.001118149311935 0.48090739278003086 0.48090739278003086 0.6829011999207281 0.6829011999207281 0.40358997427237386 0.40358997427237386 0.6521177361587831 0.6521177361587831 
55.0033610890336 0.5073170969203958 0.5073170969203958 0.6831600865032981 0.6831600865032981 0.4270407575898944 0.4270407575898944 0.6400539702282652 0.6400539702282652 
56.001118149311935 0.5136217544407551 0.5136217544407551 0.6614642522086963 0.6614642522086963 0.432017124849365 0.432017124849365 0.6264440243619205 0.6264440243619205 
57.0033610890336 0.44146505085911536 0.44146505085911536 0.5972511504255865 0.5972511504255865 0.43365005675353174 0.43365005675353174 0.5636763612180236 0.5636763612180236 
58.001118149311935 0.4521015070804568 0.4521015070804568 0.5770729755945366 0.5770729755945366 0.4549104518910237 0.4549104518910237 0.537211972011185 0.537211972011185 
59.0033610890336 0.5334487718469612 0.5334487718469612 0.5663903866049871 0.5663903866049871 0.41443379422535964 0.41443379422535964 0.5216588544817459 0.5216588544817459 
60.001118149311935 0.5492600602660893 0.5492600602660893 0.5015010749908787 0.5015010749908787 0.37763307898287163 0.37763307898287163 0.47230370040483893 0.47230370040483893 
61.0033610890336 0.5531113197848533 0.5531113197848533 0.48128150813179704 0.48128150813179704 0.3630480374274193 0.3630480374274193 0.44564687633151395 0.44564687633151395 
62.001118149311935 0.6043584704264128 0.6043584704264128 0.4635409874783252 0.4635409874783252 0.3671690395045891 0.3671690395045891 0.4202354654183277 0.4202354654183277 
63.0033610890336 0.5715291652359303 0.5715291652359303 0.44664852396047905 0.44664852396047905 0.34980781608780553 0.34980781608780553 0.4174896463819377 0.4174896463819377 
64.00111814931194 0.5626669749324742 0.5626669749324742 0.38883854077692054 0.38883854077692054 0.3318071674711681 0.3318071674711681 0.34940946857618344 0.34940946857618344 
65.0033610890336 0.55821055934172 0.55821055934172 0.40364490691081845 0.40364490691081845 0.3377129851025414 0.3377129851025414 0.3567633264044834 0.3567633264044834 
66.00111814931194 0.5615987685460045 0.5615987685460045 0.399485592610727 0.399485592610727 0.34636076270638155 0.34636076270638155 0.35272922294621917 0.35272922294621917 
67.0033610890336 0.5253810179274816 0.5253810179274816 0.34715136634139604 0.34715136634139604 0.342532335196329 0.342532335196329 0.3283225977436529 0.3283225977436529 
68.00111814931194 0.5567405520357726 0.5567405520357726 0.3796899176389708 0.3796899176389708 0.3673190545179484 0.3673190545179484 0.3232844457531472 0.3232844457531472 
69.0033610890336 0.6206441298658212 0.6206441298658212 0.38111344050186025 0.38111344050186025 0.35910150173128863 0.35910150173128863 0.32716711759232375 0.32716711759232375 
70.00111814931194 0.5788606326824455 0.5788606326824455 0.3729816889059964 0.3729816889059964 0.3339379893745245 0.3339379893745245 0.32702641287268575 0.32702641287268575 
71.0033610890336 0.5655025067568765 0.5655025067568765 0.3638079940632251 0.3638079940632251 0.32676508940083737 0.32676508940083737 0.3284555490073467 0.3284555490073467 
72.00111814931194 0.594311519496824 0.594311519496824 0.3558822072209306 0.3558822072209306 0.33251518546237574 0.33251518546237574 0.34848995169836705 0.34848995169836705 
73.0033610890336 0.6373822953852518 0.6373822953852518 0.35043463764961935 0.35043463764961935 0.3267573550647603 0.3267573550647603 0.35956614023569106 0.35956614023569106 
74.00111814931194 0.6306625270591937 0.6306625270591937 0.3529605155854415 0.3529605155854415 0.3482277053846161 0.3482277053846161 0.3850186252097557 0.3850186252097557 
75.0033610890336 0.6148885875134658 0.6148885875134658 0.39525025638600125 0.39525025638600125 0.38978663992332185 0.38978663992332185 0.40564314034184273 0.40564314034184273 
76.00111814931194 0.6208146498008027 0.6208146498008027 0.39354024544152627 0.39354024544152627 0.3860135621996494 0.3860135621996494 0.3952848126586835 0.3952848126586835 
77.0033610890336 0.6327765662743532 0.6327765662743532 0.38823785040909187 0.38823785040909187 0.37718608644098267 0.37718608644098267 0.3849424011722475 0.3849424011722475 
78.00111814931194 0.6530602738600438 0.6530602738600438 0.39683772394962447 0.39683772394962447 0.39459546285513764 0.39459546285513764 0.4015814636521754 0.4015814636521754 
79.0033610890336 0.6755414079486397 0.6755414079486397 0.39248141434766454 0.39248141434766454 0.44893614756745476 0.44893614756745476 0.3941712087262022 0.3941712087262022 
80.00111814931194 0.6755414079486397 0.6755414079486397 0.3949388989774817 0.3949388989774817 0.45100228742855614 0.45100228742855614 0.4035532352760042 0.4035532352760042 
81.0033610890336 0.6857142857142856 0.6857142857142856 0.3974577721251436 0.3974577721251436 0.46560459796075765 0.46560459796075765 0.4048629647979579 0.4048629647979579 
82.00111814931194 0.6857142857142856 0.6857142857142856 0.3851026185385452 0.3851026185385452 0.46630850716475747 0.46630850716475747 0.4034374740197219 0.4034374740197219 
83.0033610890336 0.6857142857142856 0.6857142857142856 0.38890461364695356 0.38890461364695356 0.4709753727364928 0.4709753727364928 0.4038660751797078 0.4038660751797078 
84.00111814931194 0.6857142857142856 0.6857142857142856 0.4018594855733918 0.4018594855733918 0.4735547184293266 0.4735547184293266 0.41835132807312375 0.41835132807312375 
85.0033610890336 0.6857142857142856 0.6857142857142856 0.4084588141771203 0.4084588141771203 0.49329027813291587 0.49329027813291587 0.4286558862116357 0.4286558862116357 
86.00111814931194 0.6857142857142856 0.6857142857142856 0.42597997817764166 0.42597997817764166 0.531790102259492 0.531790102259492 0.4351622804702872 0.4351622804702872 
87.0033610890336 0.6857142857142856 0.6857142857142856 0.42744115029453617 0.42744115029453617 0.5394873574891171 0.5394873574891171 0.43377601004857363 0.43377601004857363 
88.00111814931194 0.6857142857142856 0.6857142857142856 0.4147461360341412 0.4147461360341412 0.5508952334000193 0.5508952334000193 0.42487823209117315 0.42487823209117315 
89.0033610890336 0.6857142857142856 0.6857142857142856 0.477309505036585 0.477309505036585 0.5881417647631538 0.5881417647631538 0.4247020357699637 0.4247020357699637 
90.00111814931194 0.6857142857142856 0.6857142857142856 0.4941463575302958 0.4941463575302958 0.6210562090544404 0.6210562090544404 0.42263697342748674 0.42263697342748674 
91.0033610890336 0.6857142857142856 0.6857142857142856 0.49527390276772715 0.49527390276772715 0.6210562090544404 0.6210562090544404 0.42386784284674 0.42386784284674 
92.00111814931194 0.6857142857142856 0.6857142857142856 0.5301189025578792 0.5301189025578792 0.6480177829122995 0.6480177829122995 0.42649424570253636 0.42649424570253636 
93.0033610890336 0.6857142857142856 0.6857142857142856 0.5400126228542267 0.5400126228542267 0.6614641225236009 0.6614641225236009 0.45312855840960153 0.45312855840960153 
94.00111814931194 0.6857142857142856 0.6857142857142856 0.5459256454110041 0.5459256454110041 0.6675867713786171 0.6675867713786171 0.4562213389881666 0.4562213389881666 
95.0033610890336 0.6857142857142856 0.6857142857142856 0.5661491948654171 0.5661491948654171 0.6291041204738783 0.6291041204738783 0.4905152924438808 0.4905152924438808 
96.00111814931194 0.6857142857142856 0.6857142857142856 0.5645286675927718 0.5645286675927718 0.6114258056892569 0.6114258056892569 0.4932001054488059 0.4932001054488059 
97.0033610890336 0.6714285714285715 0.6714285714285715 0.5931955695783665 0.5931955695783665 0.5826155563879201 0.5826155563879201 0.5102869970225832 0.5102869970225832 
98.00111814931194 0.6571428571428573 0.6571428571428573 0.6159460948856039 0.6159460948856039 0.5508129930040913 0.5508129930040913 0.5331885619839726 0.5331885619839726 
99.0033610890336 0.6571428571428573 0.6571428571428573 0.6159460948856039 0.6159460948856039 0.5251590512062879 0.5251590512062879 0.5255025808921979 0.5255025808921979 
100.00111814931194 0.6571428571428573 0.6571428571428573 0.6063866369846357 0.6063866369846357 0.5251590512062879 0.5251590512062879 0.5261286293670226 0.5261286293670226 
101.0033610890336 0.6571428571428573 0.6571428571428573 0.6019914421512873 0.6019914421512873 0.5207258346601604 0.5207258346601604 0.5467649027001183 0.5467649027001183 
102.00111814931194 0.6571428571428573 0.6571428571428573 0.5973789082042106 0.5973789082042106 0.5007075465460438 0.5007075465460438 0.559418756276526 0.559418756276526 
103.0033610890336 0.6571428571428573 0.6571428571428573 0.6064418092582416 0.6064418092582416 0.4707120411810119 0.4707120411810119 0.5629076904368904 0.5629076904368904 
104.00111814931194 0.6428571428571429 0.6428571428571429 0.6102058485504273 0.6102058485504273 0.46195356972452584 0.46195356972452584 0.5627960308816029 0.5627960308816029 
105.0033610890336 0.6428571428571429 0.6428571428571429 0.6136331198834719 0.6136331198834719 0.44921235998109693 0.44921235998109693 0.5975296633622457 0.5975296633622457 
106.00111814931194 0.6428571428571429 0.6428571428571429 0.5934235131066355 0.5934235131066355 0.44559967877901424 0.44559967877901424 0.591498012073156 0.591498012073156 
107.0033610890336 0.6428571428571429 0.6428571428571429 0.5934235131066355 0.5934235131066355 0.45599112259744445 0.45599112259744445 0.5995654580847154 0.5995654580847154 
108.00111814931194 0.6142857142857143 0.6142857142857143 0.5799922136697249 0.5799922136697249 0.4651477857243769 0.4651477857243769 0.5880555195681803 0.5880555195681803 
109.0033610890336 0.6142857142857143 0.6142857142857143 0.5799922136697249 0.5799922136697249 0.4574072205361419 0.4574072205361419 0.5957960847564154 0.5957960847564154 
110.00111814931194 0.6142857142857143 0.6142857142857143 0.5806886023691484 0.5806886023691484 0.42651832804704515 0.42651832804704515 0.5847632796191773 0.5847632796191773 
111.0033610890336 0.6142857142857143 0.6142857142857143 0.5806886023691484 0.5806886023691484 0.4141861047978382 0.4141861047978382 0.5847632796191773 0.5847632796191773 
112.00111814931194 0.6142857142857143 0.6142857142857143 0.5937316119008564 0.5937316119008564 0.421255165088901 0.421255165088901 0.5847632796191773 0.5847632796191773 
113.0033610890336 0.6142857142857143 0.6142857142857143 0.5916235545665566 0.5916235545665566 0.41754838078218315 0.41754838078218315 0.568369507999163 0.568369507999163 
114.00111814931194 0.6142857142857143 0.6142857142857143 0.5993304819055079 0.5993304819055079 0.39824864480952227 0.39824864480952227 0.56830097500134 0.56830097500134 
115.0033610890336 0.6142857142857143 0.6142857142857143 0.5975496522842919 0.5975496522842919 0.48280946505548467 0.48280946505548467 0.5665201453801239 0.5665201453801239 
116.00111814931194 0.6 0.6 0.5770058226578735 0.5770058226578735 0.4412944881186188 0.4412944881186188 0.5529656492234599 0.5529656492234599 
117.0033610890336 0.6 0.6 0.5809848514294563 0.5809848514294563 0.40741483127480926 0.40741483127480926 0.5529656492234599 0.5529656492234599 
118.00111814931194 0.6 0.6 0.5847972826740601 0.5847972826740601 0.43205388060185046 0.43205388060185046 0.5534272178123116 0.5534272178123116 
119.0033610890336 0.6 0.6 0.5847972826740601 0.5847972826740601 0.4275804347788951 0.4275804347788951 0.5534272178123116 0.5534272178123116 
120.00111814931194 0.6 0.6 0.5867917486210985 0.5867917486210985 0.4234429562094521 0.4234429562094521 0.5470461394284807 0.5470461394284807 
121.0033610890336 0.6 0.6 0.5867917486210985 0.5867917486210985 0.40801586255813516 0.40801586255813516 0.5470461394284807 0.5470461394284807 
122.00111814931194 0.5857142857142856 0.5857142857142856 0.5786828519883406 0.5786828519883406 0.3907999847706286 0.3907999847706286 0.5327604251427663 0.5327604251427663 
123.0033610890336 0.5714285714285714 0.5714285714285714 0.5643971377026262 0.5643971377026262 0.39619494975691066 0.39619494975691066 0.484766598054143 0.484766598054143 
124.00111814931194 0.5714285714285714 0.5714285714285714 0.5714285714285714 0.5714285714285714 0.40019080990353745 0.40019080990353745 0.486911916928602 0.486911916928602 
125.0033610890336 0.5571428571428572 0.5571428571428572 0.5571428571428572 0.5571428571428572 0.3829843427522712 0.3829843427522712 0.4728901302525963 0.4728901302525963 
126.00111814931194 0.5571428571428572 0.5571428571428572 0.5571428571428572 0.5571428571428572 0.4025562647430025 0.4025562647430025 0.49777542054393453 0.49777542054393453 
127.0033610890336 0.5571428571428572 0.5571428571428572 0.5571428571428572 0.5571428571428572 0.3920950241367632 0.3920950241367632 0.4781988646218104 0.4781988646218104 
128.00111814931194 0.5571428571428572 0.5571428571428572 0.5571428571428572 0.5571428571428572 0.3853457022339379 0.3853457022339379 0.46172889221142627 0.46172889221142627 
129.0033610890336 0.5571428571428572 0.5571428571428572 0.5571428571428572 0.5571428571428572 0.3893390858556394 0.3893390858556394 0.46154970128759193 0.46154970128759193 
130.00111814931194 0.5571428571428572 0.5571428571428572 0.5571428571428572 0.5571428571428572 0.38412468985322673 0.38412468985322673 0.47617097513653744 0.47617097513653744 
131.0033610890336 0.5285714285714286 0.5285714285714286 0.5285714285714286 0.5285714285714286 0.3853600641394687 0.3853600641394687 0.4292516400202304 0.4292516400202304 
132.00111814931194 0.48571428571428565 0.48571428571428565 0.48571428571428565 0.48571428571428565 0.3282631847260883 0.3282631847260883 0.3748312910511574 0.3748312910511574 
133.0033610890336 0.47142857142857136 0.47142857142857136 0.47142857142857136 0.47142857142857136 0.31445791946588797 0.31445791946588797 0.36311257777895295 0.36311257777895295 
134.00111814931194 0.45714285714285713 0.45714285714285713 0.44693145321634253 0.44693145321634253 0.30203688412190977 0.30203688412190977 0.33437243991436494 0.33437243991436494 
135.0033610890336 0.4428571428571428 0.4428571428571428 0.4326457389306282 0.4326457389306282 0.3132926559315937 0.3132926559315937 0.29754313591368514 0.29754313591368514 
136.00111814931194 0.4428571428571428 0.4428571428571428 0.4326457389306282 0.4326457389306282 0.33110100736621223 0.33110100736621223 0.2955466070212956 0.2955466070212956 
137.0033610890336 0.42857142857142855 0.42857142857142855 0.4183600246449139 0.4183600246449139 0.33938241037708405 0.33938241037708405 0.3059908370530724 0.3059908370530724 
138.00111814931194 0.42857142857142855 0.42857142857142855 0.42857142857142855 0.42857142857142855 0.3497527335031442 0.3497527335031442 0.29074204844072116 0.29074204844072116 
139.0033610890336 0.41428571428571426 0.41428571428571426 0.41428571428571426 0.41428571428571426 0.3855181461582698 0.3855181461582698 0.2892049420994989 0.2892049420994989 
140.00111814931194 0.4000000000000001 0.4000000000000001 0.3897753676357801 0.3897753676357801 0.378774754900693 0.378774754900693 0.2643967397465473 0.2643967397465473 
141.0033610890336 0.4000000000000001 0.4000000000000001 0.3897753676357801 0.3897753676357801 0.3778919435429648 0.3778919435429648 0.2617073842484842 0.2617073842484842 
142.00111814931194 0.38571428571428573 0.38571428571428573 0.3754896533500658 0.3754896533500658 0.3654181239484712 0.3654181239484712 0.2484973961897224 0.2484973961897224 
143.0033610890336 0.38571428571428573 0.38571428571428573 0.3754896533500658 0.3754896533500658 0.3583503946102483 0.3583503946102483 0.247420765021583 0.247420765021583 
144.00111814931194 0.38571428571428573 0.38571428571428573 0.3754896533500658 0.3754896533500658 0.3440646803245341 0.3440646803245341 0.244440090267861 0.244440090267861 
145.0033610890336 0.38571428571428573 0.38571428571428573 0.3754896533500658 0.3754896533500658 0.33015882168897487 0.33015882168897487 0.24474665085444666 0.24474665085444666 
146.00111814931194 0.37142857142857144 0.37142857142857144 0.36120393906435144 0.36120393906435144 0.3308549270772011 0.3308549270772011 0.266067551165093 0.266067551165093 
147.0033610890336 0.37142857142857144 0.37142857142857144 0.36120393906435144 0.36120393906435144 0.32470823007848254 0.32470823007848254 0.2650954124580135 0.2650954124580135 
148.00111814931194 0.37142857142857144 0.37142857142857144 0.36120393906435144 0.36120393906435144 0.31899802694636264 0.31899802694636264 0.26852046135656965 0.26852046135656965 
149.0033610890336 0.37142857142857144 0.37142857142857144 0.36120393906435144 0.36120393906435144 0.3047123126606483 0.3047123126606483 0.27087925338704844 0.27087925338704844 
150.00111814931194 0.3571428571428571 0.3571428571428571 0.3571428571428571 0.3571428571428571 0.2930760939614408 0.2930760939614408 0.2814292989737186 0.2814292989737186 
151.0033610890336 0.34285714285714286 0.34285714285714286 0.34285714285714286 0.34285714285714286 0.24143643874736634 0.24143643874736634 0.29449196392793237 0.29449196392793237 
152.00111814931194 0.34285714285714286 0.34285714285714286 0.34285714285714286 0.34285714285714286 0.24804947956574472 0.24804947956574472 0.2730176231197869 0.2730176231197869 
153.0033610890336 0.34285714285714286 0.34285714285714286 0.34285714285714286 0.34285714285714286 0.24795903513376494 0.24795903513376494 0.27310987854708396 0.27310987854708396 
154.00111814931194 0.34285714285714286 0.34285714285714286 0.34285714285714286 0.34285714285714286 0.2628418682672271 0.2628418682672271 0.24453844997565533 0.24453844997565533 
155.0033610890336 0.3142857142857143 0.3142857142857143 0.3142857142857143 0.3142857142857143 0.25011101039181216 0.25011101039181216 0.2154806629588686 0.2154806629588686 
156.00111814931194 0.3142857142857143 0.3142857142857143 0.3142857142857143 0.3142857142857143 0.24423153715804746 0.24423153715804746 0.23082843942920314 0.23082843942920314 
157.0033610890336 0.3 0.3 0.3 0.3 0.23010571025026508 0.23010571025026508 0.2167026125214207 0.2167026125214207 
158.00111814931194 0.3 0.3 0.3 0.3 0.21499885723017298 0.21499885723017298 0.2122638850312451 0.2122638850312451 
159.0033610890336 0.3 0.3 0.3 0.3 0.21138239839205172 0.21138239839205172 0.2122638850312451 0.2122638850312451 
160.00111814931194 0.3 0.3 0.3 0.3 0.20339036948779077 0.20339036948779077 0.2043365870166716 0.2043365870166716 
161.0033610890336 0.3 0.3 0.3 0.3 0.2034062831016806 0.2034062831016806 0.20435250063056143 0.20435250063056143 
162.00111814931194 0.3 0.3 0.3 0.3 0.1956366497437932 0.1956366497437932 0.20435250063056143 0.20435250063056143 
163.0033610890336 0.2857142857142857 0.2857142857142857 0.2857142857142857 0.2857142857142857 0.20825415850792195 0.20825415850792195 0.2169700093946902 0.2169700093946902 
164.00111814931194 0.2857142857142857 0.2857142857142857 0.2857142857142857 0.2857142857142857 0.20827375088894823 0.20827375088894823 0.2169700093946902 0.2169700093946902 
165.0033610890336 0.2857142857142857 0.2857142857142857 0.2857142857142857 0.2857142857142857 0.20415303876970742 0.20415303876970742 0.21284929727544938 0.21284929727544938 
166.00111814931194 0.27142857142857146 0.27142857142857146 0.27142857142857146 0.27142857142857146 0.19856982792255046 0.19856982792255046 0.2223766278696656 0.2223766278696656 
167.0033610890336 0.27142857142857146 0.27142857142857146 0.27142857142857146 0.27142857142857146 0.18626056785178977 0.18626056785178977 0.22435308208461918 0.22435308208461918 
168.00111814931194 0.2571428571428571 0.2571428571428571 0.2571428571428571 0.2571428571428571 0.1776518718274427 0.1776518718274427 0.23160785113748983 0.23160785113748983 
169.0033610890336 0.2571428571428571 0.2571428571428571 0.2571428571428571 0.2571428571428571 0.1776518718274427 0.1776518718274427 0.23160785113748983 0.23160785113748983 
170.00111814931194 0.24285714285714285 0.24285714285714285 0.24285714285714285 0.24285714285714285 0.1749136963359333 0.1749136963359333 0.21571456618797596 0.21571456618797596 
171.0033610890336 0.24285714285714285 0.24285714285714285 0.24285714285714285 0.24285714285714285 0.16062798205021897 0.16062798205021897 0.2014288519022617 0.2014288519022617 
172.00111814931194 0.24285714285714285 0.24285714285714285 0.24285714285714285 0.24285714285714285 0.1607697437631873 0.1607697437631873 0.18919941062164755 0.18919941062164755 
173.0033610890336 0.24285714285714285 0.24285714285714285 0.24285714285714285 0.24285714285714285 0.16223135899024302 0.16223135899024302 0.176375311562989 0.176375311562989 
174.00111814931194 0.24285714285714285 0.24285714285714285 0.24285714285714285 0.24285714285714285 0.16223135899024302 0.16223135899024302 0.16551405329083785 0.16551405329083785 
175.0033610890336 0.21428571428571427 0.21428571428571427 0.18858200531823202 0.21428571428571427 0.15761167059044787 0.15761167059044787 0.1608943648910427 0.1608943648910427 
176.00111814931194 0.2 0.2 0.17429629103251773 0.2 0.15369293970508258 0.15369293970508258 0.15109535045393133 0.15109535045393133 
177.0033610890336 0.2 0.2 0.17434110918831688 0.17439997271933497 0.15379270353298774 0.15379270353298774 0.15119511428183652 0.15119511428183652 
178.00111814931194 0.17142857142857143 0.17142857142857143 0.14576968061688836 0.1458285441479064 0.14604235696554446 0.14604235696554446 0.1348306016876557 0.1348306016876557 
179.0033610890336 0.17142857142857143 0.17142857142857143 0.1330222488117976 0.14576968061688836 0.14604235696554446 0.14604235696554446 0.1348306016876557 0.1348306016876557 
180.00111814931194 0.17142857142857143 0.17142857142857143 0.1330222488117976 0.14576968061688836 0.16115274710195912 0.16115274710195912 0.14718013762202445 0.14718013762202445 
181.0033610890336 0.17142857142857143 0.17142857142857143 0.1330222488117976 0.1330222488117976 0.16115274710195912 0.16115274710195912 0.14718013762202445 0.14718013762202445 
182.00111814931194 0.15714285714285722 0.15714285714285722 0.11873653452608336 0.11873653452608336 0.13107096623060657 0.13107096623060657 0.12376552197857839 0.12376552197857839 
183.0033610890336 0.15714285714285722 0.15714285714285722 0.11946247049776003 0.11946247049776003 0.1254266176624573 0.1254266176624573 0.1181211734104291 0.1181211734104291 
184.00111814931194 0.1428571428571429 0.1428571428571429 0.10517675621204577 0.10517675621204577 0.10168927764677818 0.10168927764677818 0.10383545912471481 0.10383545912471481 
185.0033610890336 0.12857142857142856 0.12857142857142856 0.1036434070800889 0.1036434070800889 0.1144416428005356 0.1144416428005356 0.11658782427847225 0.11658782427847225 
186.00111814931194 0.12857142857142856 0.12857142857142856 0.1036434070800889 0.1036434070800889 0.10184477733731397 0.10184477733731397 0.12027875245302681 0.12027875245302681 
187.0033610890336 0.12857142857142856 0.12857142857142856 0.10379330168844825 0.10379330168844825 0.10192383220243102 0.10192383220243102 0.12035780731814386 0.12035780731814386 
188.00111814931194 0.12857142857142856 0.12857142857142856 0.09874449666700771 0.09874449666700771 0.10155606746892784 0.10155606746892784 0.10260337448327446 0.10260337448327446 
189.0033610890336 0.12857142857142856 0.12857142857142856 0.09874449666700771 0.09874449666700771 0.10155606746892784 0.10155606746892784 0.10260337448327446 0.10260337448327446 
190.00111814931194 0.12857142857142856 0.12857142857142856 0.07831254260903514 0.07831254260903514 0.10917958627550808 0.10917958627550808 0.0978953044483338 0.0978953044483338 
191.0033610890336 0.12857142857142856 0.12857142857142856 0.07831254260903514 0.07831254260903514 0.10917958627550808 0.10917958627550808 0.0978953044483338 0.0978953044483338 
192.00111814931194 0.12857142857142856 0.12857142857142856 0.07831254260903514 0.07831254260903514 0.0978953044483338 0.0978953044483338 0.0978953044483338 0.0978953044483338 
193.0033610890336 0.11428571428571425 0.11428571428571425 0.06544037986069985 0.06544037986069985 0.10711119001709372 0.10711119001709372 0.09282547573137942 0.09282547573137942 
194.00111814931194 0.11428571428571425 0.11428571428571425 0.049637116115808975 0.049637116115808975 0.10830353994156863 0.10830353994156863 0.07861661841263329 0.07861661841263329 
195.0033610890336 0.11428571428571425 0.11428571428571425 0.049637116115808975 0.049637116115808975 0.09401782565585433 0.09401782565585433 0.06433090412691903 0.06433090412691903 
196.00111814931194 0.11428571428571425 0.11428571428571425 0.04573190534442174 0.04573190534442174 0.08471598520283437 0.08471598520283437 0.06544431813695911 0.06544431813695911 
197.0033610890336 0.11428571428571425 0.11428571428571425 0.045736306580269136 0.045736306580269136 0.07050551189620975 0.07050551189620975 0.06551955911604875 0.06551955911604875 
198.00111814931194 0.11428571428571425 0.11428571428571425 0.04489181325822997 0.04489181325822997 0.048814693038104935 0.048814693038104935 0.06527882558344117 0.06527882558344117 
199.0033610890336 0.11428571428571425 0.11428571428571425 0.04489181325822997 0.04489181325822997 0.048814693038104935 0.048814693038104935 0.06527882558344117 0.06527882558344117 
200.00111814931194 0.11428571428571425 0.11428571428571425 0.043890048408883914 0.043890048408883914 0.04408258571985548 0.04408258571985548 0.06078679132325103 0.06078679132325103 
201.0033610890336 0.11428571428571425 0.11428571428571425 0.043890048408883914 0.043890048408883914 0.04408258571985548 0.04408258571985548 0.06078679132325103 0.06078679132325103 
202.00111814931194 0.11428571428571425 0.11428571428571425 0.043894129842912716 0.043894129842912716 0.05034366914722197 0.05034366914722197 0.0671819686770175 0.0671819686770175 
203.0033610890336 0.11428571428571425 0.11428571428571425 0.044964207417472535 0.044964207417472535 0.05141374672178178 0.05141374672178178 0.0682520462515773 0.0682520462515773 
204.00111814931194 0.11428571428571425 0.11428571428571425 0.04496012598344373 0.04496012598344373 0.05202183074524389 0.05202183074524389 0.07518621994859152 0.07518621994859152 
205.0033610890336 0.11428571428571425 0.11428571428571425 0.04496012598344373 0.04496012598344373 0.05202183074524389 0.05202183074524389 0.060900505662877205 0.060900505662877205 
206.00111814931194 0.11428571428571425 0.11428571428571425 0.0449120871793423 0.0449120871793423 0.05196980400919788 0.05196980400919788 0.060990209335914404 0.060990209335914404 
207.0033610890336 0.11428571428571425 0.11428571428571425 0.044982660706948334 0.044982660706948334 0.052040377536803926 0.052040377536803926 0.061060782863520464 0.061060782863520464 
208.00111814931194 0.11428571428571425 0.11428571428571425 0.04498464972246333 0.04498464972246333 0.05851417456689879 0.05851417456689879 0.06074372548148009 0.06074372548148009 
209.0033610890336 0.11428571428571425 0.11428571428571425 0.04498464972246333 0.04498464972246333 0.05851417456689879 0.05851417456689879 0.06074372548148009 0.06074372548148009 
210.00111814931194 0.11428571428571425 0.11428571428571425 0.044773280686393566 0.044773280686393566 0.06456721905961325 0.06456721905961325 0.07106299570985172 0.07106299570985172 
211.0033610890336 0.11428571428571425 0.11428571428571425 0.044773280686393566 0.044773280686393566 0.06456721905961325 0.06456721905961325 0.07106299570985172 0.07106299570985172 
212.00111814931194 0.11428571428571425 0.11428571428571425 0.044773280686393566 0.044773280686393566 0.06456721905961325 0.06456721905961325 0.07106299570985172 0.07106299570985172 
213.0033610890336 0.11428571428571425 0.11428571428571425 0.04541109142596494 0.04541109142596494 0.050919315513470294 0.050919315513470294 0.05741509216370876 0.05741509216370876 
214.00111814931194 0.11428571428571425 0.11428571428571425 0.04540810436960419 0.04540810436960419 0.05165016020155229 0.05165016020155229 0.057668328782257305 0.057668328782257305 
215.0033610890336 0.11428571428571425 0.11428571428571425 0.04540810436960419 0.04540810436960419 0.05165016020155229 0.05165016020155229 0.057668328782257305 0.057668328782257305 
216.00111814931194 0.11428571428571425 0.11428571428571425 0.04537237124467519 0.04537237124467519 0.057787260015446054 0.057787260015446054 0.057787260015446054 0.057787260015446054 
217.0033610890336 0.11428571428571425 0.11428571428571425 0.045354584716048044 0.045354584716048044 0.05776947348681887 0.05776947348681887 0.05776947348681887 0.05776947348681887 
218.00111814931194 0.11428571428571425 0.11428571428571425 0.04563232303144567 0.04563232303144567 0.04537818383047112 0.04537818383047112 0.05023660690838895 0.05023660690838895 
219.0033610890336 0.11428571428571425 0.11428571428571425 0.04563232303144567 0.04563232303144567 0.04537818383047112 0.04537818383047112 0.05023660690838895 0.05023660690838895 
220.00111814931194 0.11428571428571425 0.11428571428571425 0.050312678442879545 0.050312678442879545 0.05170523255759867 0.05170523255759867 0.049284151518942734 0.049284151518942734 
221.0033610890336 0.11428571428571425 0.11428571428571425 0.050312678442879545 0.050312678442879545 0.05170523255759867 0.05170523255759867 0.049284151518942734 0.049284151518942734 
222.00111814931194 0.11428571428571425 0.11428571428571425 0.050312678442879545 0.050312678442879545 0.0444050093516052 0.0444050093516052 0.049284151518942734 0.049284151518942734 
223.0033610890336 0.09999999999999994 0.09999999999999994 0.044927020139069136 0.044927020139069136 0.05330506533350909 0.05330506533350909 0.04389849321513223 0.04389849321513223 
224.00111814931194 0.09999999999999994 0.09999999999999994 0.044927020139069136 0.044927020139069136 0.04704915164660891 0.04704915164660891 0.04363404262963442 0.04363404262963442 
225.0033610890336 0.09999999999999994 0.09999999999999994 0.044927020139069136 0.044927020139069136 0.04704915164660891 0.04704915164660891 0.04363404262963442 0.04363404262963442 
226.00111814931194 0.09999999999999994 0.09999999999999994 0.04488075222451261 0.04488075222451261 0.04774541631882288 0.04774541631882288 0.04331902541524997 0.04331902541524997 
227.0033610890336 0.09999999999999994 0.09999999999999994 0.04417291624583397 0.04417291624583397 0.047037580340144235 0.047037580340144235 0.042611189436571426 0.042611189436571426 
228.00111814931194 0.09999999999999994 0.09999999999999994 0.04423517847253023 0.04423517847253023 0.05748345837993804 0.05748345837993804 0.042626444348203306 0.042626444348203306 
229.0033610890336 0.09999999999999994 0.09999999999999994 0.04423517847253023 0.04423517847253023 0.05748345837993804 0.05748345837993804 0.042626444348203306 0.042626444348203306 
230.00111814931194 0.08571428571428565 0.08571428571428565 0.04427160921466497 0.04427160921466497 0.05184231100644317 0.05184231100644317 0.04279830617423932 0.04279830617423932 
231.0033610890336 0.08571428571428565 0.08571428571428565 0.04427160921466497 0.04427160921466497 0.05184231100644317 0.05184231100644317 0.04279830617423932 0.04279830617423932 
232.00111814931194 0.08571428571428565 0.08571428571428565 0.04427160921466497 0.04427160921466497 0.05184231100644317 0.05184231100644317 0.04279830617423932 0.04279830617423932 
233.0033610890336 0.08571428571428565 0.08571428571428565 0.04427160921466497 0.04427160921466497 0.05184231100644317 0.05184231100644317 0.04279830617423932 0.04279830617423932 
234.00111814931194 0.08571428571428565 0.08571428571428565 0.04427160921466497 0.04427160921466497 0.052099461147392646 0.052099461147392646 0.043055456315188895 0.043055456315188895 
235.0033610890336 0.08571428571428565 0.08571428571428565 0.04427160921466497 0.04427160921466497 0.052099461147392646 0.052099461147392646 0.043055456315188895 0.043055456315188895 
236.00111814931194 0.08571428571428565 0.08571428571428565 0.05686035914208521 0.05686035914208521 0.056640269666493985 0.056640269666493985 0.05040249678909862 0.05040249678909862 
237.0033610890336 0.07142857142857136 0.07142857142857136 0.05598192364978969 0.05598192364978969 0.07004754845991264 0.07004754845991264 0.06380977558251738 0.06380977558251738 
238.00111814931194 0.07142857142857136 0.07142857142857136 0.05599251796043708 0.05599251796043708 0.06885029539931788 0.06885029539931788 0.06261252252192258 0.06261252252192258 
239.0033610890336 0.07142857142857136 0.07142857142857136 0.05599251796043708 0.05599251796043708 0.06885029539931788 0.06885029539931788 0.06261252252192258 0.06261252252192258 
240.00111814931194 0.07142857142857136 0.07142857142857136 0.06224953499411104 0.06224953499411104 0.06545299981751736 0.06545299981751736 0.07007738692683871 0.07007738692683871 
241.0033610890336 0.07142857142857136 0.07142857142857136 0.06224953499411104 0.06224953499411104 0.06545299981751736 0.06545299981751736 0.07007738692683871 0.07007738692683871 
242.00111814931194 0.07142857142857136 0.07142857142857136 0.06224953499411104 0.06224953499411104 0.06545299981751736 0.06545299981751736 0.07007738692683871 0.07007738692683871 
243.0033610890336 0.07142857142857136 0.07142857142857136 0.06224953499411104 0.06224953499411104 0.051167285531803025 0.051167285531803025 0.07007738692683871 0.07007738692683871 
244.00111814931194 0.057142857142857204 0.057142857142857204 0.04796382070839668 0.04796382070839668 0.0371674538008598 0.0371674538008598 0.05607755519589547 0.05607755519589547 
245.0033610890336 0.057142857142857204 0.057142857142857204 0.04796382070839668 0.04796382070839668 0.0371674538008598 0.0371674538008598 0.05607755519589547 0.05607755519589547 
246.00111814931194 0.057142857142857204 0.057142857142857204 0.040500715112902756 0.040500715112902756 0.042230307525198525 0.042230307525198525 0.048614449600401566 0.048614449600401566 
247.0033610890336 0.057142857142857204 0.057142857142857204 0.040500715112902756 0.040500715112902756 0.042230307525198525 0.042230307525198525 0.048614449600401566 0.048614449600401566 
248.00111814931194 0.057142857142857204 0.057142857142857204 0.04056472517603121 0.04056472517603121 0.04867845966353001 0.04867845966353001 0.04867845966353001 0.04867845966353001 
249.0033610890336 0.057142857142857204 0.057142857142857204 0.04056472517603121 0.04056472517603121 0.04867845966353001 0.04867845966353001 0.04867845966353001 0.04867845966353001 
250.00111814931194 0.057142857142857204 0.057142857142857204 0.03280977385027186 0.03280977385027186 0.040334165581312684 0.040334165581312684 0.04092350833777058 0.04092350833777058 
251.0033610890336 0.057142857142857204 0.057142857142857204 0.03280977385027186 0.03280977385027186 0.040334165581312684 0.040334165581312684 0.04092350833777058 0.04092350833777058 
252.00111814931194 0.057142857142857204 0.057142857142857204 0.03280977385027186 0.03280977385027186 0.040334165581312684 0.040334165581312684 0.04092350833777058 0.04092350833777058 
253.0033610890336 0.057142857142857204 0.057142857142857204 0.03280977385027186 0.03280977385027186 0.040334165581312684 0.040334165581312684 0.04092350833777058 0.04092350833777058 
254.00111814931194 0.057142857142857204 0.057142857142857204 0.03280977385027186 0.03280977385027186 0.040667864753703625 0.040667864753703625 0.04125720751016147 0.04125720751016147 
255.0033610890336 0.057142857142857204 0.057142857142857204 0.03280977385027186 0.03280977385027186 0.040667864753703625 0.040667864753703625 0.04125720751016147 0.04125720751016147 
256.00111814931194 0.057142857142857204 0.057142857142857204 0.03282921328528487 0.03282921328528487 0.04068730418871663 0.04068730418871663 0.04127664694517449 0.04127664694517449 
257.0033610890336 0.057142857142857204 0.057142857142857204 0.03282921328528487 0.03282921328528487 0.026401589903002322 0.026401589903002322 0.026990932659460218 0.026990932659460218 
258.00111814931194 0.057142857142857204 0.057142857142857204 0.032933849831858646 0.032933849831858646 0.027095569206034027 0.027095569206034027 0.027095569206034027 0.027095569206034027 
259.0033610890336 0.057142857142857204 0.057142857142857204 0.032933849831858646 0.032933849831858646 0.027095569206034027 0.027095569206034027 0.027095569206034027 0.027095569206034027 
260.00111814931194 0.057142857142857204 0.057142857142857204 0.032943203562367705 0.032943203562367705 0.027104922936543076 0.027104922936543076 0.027104922936543076 0.027104922936543076 
261.0033610890336 0.057142857142857204 0.057142857142857204 0.032943203562367705 0.032943203562367705 0.027104922936543076 0.027104922936543076 0.027104922936543076 0.027104922936543076 
262.00111814931194 0.057142857142857204 0.057142857142857204 0.032943203562367705 0.032943203562367705 0.027104922936543076 0.027104922936543076 0.027104922936543076 0.027104922936543076 
263.0033610890336 0.057142857142857204 0.057142857142857204 0.032943203562367705 0.032943203562367705 0.027104922936543076 0.027104922936543076 0.027104922936543076 0.027104922936543076 
264.00111814931194 0.04285714285714288 0.04285714285714288 0.018657489276653436 0.018657489276653436 0.032943203562367705 0.032943203562367705 0.032943203562367705 0.032943203562367705 
265.0033610890336 0.04285714285714288 0.04285714285714288 0.018657489276653436 0.018657489276653436 0.032943203562367705 0.032943203562367705 0.032943203562367705 0.032943203562367705 
266.00111814931194 0.04285714285714288 0.04285714285714288 0.01870158882168557 0.01870158882168557 0.03298730310739985 0.03298730310739985 0.03298730310739985 0.03298730310739985 
267.0033610890336 0.04285714285714288 0.04285714285714288 0.01870158882168557 0.01870158882168557 0.03298730310739985 0.03298730310739985 0.03298730310739985 0.03298730310739985 
268.00111814931194 0.04285714285714288 0.04285714285714288 0.04285714285714288 0.04285714285714288 0.033106078457909534 0.033106078457909534 0.033106078457909534 0.033106078457909534 
269.0033610890336 0.04285714285714288 0.04285714285714288 0.04285714285714288 0.04285714285714288 0.033106078457909534 0.033106078457909534 0.033106078457909534 0.033106078457909534 
270.00111814931194 0.04285714285714288 0.04285714285714288 0.03410136146942714 0.03410136146942714 0.03314008799562016 0.03314008799562016 0.03314008799562016 0.03314008799562016 
271.0033610890336 0.04285714285714288 0.04285714285714288 0.03410136146942714 0.03410136146942714 0.03314008799562016 0.03314008799562016 0.03314008799562016 0.03314008799562016 
272.00111814931194 0.04285714285714288 0.04285714285714288 0.04285714285714288 0.04285714285714288 0.03314008799562016 0.03314008799562016 0.03314008799562016 0.03314008799562016 
273.0033610890336 0.04285714285714288 0.04285714285714288 0.04285714285714288 0.04285714285714288 0.03314008799562016 0.03314008799562016 0.03314008799562016 0.03314008799562016 
274.00111814931194 0.04285714285714288 0.04285714285714288 0.04285714285714288 0.04285714285714288 0.03314008799562016 0.03314008799562016 0.03314008799562016 0.03314008799562016 
275.0033610890336 0.04285714285714288 0.04285714285714288 0.04285714285714288 0.04285714285714288 0.03314008799562016 0.03314008799562016 0.03314008799562016 0.03314008799562016 
276.00111814931194 0.04285714285714288 0.04285714285714288 0.04285714285714288 0.04285714285714288 0.03321100119169321 0.03321100119169321 0.03321100119169321 0.03321100119169321 
277.0033610890336 0.04285714285714288 0.04285714285714288 0.04285714285714288 0.04285714285714288 0.03321100119169321 0.03321100119169321 0.03321100119169321 0.03321100119169321 
278.00111814931194 0.04285714285714288 0.04285714285714288 0.04285714285714288 0.04285714285714288 0.033242162119396776 0.033242162119396776 0.033242162119396776 0.033242162119396776 
279.0033610890336 0.04285714285714288 0.04285714285714288 0.04285714285714288 0.04285714285714288 0.033242162119396776 0.033242162119396776 0.033242162119396776 0.033242162119396776 
280.00111814931194 0.04285714285714288 0.04285714285714288 0.04285714285714288 0.04285714285714288 0.03329638728825312 0.03329638728825312 0.03329638728825312 0.03329638728825312 
281.0033610890336 0.04285714285714288 0.04285714285714288 0.04285714285714288 0.04285714285714288 0.03329638728825312 0.03329638728825312 0.03329638728825312 0.03329638728825312 
282.00111814931194 0.04285714285714288 0.04285714285714288 0.04285714285714288 0.04285714285714288 0.03329638728825312 0.03329638728825312 0.03329638728825312 0.03329638728825312 
283.0033610890336 0.04285714285714288 0.04285714285714288 0.04285714285714288 0.04285714285714288 0.03329638728825312 0.03329638728825312 0.03329638728825312 0.03329638728825312 
284.00111814931194 0.04285714285714288 0.04285714285714288 0.04285714285714288 0.04285714285714288 0.019010673002538826 0.019010673002538826 0.019010673002538826 0.019010673002538826 
285.0033610890336 0.04285714285714288 0.04285714285714288 0.04285714285714288 0.04285714285714288 0.019010673002538826 0.019010673002538826 0.019010673002538826 0.019010673002538826 
286.00111814931194 0.04285714285714288 0.04285714285714288 0.04285714285714288 0.04285714285714288 0.019125695508643008 0.019125695508643008 0.019125695508643008 0.019125695508643008 
287.0033610890336 0.04285714285714288 0.04285714285714288 0.04285714285714288 0.04285714285714288 0.019125695508643008 0.019125695508643008 0.019125695508643008 0.019125695508643008 
288.00111814931194 0.04285714285714288 0.04285714285714288 0.04285714285714288 0.04285714285714288 0.01914289296069366 0.01914289296069366 0.01914289296069366 0.01914289296069366 
289.0033610890336 0.04285714285714288 0.04285714285714288 0.04285714285714288 0.04285714285714288 0.01914289296069366 0.01914289296069366 0.01914289296069366 0.01914289296069366 
290.00111814931194 0.04285714285714288 0.04285714285714288 0.04285714285714288 0.04285714285714288 0.01923322379733125 0.01923322379733125 0.01923322379733125 0.01923322379733125 
291.0033610890336 0.04285714285714288 0.04285714285714288 0.04285714285714288 0.04285714285714288 0.01923322379733125 0.01923322379733125 0.01923322379733125 0.01923322379733125 
292.00111814931194 0.04285714285714288 0.04285714285714288 0.04285714285714288 0.04285714285714288 0.01923322379733125 0.01923322379733125 0.01923322379733125 0.01923322379733125 
293.0033610890336 0.04285714285714288 0.04285714285714288 0.04285714285714288 0.04285714285714288 0.01923322379733125 0.01923322379733125 0.01923322379733125 0.01923322379733125 
294.00111814931194 0.04285714285714288 0.04285714285714288 0.04285714285714288 0.04285714285714288 0.01923322379733125 0.01923322379733125 0.01923322379733125 0.01923322379733125 
295.0033610890336 0.04285714285714288 0.04285714285714288 0.04285714285714288 0.04285714285714288 0.01923322379733125 0.01923322379733125 0.01923322379733125 0.01923322379733125 
296.00111814931194 0.04285714285714288 0.04285714285714288 0.04285714285714288 0.04285714285714288 0.019336635310040026 0.019336635310040026 0.019336635310040026 0.019336635310040026 
297.0033610890336 0.04285714285714288 0.04285714285714288 0.04285714285714288 0.04285714285714288 0.019336635310040026 0.019336635310040026 0.019336635310040026 0.019336635310040026 
298.00111814931194 0.04285714285714288 0.04285714285714288 0.04285714285714288 0.04285714285714288 0.019271348394792245 0.019271348394792245 0.019271348394792245 0.019271348394792245 
299.0033610890336 0.04285714285714288 0.04285714285714288 0.04285714285714288 0.04285714285714288 0.019271348394792245 0.019271348394792245 0.019271348394792245 0.019271348394792245 
300.00111814931194 0.04285714285714288 0.04285714285714288 0.04285714285714288 0.04285714285714288 0.019409059254084586 0.019409059254084586 0.019409059254084586 0.019409059254084586 
#####################################################################
# End of data export. Simulation finished at: 2017-02-14T18:20+0000 #
#####################################################################
