#####################################################################
# Alchemist log file - simulation started at: 2017-02-14T18:19+0000 #
#####################################################################
# seed = 41.0
#
# The columns have the following meaning: 
# time go-co-to[Mean] go-co-tsync[Mean] go-cmp-to[Mean] go-cmp-tsync[Mean] flex-co-to[Mean] flex-co-tsync[Mean] flex-cmp-to[Mean] flex-cmp-tsync[Mean] 
0.0 NaN NaN NaN NaN NaN NaN NaN NaN 
1.004107070233899 NaN NaN NaN NaN NaN NaN NaN NaN 
2.024143745414181 NaN NaN NaN NaN NaN NaN NaN NaN 
3.004107070233899 NaN NaN NaN NaN NaN NaN NaN NaN 
4.024143745414181 NaN NaN NaN NaN NaN NaN NaN NaN 
5.004107070233899 NaN NaN NaN NaN NaN NaN NaN NaN 
6.0192917134237085 NaN NaN NaN NaN NaN NaN NaN NaN 
7.004107070233899 NaN NaN NaN NaN NaN NaN NaN NaN 
8.02414374541418 NaN NaN NaN NaN NaN NaN NaN NaN 
9.0041070702339 NaN NaN NaN NaN NaN NaN NaN NaN 
10.02414374541418 NaN NaN NaN NaN NaN NaN NaN NaN 
11.0041070702339 NaN NaN NaN NaN NaN NaN NaN NaN 
12.02414374541418 NaN NaN NaN NaN NaN NaN NaN NaN 
13.0041070702339 NaN NaN NaN NaN NaN NaN NaN NaN 
14.02414374541418 NaN NaN NaN NaN NaN NaN NaN NaN 
15.0041070702339 NaN NaN NaN NaN NaN NaN NaN NaN 
16.01929171342371 NaN NaN NaN NaN NaN NaN NaN NaN 
17.0041070702339 NaN NaN NaN NaN NaN NaN NaN NaN 
18.02414374541418 NaN NaN NaN NaN NaN NaN NaN NaN 
19.0041070702339 NaN NaN NaN NaN NaN NaN NaN NaN 
20.02414374541418 NaN NaN NaN NaN NaN NaN NaN NaN 
21.0041070702339 1.0 1.0 1.0 1.0 1.0 1.0 1.0 1.0 
22.02414374541418 1.0 1.0 1.0 1.0 1.0 1.0 1.0 1.0 
23.0041070702339 1.0 1.0 1.0 1.0 1.0 1.0 1.0 1.0 
24.02414374541418 1.0 1.0 1.0 1.0 1.0 1.0 1.0 1.0 
25.0041070702339 1.0 1.0 1.0 1.0 1.0 1.0 1.0 1.0 
26.01929171342371 0.9795918367346939 0.9795918367346939 0.9795918367346939 0.9795918367346939 0.9795918367346939 0.9795918367346939 0.9795918367346939 0.9795918367346939 
27.0041070702339 0.9795918367346939 0.9795918367346939 0.9795918367346939 0.9795918367346939 0.9795918367346939 0.9795918367346939 0.9795918367346939 0.9795918367346939 
28.02414374541418 0.9795918367346939 0.9795918367346939 0.9795918367346939 0.9795918367346939 0.9795918367346939 0.9795918367346939 0.9795918367346939 0.9795918367346939 
29.0041070702339 0.9795918367346939 0.9795918367346939 0.9795918367346939 0.9795918367346939 0.9795918367346939 0.9795918367346939 0.9795918367346939 0.9795918367346939 
30.02414374541418 0.9795918367346939 0.9795918367346939 0.9795918367346939 0.9795918367346939 0.9795918367346939 0.9795918367346939 0.9795918367346939 0.9795918367346939 
31.0041070702339 0.9591836734693877 0.9591836734693877 0.9591836734693877 0.9591836734693877 0.9591836734693877 0.9591836734693877 0.9591836734693877 0.9591836734693877 
32.02414374541418 0.9591836734693877 0.9591836734693877 0.9591836734693877 0.9591836734693877 0.9591836734693877 0.9591836734693877 0.9591836734693877 0.9591836734693877 
33.0041070702339 0.9591836734693877 0.9591836734693877 0.9591836734693877 0.9591836734693877 0.9591836734693877 0.9591836734693877 0.9591836734693877 0.9591836734693877 
34.02414374541418 0.9591836734693877 0.9591836734693877 0.9591836734693877 0.9591836734693877 0.9591836734693877 0.9591836734693877 0.9591836734693877 0.9591836734693877 
35.0041070702339 0.9591836734693877 0.9591836734693877 0.9591836734693877 0.9591836734693877 0.9591836734693877 0.9591836734693877 0.9591836734693877 0.9591836734693877 
36.01929171342371 0.9591836734693877 0.9591836734693877 0.9591836734693877 0.9591836734693877 0.9591836734693877 0.9591836734693877 0.9591836734693877 0.9591836734693877 
37.0041070702339 0.9591836734693877 0.9591836734693877 0.9591836734693877 0.9591836734693877 0.9591836734693877 0.9591836734693877 0.9591836734693877 0.9591836734693877 
38.02414374541418 0.9183673469387755 0.9183673469387755 0.9183673469387755 0.9183673469387755 0.9183673469387755 0.9183673469387755 0.9183673469387755 0.9183673469387755 
39.0041070702339 0.9183673469387755 0.9183673469387755 0.9183673469387755 0.9183673469387755 0.9183673469387755 0.9183673469387755 0.9183673469387755 0.9183673469387755 
40.02414374541418 0.8979591836734694 0.8979591836734694 0.8979591836734694 0.8979591836734694 0.8979591836734694 0.8979591836734694 0.8979591836734694 0.8979591836734694 
41.0041070702339 0.8775510204081632 0.8775510204081632 0.8775510204081632 0.8775510204081632 0.8775510204081632 0.8775510204081632 0.8775510204081632 0.8775510204081632 
42.02414374541418 0.8775510204081632 0.8775510204081632 0.8775510204081632 0.8775510204081632 0.8775510204081632 0.8775510204081632 0.8775510204081632 0.8775510204081632 
43.0041070702339 0.8775510204081632 0.8775510204081632 0.8775510204081632 0.8775510204081632 0.8775510204081632 0.8775510204081632 0.8775510204081632 0.8775510204081632 
44.02414374541418 0.8775510204081632 0.8775510204081632 0.8775510204081632 0.8775510204081632 0.8775510204081632 0.8775510204081632 0.8775510204081632 0.8775510204081632 
45.0041070702339 0.8775510204081632 0.8775510204081632 0.8775510204081632 0.8775510204081632 0.8775510204081632 0.8775510204081632 0.8775510204081632 0.8775510204081632 
46.01929171342371 0.8571428571428571 0.8571428571428571 0.8571428571428571 0.8571428571428571 0.8571428571428571 0.8571428571428571 0.8571428571428571 0.8571428571428571 
47.0041070702339 0.8163265306122449 0.8163265306122449 0.8163265306122449 0.8163265306122449 0.8138933372582837 0.8138933372582837 0.8163265306122449 0.8163265306122449 
48.02414374541418 0.8163265306122449 0.8163265306122449 0.8163265306122449 0.8163265306122449 0.7730799499251393 0.7730799499251393 0.8163265306122449 0.8163265306122449 
49.0041070702339 0.8163265306122449 0.8163265306122449 0.8163265306122449 0.8163265306122449 0.7705697186851784 0.7705697186851784 0.8113831060183229 0.8113831060183229 
50.02414374541418 0.8163265306122449 0.8163265306122449 0.8163265306122449 0.8163265306122449 0.7335144942998105 0.7335144942998105 0.7705763681509501 0.7705763681509501 
51.0041070702339 0.8163265306122449 0.8163265306122449 0.8113831060183229 0.8113831060183229 0.722700544134563 0.722700544134563 0.7705763681509501 0.7705763681509501 
52.02414374541418 0.8163265306122449 0.8163265306122449 0.7706909640680448 0.7706909640680448 0.7395541630295809 0.7395541630295809 0.7611000312609818 0.7611000312609818 
53.0041070702339 0.8163265306122449 0.8163265306122449 0.7706909640680448 0.7706909640680448 0.7392281027077366 0.7392281027077366 0.7503139101089192 0.7503139101089192 
54.02414374541418 0.8163265306122449 0.8163265306122449 0.7328079896752194 0.7328079896752194 0.7216679791881276 0.7216679791881276 0.747673975449021 0.747673975449021 
55.0041070702339 0.7959183673469388 0.7959183673469388 0.7040181638842791 0.7040181638842791 0.6861551173412399 0.6861551173412399 0.7298612831521709 0.7298612831521709 
56.01929171342371 0.7959183673469388 0.7959183673469388 0.723698398410902 0.723698398410902 0.7058353518678628 0.7058353518678628 0.7206002227977045 0.7206002227977045 
57.0041070702339 0.7959183673469388 0.7959183673469388 0.723698398410902 0.723698398410902 0.7058353518678628 0.7058353518678628 0.7087993362506201 0.7087993362506201 
58.02414374541418 0.7959183673469388 0.7959183673469388 0.694872290506351 0.694872290506351 0.6767164775248506 0.6767164775248506 0.6878149317538186 0.6878149317538186 
59.0041070702339 0.7959183673469388 0.7959183673469388 0.678027373154293 0.678027373154293 0.677734606715832 0.677734606715832 0.6707909357738795 0.6707909357738795 
60.02414374541418 0.7959183673469388 0.7959183673469388 0.660636747416963 0.660636747416963 0.6815530673529179 0.6815530673529179 0.6324739953174553 0.6324739953174553 
61.0041070702339 0.7959183673469388 0.7959183673469388 0.6526360788823062 0.6526360788823062 0.6698944921770914 0.6698944921770914 0.6242350856316623 0.6242350856316623 
62.02414374541418 0.7755102040816326 0.7755102040816326 0.6173107526930528 0.6173107526930528 0.6358589581968762 0.6358589581968762 0.6218994171631648 0.6218994171631648 
63.0041070702339 0.7755102040816326 0.7755102040816326 0.629352314692515 0.629352314692515 0.631285700706143 0.631285700706143 0.6124633050041286 0.6124633050041286 
64.02414374541418 0.7755102040816326 0.7755102040816326 0.6475033898792525 0.6475033898792525 0.6122203795400541 0.6122203795400541 0.5931103051995305 0.5931103051995305 
65.0041070702339 0.7755102040816326 0.7755102040816326 0.5953853194346374 0.5953853194346374 0.5732424039880747 0.5732424039880747 0.5744971028974879 0.5744971028974879 
66.01929171342371 0.7755102040816326 0.7755102040816326 0.5560162379513374 0.5560162379513374 0.5296577448833892 0.5296577448833892 0.5239187621050166 0.5239187621050166 
67.0041070702339 0.7755102040816326 0.7755102040816326 0.5460536120451449 0.5460536120451449 0.5265304081010652 0.5265304081010652 0.5136587940839633 0.5136587940839633 
68.02414374541418 0.7755102040816326 0.7755102040816326 0.5308177361689556 0.5308177361689556 0.4961986636173212 0.4961986636173212 0.4961986636173212 0.4961986636173212 
69.0041070702339 0.7755102040816326 0.7755102040816326 0.538402512147536 0.538402512147536 0.4683619523137488 0.4683619523137488 0.46841360660870796 0.46841360660870796 
70.02414374541418 0.7551020408163266 0.7551020408163266 0.5438300278556484 0.5438300278556484 0.4262653290140519 0.4262653290140519 0.4291576991511693 0.4291576991511693 
71.0041070702339 0.7551020408163266 0.7551020408163266 0.5447021027241835 0.5447021027241835 0.41446446568176976 0.41446446568176976 0.41900088755908055 0.41900088755908055 
72.02414374541418 0.7346938775510204 0.7346938775510204 0.547741498480455 0.547741498480455 0.42696932573676155 0.42696932573676155 0.42196424261663834 0.42196424261663834 
73.0041070702339 0.7346938775510204 0.7346938775510204 0.5781004645348196 0.5781004645348196 0.4485117631336589 0.4485117631336589 0.44185869331080524 0.44185869331080524 
74.02414374541418 0.7142857142857142 0.7142857142857142 0.610951577118135 0.610951577118135 0.46500899473985613 0.46500899473985613 0.47058249964282517 0.47058249964282517 
75.0041070702339 0.7142857142857142 0.7142857142857142 0.5790853907706786 0.5790853907706786 0.47381753880194205 0.47381753880194205 0.47934332437248883 0.47934332437248883 
76.01929171342371 0.7142857142857142 0.7142857142857142 0.5350171515656595 0.5350171515656595 0.47863602855876464 0.47863602855876464 0.4870714803953687 0.4870714803953687 
77.0041070702339 0.6938775510204082 0.6938775510204082 0.5379061898697025 0.5379061898697025 0.4973496342872574 0.4973496342872574 0.4737965326506308 0.4737965326506308 
78.02414374541418 0.6938775510204082 0.6938775510204082 0.5012216817763525 0.5012216817763525 0.5253815104597312 0.5253815104597312 0.47663299526243086 0.47663299526243086 
79.0041070702339 0.6736880948420395 0.6736880948420395 0.4931852323470241 0.4931852323470241 0.5486011919450589 0.5486011919450589 0.49430971603704704 0.49430971603704704 
80.02414374541418 0.6535352209251591 0.6535352209251591 0.561621323344774 0.561621323344774 0.5173496019995812 0.5173496019995812 0.4908754317544082 0.4908754317544082 
81.0041070702339 0.6539634425725507 0.6539634425725507 0.5544348998664301 0.5544348998664301 0.47104753882912126 0.47104753882912126 0.48210488276789015 0.48210488276789015 
82.02414374541418 0.6337873324186086 0.6337873324186086 0.5176798246828537 0.5176798246828537 0.45056128867301504 0.45056128867301504 0.4542226005661843 0.4542226005661843 
83.0041070702339 0.6384131537124036 0.6384131537124036 0.5138484223736718 0.5138484223736718 0.4663373141358259 0.4663373141358259 0.4542226005661843 0.4542226005661843 
84.02414374541418 0.6180049904470974 0.6180049904470974 0.4965124963629486 0.4965124963629486 0.48842066070825724 0.48842066070825724 0.46041602983315894 0.46041602983315894 
85.0041070702339 0.5864744156929435 0.5864744156929435 0.5024101660173264 0.5024101660173264 0.4557176589609908 0.4557176589609908 0.45837031060764327 0.45837031060764327 
86.01929171342371 0.5746271436061108 0.5746271436061108 0.4791630692504392 0.4791630692504392 0.43816334837989873 0.43816334837989873 0.41935971775468733 0.41935971775468733 
87.0041070702339 0.5754180891566996 0.5754180891566996 0.47234732632010484 0.47234732632010484 0.4723152113518724 0.4723152113518724 0.43286386397981585 0.43286386397981585 
88.02414374541418 0.498676362869183 0.498676362869183 0.4410384879721919 0.4410384879721919 0.44826986840146776 0.44826986840146776 0.4413164894470278 0.4413164894470278 
89.0041070702339 0.4739016089717766 0.4739016089717766 0.45765587645595474 0.45765587645595474 0.44727890726023967 0.44727890726023967 0.44274085098286864 0.44274085098286864 
90.02414374541418 0.42900174135456914 0.42900174135456914 0.42860309718972234 0.42860309718972234 0.45478210265251656 0.45478210265251656 0.43087193060953377 0.43087193060953377 
91.0041070702339 0.41165761277770563 0.41165761277770563 0.4282639995194315 0.4282639995194315 0.4496496687995343 0.4496496687995343 0.4282282215908381 0.4282282215908381 
92.02414374541418 0.3852955269722868 0.3852955269722868 0.4056413467054473 0.4056413467054473 0.40378631890558514 0.40378631890558514 0.4050079069672063 0.4050079069672063 
93.0041070702339 0.408361920472656 0.408361920472656 0.4101640654573601 0.4101640654573601 0.4074466254809483 0.4074466254809483 0.409530625719119 0.409530625719119 
94.02414374541418 0.40895101927455213 0.40895101927455213 0.4197159121617278 0.4197159121617278 0.44287208289940216 0.44287208289940216 0.44750256951866035 0.44750256951866035 
95.0041070702339 0.4243254078644123 0.4243254078644123 0.4199840754742577 0.4199840754742577 0.4434306613871451 0.4434306613871451 0.44806114800640323 0.44806114800640323 
96.01929171342371 0.45462167174117296 0.45462167174117296 0.413128039079412 0.413128039079412 0.4378546110948029 0.4378546110948029 0.44392876310494106 0.44392876310494106 
97.0041070702339 0.44470551507250927 0.44470551507250927 0.39998734358524884 0.39998734358524884 0.4367823296850523 0.4367823296850523 0.4428564816951905 0.4428564816951905 
98.02414374541418 0.44297532796050054 0.44297532796050054 0.41169573615221655 0.41169573615221655 0.44288851710911536 0.44288851710911536 0.44459331472646724 0.44459331472646724 
99.0041070702339 0.43444194065795966 0.43444194065795966 0.4130107896435084 0.4130107896435084 0.445321826936875 0.445321826936875 0.447026624554227 0.447026624554227 
100.02414374541418 0.432086316852124 0.432086316852124 0.42900370710752195 0.42900370710752195 0.45400587758507177 0.45400587758507177 0.4550320618045433 0.4550320618045433 
101.0041070702339 0.4638142190978981 0.4638142190978981 0.4290171541673582 0.4290171541673582 0.45400587758507177 0.45400587758507177 0.4550320618045433 0.4550320618045433 
102.02414374541418 0.5130283720383064 0.5130283720383064 0.4097871827888661 0.4097871827888661 0.45056384655591175 0.45056384655591175 0.45159003077538334 0.45159003077538334 
103.0041070702339 0.4635712395903487 0.4635712395903487 0.39424576178810566 0.39424576178810566 0.4480031181791618 0.4480031181791618 0.44902930239863337 0.44902930239863337 
104.02414374541418 0.44702970477382326 0.44702970477382326 0.3883634514098605 0.3883634514098605 0.46492993948972783 0.46492993948972783 0.447268957064316 0.447268957064316 
105.0041070702339 0.47947262202980867 0.47947262202980867 0.37798527539180016 0.37798527539180016 0.4847392571868785 0.4847392571868785 0.4572989443115619 0.4572989443115619 
106.01929171342371 0.4623062396941414 0.4623062396941414 0.3977411669043651 0.3977411669043651 0.49517340777422203 0.49517340777422203 0.45677493059407426 0.45677493059407426 
107.0041070702339 0.4403687716903312 0.4403687716903312 0.3852199073800619 0.3852199073800619 0.5116442092926385 0.5116442092926385 0.4720635584572688 0.4720635584572688 
108.02414374541418 0.5050801547863514 0.5050801547863514 0.3727903530610461 0.3727903530610461 0.49229940002845207 0.49229940002845207 0.46048514177936245 0.46048514177936245 
109.0041070702339 0.4882733365908202 0.4882733365908202 0.3738145354949055 0.3738145354949055 0.4721387903285899 0.4721387903285899 0.44153771567360106 0.44153771567360106 
110.02414374541418 0.44172832169146997 0.44172832169146997 0.3429972842436199 0.3429972842436199 0.4500545061084045 0.4500545061084045 0.415812330199635 0.415812330199635 
111.0041070702339 0.45998466425647766 0.45998466425647766 0.34309525229442717 0.34309525229442717 0.42964634284309833 0.42964634284309833 0.415812330199635 0.415812330199635 
112.02414374541418 0.4642727241599931 0.4642727241599931 0.3367579145732546 0.3367579145732546 0.45655783819492324 0.45655783819492324 0.4089252701158571 0.4089252701158571 
113.0041070702339 0.4642727241599931 0.4642727241599931 0.3367579145732546 0.3367579145732546 0.4671301756305591 0.4671301756305591 0.388517106850551 0.388517106850551 
114.02414374541418 0.4691872574707729 0.4691872574707729 0.3386356077582699 0.3386356077582699 0.47391734309550215 0.47391734309550215 0.4030929260120238 0.4030929260120238 
115.0041070702339 0.4691950218243404 0.4691950218243404 0.33869491549516784 0.33869491549516784 0.45350917983019606 0.45350917983019606 0.38273630613004805 0.38273630613004805 
116.01929171342371 0.4754932828675081 0.4754932828675081 0.3621654489978152 0.3621654489978152 0.456214424300925 0.456214424300925 0.3794339963092307 0.3794339963092307 
117.0041070702339 0.4762987689302586 0.4762987689302586 0.3725222470680084 0.3725222470680084 0.456214424300925 0.456214424300925 0.3794339963092307 0.3794339963092307 
118.02414374541418 0.46462748339349186 0.46462748339349186 0.37899264611310457 0.37899264611310457 0.4545054018929357 0.4545054018929357 0.3727183545301764 0.3727183545301764 
119.0041070702339 0.46466926697147853 0.46466926697147853 0.386760929248561 0.386760929248561 0.45193896345077206 0.45193896345077206 0.3701519160880126 0.3701519160880126 
120.02414374541418 0.4648641678727018 0.4648641678727018 0.38896100547278556 0.38896100547278556 0.45454445483103695 0.45454445483103695 0.3750563171525097 0.3750563171525097 
121.0041070702339 0.4648641678727018 0.4648641678727018 0.40013920122199337 0.40013920122199337 0.45454445483103695 0.45454445483103695 0.3750563171525097 0.3750563171525097 
122.02414374541418 0.45531376301279597 0.45531376301279597 0.4488620424127689 0.4488620424127689 0.4521014667928049 0.4521014667928049 0.39062117793674195 0.39062117793674195 
123.0041070702339 0.45531376301279597 0.45531376301279597 0.4488620424127689 0.4488620424127689 0.4521014667928049 0.4521014667928049 0.39062117793674195 0.39062117793674195 
124.02414374541418 0.45557982732404995 0.45557982732404995 0.44912810672402287 0.44912810672402287 0.4120260191645529 0.4120260191645529 0.36576365330296784 0.36576365330296784 
125.0041070702339 0.4547211510499412 0.4547211510499412 0.4519819882265708 0.4519819882265708 0.3883519488636537 0.3883519488636537 0.36235869756540007 0.36235869756540007 
126.01929171342371 0.45472970636131077 0.45472970636131077 0.4519905435379404 0.4519905435379404 0.36743082984190184 0.36743082984190184 0.35204033921360073 0.35204033921360073 
127.0041070702339 0.45560965729135133 0.45560965729135133 0.452870494467981 0.452870494467981 0.3742375650260519 0.3742375650260519 0.35204033921360073 0.35204033921360073 
128.02414374541416 0.45560965729135133 0.45560965729135133 0.45560965729135133 0.45560965729135133 0.3820100023954928 0.3820100023954928 0.3520301454784827 0.3520301454784827 
129.00410707023389 0.43528222638892916 0.43528222638892916 0.43528222638892916 0.43528222638892916 0.3969814882842411 0.3969814882842411 0.34297135096142994 0.34297135096142994 
130.02414374541416 0.43551076483351775 0.43551076483351775 0.43551076483351775 0.43551076483351775 0.3781618191267244 0.3781618191267244 0.34907666618257466 0.34907666618257466 
131.00410707023389 0.43551076483351775 0.43551076483351775 0.43551076483351775 0.43551076483351775 0.3715298285963511 0.3715298285963511 0.34907666618257466 0.34907666618257466 
132.02414374541416 0.3939447616391535 0.3939447616391535 0.37428568471664586 0.37428568471664586 0.3130983486478728 0.3130983486478728 0.29506453935996557 0.29506453935996557 
133.00410707023389 0.3727147449311863 0.3727147449311863 0.35305566800867866 0.35305566800867866 0.29663694886119596 0.29663694886119596 0.2786031395732887 0.2786031395732887 
134.02414374541416 0.38655619931938145 0.38655619931938145 0.352254196253201 0.352254196253201 0.3116696380456827 0.3116696380456827 0.2861412979642345 0.2861412979642345 
135.00410707023389 0.3913248162406718 0.3913248162406718 0.3421286648146874 0.3421286648146874 0.31318590650479833 0.31318590650479833 0.2862624316521378 0.2862624316521378 
136.0192917134237 0.3913248162406718 0.3913248162406718 0.3570187305176528 0.3570187305176528 0.30472257173174927 0.30472257173174927 0.2859577524930847 0.2859577524930847 
137.00410707023389 0.3709166529753657 0.3709166529753657 0.3366105672523466 0.3366105672523466 0.2843144084664432 0.2843144084664432 0.2655495892277786 0.2655495892277786 
138.02414374541416 0.3709166529753657 0.3709166529753657 0.26108452665036946 0.26108452665036946 0.2925614564244957 0.2925614564244957 0.26543047965749145 0.26543047965749145 
139.00410707023389 0.3716709224214873 0.3716709224214873 0.26183879609649113 0.26183879609649113 0.2953536168855075 0.2953536168855075 0.2682226401185032 0.2682226401185032 
140.02414374541416 0.37332638015120406 0.37332638015120406 0.2794737215687486 0.2794737215687486 0.29984539831238516 0.29984539831238516 0.27169789460702237 0.27169789460702237 
141.00410707023389 0.352918216885898 0.352918216885898 0.2528145626295596 0.2528145626295596 0.27477046549880085 0.27477046549880085 0.2512897313417162 0.2512897313417162 
142.02414374541416 0.352918216885898 0.352918216885898 0.2454904395679048 0.2454904395679048 0.29996649170357653 0.29996649170357653 0.25050754277299087 0.25050754277299087 
143.00410707023389 0.352918216885898 0.352918216885898 0.2454904395679048 0.2454904395679048 0.31148904344328915 0.31148904344328915 0.25050754277299087 0.25050754277299087 
144.02414374541416 0.3548753873809701 0.3548753873809701 0.24017631169714335 0.24017631169714335 0.3213899606077273 0.3213899606077273 0.25246471326806297 0.25246471326806297 
145.00410707023389 0.3548753873809701 0.3548753873809701 0.24369471161229164 0.24369471161229164 0.3294283267760966 0.3294283267760966 0.256508340200417 0.256508340200417 
146.0192917134237 0.3548753873809701 0.3548753873809701 0.2634012698846027 0.2634012698846027 0.32073169214306246 0.32073169214306246 0.2561788250041092 0.2561788250041092 
147.00410707023389 0.3548753873809701 0.3548753873809701 0.2634012698846027 0.2634012698846027 0.32073169214306246 0.32073169214306246 0.2561788250041092 0.2561788250041092 
148.02414374541416 0.3571784954010343 0.3571784954010343 0.2500292677128713 0.2500292677128713 0.31897613280498066 0.31897613280498066 0.256081118954661 0.256081118954661 
149.00410707023389 0.3525136265804709 0.3525136265804709 0.24391803320441452 0.24391803320441452 0.29814797163299944 0.29814797163299944 0.2556611210479859 0.2556611210479859 
150.02414374541416 0.3352050019047218 0.3352050019047218 0.2235031286336185 0.2235031286336185 0.32380641540016464 0.32380641540016464 0.24030539758766645 0.24030539758766645 
151.00410707023389 0.3408962385065036 0.3408962385065036 0.22919436523540024 0.22919436523540024 0.3070481963979012 0.3070481963979012 0.22051658677190478 0.22051658677190478 
152.02414374541416 0.35041340156757456 0.35041340156757456 0.23874759995497438 0.23874759995497438 0.3253271004835545 0.3253271004835545 0.22055265843040792 0.22055265843040792 
153.00410707023389 0.3448445034680652 0.3448445034680652 0.23317870185546505 0.23317870185546505 0.3259641728044527 0.3259641728044527 0.22118973075130618 0.22118973075130618 
154.02414374541416 0.3418501212198711 0.3418501212198711 0.23707567916672448 0.23707567916672448 0.3136677095967884 0.3136677095967884 0.20889326754364182 0.20889326754364182 
155.00410707023389 0.353287031180897 0.353287031180897 0.24750941722951764 0.24750941722951764 0.29657030290018094 0.29657030290018094 0.19079268894880155 0.19079268894880155 
156.0192917134237 0.3490102894194144 0.3490102894194144 0.22818782999800344 0.22818782999800344 0.24881396936141295 0.24881396936141295 0.18885298296075578 0.18885298296075578 
157.00410707023389 0.3490102894194144 0.3490102894194144 0.22231981813648685 0.22231981813648685 0.24881396936141295 0.24881396936141295 0.18885298296075578 0.18885298296075578 
158.02414374541416 0.28614390540489615 0.28614390540489615 0.1874208970984615 0.1874208970984615 0.209668294615341 0.209668294615341 0.15490883003535774 0.15490883003535774 
159.00410707023389 0.26573574213958995 0.26573574213958995 0.1380474185009338 0.1380474185009338 0.21746815559904892 0.21746815559904892 0.16573928283256395 0.16573928283256395 
160.02414374541416 0.3061224489795918 0.3061224489795918 0.14625182420062685 0.14625182420062685 0.21012035453425212 0.21012035453425212 0.15275044681906208 0.15275044681906208 
161.00410707023389 0.29653910197740097 0.29653910197740097 0.1630516750942913 0.1630516750942913 0.21012035453425212 0.21012035453425212 0.15275044681906208 0.15275044681906208 
162.02414374541416 0.22890267004349035 0.22890267004349035 0.09779871749597548 0.09779871749597548 0.189712191268946 0.189712191268946 0.13336024260001839 0.13336024260001839 
163.00410707023389 0.2384860170456812 0.2384860170456812 0.09327035314785351 0.09327035314785351 0.189712191268946 0.189712191268946 0.13336024260001839 0.13336024260001839 
164.02414374541416 0.26530612244897955 0.26530612244897955 0.09911742131241767 0.09911742131241767 0.20431176249667454 0.20431176249667454 0.14795981382774698 0.14795981382774698 
165.00410707023389 0.25572277544678873 0.25572277544678873 0.09556160578935671 0.09556160578935671 0.2041997834210175 0.2041997834210175 0.14854888852379255 0.14854888852379255 
166.0192917134237 0.25572277544678873 0.25572277544678873 0.10371813378967838 0.10371813378967838 0.19776333094958082 0.19776333094958082 0.14618314587594372 0.14618314587594372 
167.00410707023389 0.26530612244897955 0.26530612244897955 0.11363629969687482 0.11363629969687482 0.19776333094958082 0.19776333094958082 0.14618314587594372 0.14618314587594372 
168.02414374541416 0.26530612244897955 0.26530612244897955 0.1136174740054122 0.1136174740054122 0.18279752936706223 0.18279752936706223 0.14630402971980955 0.14630402971980955 
169.00410707023389 0.24489795918367344 0.24489795918367344 0.08351712867597356 0.08351712867597356 0.19690924071737517 0.19690924071737517 0.13730580983039092 0.13730580983039092 
170.02414374541416 0.20408163265306123 0.20408163265306123 0.06373045746757973 0.06373045746757973 0.17253622633092047 0.17253622633092047 0.15581998591877028 0.15581998591877028 
171.00410707023389 0.20408163265306123 0.20408163265306123 0.07021169830839942 0.07021169830839942 0.15205118172030505 0.15205118172030505 0.12709665722654276 0.12709665722654276 
172.02414374541416 0.20408163265306123 0.20408163265306123 0.07041020785970645 0.07041020785970645 0.15205118172030505 0.15205118172030505 0.12709665722654276 0.12709665722654276 
173.00410707023389 0.20408163265306123 0.20408163265306123 0.0796390806331671 0.0796390806331671 0.15205118172030505 0.15205118172030505 0.12709665722654276 0.12709665722654276 
174.02414374541416 0.20408163265306123 0.20408163265306123 0.07977879887632927 0.07977879887632927 0.15205118172030505 0.15205118172030505 0.10668849396123664 0.10668849396123664 
175.00410707023389 0.20408163265306123 0.20408163265306123 0.0647421277279969 0.0647421277279969 0.17244562686023807 0.17244562686023807 0.1136455107341538 0.1136455107341538 
176.0192917134237 0.1836734693877551 0.1836734693877551 0.048561823900203416 0.048561823900203416 0.17059393590086183 0.17059393590086183 0.10582252152584361 0.10582252152584361 
177.00410707023389 0.1836734693877551 0.1836734693877551 0.048561823900203416 0.048561823900203416 0.17059393590086183 0.17059393590086183 0.10582252152584361 0.10582252152584361 
178.02414374541416 0.163265306122449 0.163265306122449 0.03358395767294628 0.03358395767294628 0.16866866920431084 0.16866866920431084 0.08497234291556259 0.08497234291556259 
179.00410707023389 0.163265306122449 0.163265306122449 0.03872409660716598 0.03872409660716598 0.14826050593900475 0.14826050593900475 0.07924952518390213 0.07924952518390213 
180.02414374541416 0.163265306122449 0.163265306122449 0.03872620784518911 0.03872620784518911 0.163265306122449 0.163265306122449 0.05884347315661915 0.05884347315661915 
181.00410707023389 0.163265306122449 0.163265306122449 0.03658636978150983 0.03658636978150983 0.163265306122449 0.163265306122449 0.06757461055730567 0.06757461055730567 
182.02414374541416 0.163265306122449 0.163265306122449 0.03666680911321177 0.03666680911321177 0.163265306122449 0.163265306122449 0.06168823494147698 0.06168823494147698 
183.00410707023389 0.163265306122449 0.163265306122449 0.03666680911321177 0.03666680911321177 0.163265306122449 0.163265306122449 0.06168823494147698 0.06168823494147698 
184.02414374541416 0.163265306122449 0.163265306122449 0.03666680911321177 0.03666680911321177 0.13949944839208372 0.13949944839208372 0.06168823494147698 0.06168823494147698 
185.00410707023389 0.163265306122449 0.163265306122449 0.04874424542762547 0.04874424542762547 0.13949944839208372 0.13949944839208372 0.05467533318168619 0.05467533318168619 
186.0192917134237 0.163265306122449 0.163265306122449 0.04338549736133952 0.04338549736133952 0.13964091331718978 0.13964091331718978 0.05474083301941495 0.05474083301941495 
187.00410707023389 0.163265306122449 0.163265306122449 0.029016180643390132 0.029016180643390132 0.13964091331718978 0.13964091331718978 0.05474083301941495 0.05474083301941495 
188.02414374541416 0.14285714285714288 0.14285714285714288 0.025762612680456515 0.025762612680456515 0.15152261787469362 0.15152261787469362 0.07037437280212139 0.07037437280212139 
189.00410707023389 0.14285714285714288 0.14285714285714288 0.023615845502631596 0.023615845502631596 0.15152261787469362 0.15152261787469362 0.06822760562429647 0.06822760562429647 
190.02414374541416 0.14285714285714288 0.14285714285714288 0.03317641746951616 0.03317641746951616 0.15152261787469362 0.15152261787469362 0.05750514207956459 0.05750514207956459 
191.00410707023389 0.14285714285714288 0.14285714285714288 0.04962634557871625 0.04962634557871625 0.15152261787469362 0.15152261787469362 0.05757959382636752 0.05757959382636752 
192.02414374541416 0.14285714285714288 0.14285714285714288 0.053562386703146024 0.053562386703146024 0.15152261787469362 0.15152261787469362 0.03717143056106141 0.03717143056106141 
193.00410707023389 0.14285714285714288 0.14285714285714288 0.03704630280737173 0.03704630280737173 0.15152261787469362 0.15152261787469362 0.03717143056106141 0.03717143056106141 
194.02414374541416 0.14285714285714288 0.14285714285714288 0.03704630280737173 0.03704630280737173 0.15152261787469362 0.15152261787469362 0.03704630280737173 0.03704630280737173 
195.00410707023389 0.14285714285714288 0.14285714285714288 0.037631462238465765 0.037631462238465765 0.15152261787469362 0.15152261787469362 0.037631462238465765 0.037631462238465765 
196.0192917134237 0.12244897959183673 0.12244897959183673 0.029091114974604686 0.029091114974604686 0.163265306122449 0.163265306122449 0.049499278239910814 0.049499278239910814 
197.00410707023389 0.12244897959183673 0.12244897959183673 0.04560719887037898 0.04560719887037898 0.1575943491928952 0.1575943491928952 0.049499278239910814 0.049499278239910814 
198.02414374541416 0.12244897959183673 0.12244897959183673 0.045451996601190814 0.045451996601190814 0.14630102146054413 0.14630102146054413 0.04934407597072264 0.04934407597072264 
199.00410707023389 0.10204081632653061 0.10204081632653061 0.0250438333358847 0.0250438333358847 0.10186604438735629 0.10186604438735629 0.06586015986649693 0.06586015986649693 
200.02414374541416 0.10204081632653061 0.10204081632653061 0.02551743421801148 0.02551743421801148 0.08337945063979017 0.08337945063979017 0.06633376074862372 0.06633376074862372 
201.00410707023389 0.10204081632653061 0.10204081632653061 0.02542233825098075 0.02542233825098075 0.08878489345292111 0.08878489345292111 0.06623866478159297 0.06623866478159297 
202.02414374541416 0.10204081632653061 0.10204081632653061 0.02542233825098075 0.02542233825098075 0.08878489345292111 0.08878489345292111 0.04583050151628687 0.04583050151628687 
203.00410707023389 0.10204081632653061 0.10204081632653061 0.02542233825098075 0.02542233825098075 0.08878489345292111 0.08878489345292111 0.04583050151628687 0.04583050151628687 
204.02414374541416 0.10204081632653061 0.10204081632653061 0.02542233825098075 0.02542233825098075 0.047968566922308845 0.047968566922308845 0.04583050151628687 0.04583050151628687 
205.00410707023389 0.06122448979591838 0.06122448979591838 0.014398878424834756 0.014398878424834756 0.07226089484661344 0.07226089484661344 0.055215204955447 0.055215204955447 
206.0192917134237 0.06122448979591838 0.06122448979591838 0.010522628458890813 0.010522628458890813 0.07226089484661344 0.07226089484661344 0.05214215911735959 0.05214215911735959 
207.00410707023389 0.06122448979591838 0.06122448979591838 0.010522628458890813 0.010522628458890813 0.07226089484661344 0.07226089484661344 0.05214215911735959 0.05214215911735959 
208.02414374541416 0.06122448979591838 0.06122448979591838 0.01587825951110985 0.01587825951110985 0.07204022744812734 0.07204022744812734 0.05208821706076734 0.05208821706076734 
209.00410707023389 0.06122448979591838 0.06122448979591838 0.01587825951110985 0.01587825951110985 0.07204022744812734 0.07204022744812734 0.05208821706076734 0.05208821706076734 
210.02414374541416 0.06122448979591838 0.06122448979591838 0.016231217227500056 0.016231217227500056 0.07262544112794032 0.07262544112794032 0.05267343074058033 0.05267343074058033 
211.00410707023389 0.06122448979591838 0.06122448979591838 0.016231217227500056 0.016231217227500056 0.07262544112794032 0.07262544112794032 0.05267343074058033 0.05267343074058033 
212.02414374541416 0.06122448979591838 0.06122448979591838 0.016231217227500056 0.016231217227500056 0.07262544112794032 0.07262544112794032 0.05267343074058033 0.05267343074058033 
213.00410707023389 0.06122448979591838 0.06122448979591838 0.016231217227500056 0.016231217227500056 0.07262544112794032 0.07262544112794032 0.05267343074058033 0.05267343074058033 
214.02414374541416 0.06122448979591838 0.06122448979591838 0.016231217227500056 0.016231217227500056 0.07262544112794032 0.07262544112794032 0.05267343074058033 0.05267343074058033 
215.00410707023389 0.06122448979591838 0.06122448979591838 0.016231217227500056 0.016231217227500056 0.07262544112794032 0.07262544112794032 0.05267343074058033 0.05267343074058033 
216.0192917134237 0.06122448979591838 0.06122448979591838 0.006109825430088086 0.006109825430088086 0.07262544112794032 0.07262544112794032 0.05270159367545639 0.05270159367545639 
217.00410707023389 0.06122448979591838 0.06122448979591838 0.006109825430088086 0.006109825430088086 0.05221727786263422 0.05221727786263422 0.05270159367545639 0.05270159367545639 
218.02414374541416 0.06122448979591838 0.06122448979591838 0.006086479395966219 0.006086479395966219 0.0520224709166589 0.0520224709166589 0.05267824764133453 0.05267824764133453 
219.00410707023389 0.06122448979591838 0.06122448979591838 0.006086479395966219 0.006086479395966219 0.031614307651352806 0.031614307651352806 0.03227008437602842 0.03227008437602842 
220.02414374541416 0.04081632653061223 0.04081632653061223 0.006380022586604911 0.006380022586604911 0.04125085332823704 0.04125085332823704 0.04190663005291267 0.04190663005291267 
221.00410707023389 0.04081632653061223 0.04081632653061223 0.006380022586604911 0.006380022586604911 0.04125085332823704 0.04125085332823704 0.04190663005291267 0.04190663005291267 
222.02414374541416 0.04081632653061223 0.04081632653061223 0.006380022586604911 0.006380022586604911 0.04125085332823704 0.04125085332823704 0.04190663005291267 0.04190663005291267 
223.00410707023389 0.04081632653061223 0.04081632653061223 0.006380022586604911 0.006380022586604911 0.04125085332823704 0.04125085332823704 0.04190663005291267 0.04190663005291267 
224.02414374541416 0.04081632653061223 0.04081632653061223 0.006380022586604911 0.006380022586604911 0.04125085332823704 0.04125085332823704 0.04190663005291267 0.04190663005291267 
225.00410707023389 0.04081632653061223 0.04081632653061223 0.006380022586604911 0.006380022586604911 0.04125085332823704 0.04125085332823704 0.021498466787606536 0.021498466787606536 
226.0192917134237 0.04081632653061223 0.04081632653061223 0.006336927021528473 0.006336927021528473 0.02145537122253009 0.02145537122253009 0.02145537122253009 0.02145537122253009 
227.00410707023389 0.04081632653061223 0.04081632653061223 0.006336927021528473 0.006336927021528473 0.02145537122253009 0.02145537122253009 0.02145537122253009 0.02145537122253009 
228.02414374541416 0.04081632653061223 0.04081632653061223 0.006155466073581384 0.006155466073581384 0.02142779614377248 0.02142779614377248 0.02142779614377248 0.02142779614377248 
229.00410707023389 0.04081632653061223 0.04081632653061223 0.006155466073581384 0.006155466073581384 0.02142779614377248 0.02142779614377248 0.02142779614377248 0.02142779614377248 
230.02414374541416 0.04081632653061223 0.04081632653061223 0.02508675265861076 0.02508675265861076 0.02142779614377248 0.02142779614377248 0.005417733331065339 0.005417733331065339 
231.00410707023389 0.04081632653061223 0.04081632653061223 0.02508675265861076 0.02508675265861076 0.02142779614377248 0.02142779614377248 0.005417733331065339 0.005417733331065339 
232.02414374541416 0.04081632653061223 0.04081632653061223 0.02508675265861076 0.02508675265861076 0.02142779614377248 0.02142779614377248 0.005417733331065339 0.005417733331065339 
233.00410707023389 0.04081632653061223 0.04081632653061223 0.02508675265861076 0.02508675265861076 0.02142779614377248 0.02142779614377248 0.005417733331065339 0.005417733331065339 
234.02414374541416 0.04081632653061223 0.04081632653061223 0.02508675265861076 0.02508675265861076 0.02142779614377248 0.02142779614377248 0.005417733331065339 0.005417733331065339 
235.00410707023389 0.04081632653061223 0.04081632653061223 0.02508675265861076 0.02508675265861076 0.02142779614377248 0.02142779614377248 0.005417733331065339 0.005417733331065339 
236.0192917134237 0.04081632653061223 0.04081632653061223 0.02508675265861076 0.02508675265861076 0.02133757857321432 0.02133757857321432 0.00532751576050717 0.00532751576050717 
237.00410707023389 0.04081632653061223 0.04081632653061223 0.02508675265861076 0.02508675265861076 0.02133757857321432 0.02133757857321432 0.00532751576050717 0.00532751576050717 
238.02414374541416 0.04081632653061223 0.04081632653061223 0.024607635844910734 0.024607635844910734 0.028025096596255527 0.028025096596255527 0.004937485826134976 0.004937485826134976 
239.00410707023389 0.04081632653061223 0.04081632653061223 0.024607635844910734 0.024607635844910734 0.028025096596255527 0.028025096596255527 0.004937485826134976 0.004937485826134976 
240.02414374541416 0.04081632653061223 0.04081632653061223 0.027287083349725166 0.027287083349725166 0.007616933330949399 0.007616933330949399 0.007616933330949399 0.007616933330949399 
241.00410707023389 0.04081632653061223 0.04081632653061223 0.027287083349725166 0.027287083349725166 0.007616933330949399 0.007616933330949399 0.007616933330949399 0.007616933330949399 
242.02414374541416 0.04081632653061223 0.04081632653061223 0.027287083349725166 0.027287083349725166 0.007616933330949399 0.007616933330949399 0.007616933330949399 0.007616933330949399 
243.00410707023389 0.04081632653061223 0.04081632653061223 0.027287083349725166 0.027287083349725166 0.007616933330949399 0.007616933330949399 0.007616933330949399 0.007616933330949399 
244.02414374541416 0.04081632653061223 0.04081632653061223 0.027287083349725166 0.027287083349725166 0.007616933330949399 0.007616933330949399 0.007616933330949399 0.007616933330949399 
245.00410707023389 0.04081632653061223 0.04081632653061223 0.027287083349725166 0.027287083349725166 0.007616933330949399 0.007616933330949399 0.007616933330949399 0.007616933330949399 
246.0192917134237 0.04081632653061223 0.04081632653061223 0.027287083349725166 0.027287083349725166 0.007600538369784217 0.007600538369784217 0.007600538369784217 0.007600538369784217 
247.00410707023389 0.04081632653061223 0.04081632653061223 0.027287083349725166 0.027287083349725166 0.007600538369784217 0.007600538369784217 0.007600538369784217 0.007600538369784217 
248.02414374541416 0.020408163265306114 0.020408163265306114 0.006636313602629303 0.006636313602629303 0.04081632653061223 0.04081632653061223 0.02704447686793543 0.02704447686793543 
249.00410707023389 0.020408163265306114 0.020408163265306114 0.006636313602629303 0.006636313602629303 0.04081632653061223 0.04081632653061223 0.02704447686793543 0.02704447686793543 
250.02414374541416 0.020408163265306114 0.020408163265306114 0.020408163265306114 0.020408163265306114 0.02704447686793543 0.02704447686793543 0.02704447686793543 0.02704447686793543 
251.00410707023389 0.020408163265306114 0.020408163265306114 0.020408163265306114 0.020408163265306114 0.02704447686793543 0.02704447686793543 0.02704447686793543 0.02704447686793543 
252.02414374541416 0.020408163265306114 0.020408163265306114 0.020408163265306114 0.020408163265306114 0.02704447686793543 0.02704447686793543 0.02704447686793543 0.02704447686793543 
253.00410707023389 0.020408163265306114 0.020408163265306114 0.020408163265306114 0.020408163265306114 0.02704447686793543 0.02704447686793543 0.02704447686793543 0.02704447686793543 
254.02414374541416 0.020408163265306114 0.020408163265306114 0.020408163265306114 0.020408163265306114 0.02704447686793543 0.02704447686793543 0.02704447686793543 0.02704447686793543 
255.00410707023389 0.020408163265306114 0.020408163265306114 0.020408163265306114 0.020408163265306114 0.02704447686793543 0.02704447686793543 0.02704447686793543 0.02704447686793543 
256.01929171342374 0.020408163265306114 0.020408163265306114 0.020408163265306114 0.020408163265306114 0.02704447686793543 0.02704447686793543 0.006636313602629303 0.006636313602629303 
257.0041070702339 0.020408163265306114 0.020408163265306114 0.020408163265306114 0.020408163265306114 0.02704447686793543 0.02704447686793543 0.006636313602629303 0.006636313602629303 
258.02414374541416 0.020408163265306114 0.020408163265306114 0.020408163265306114 0.020408163265306114 0.026589815425068025 0.026589815425068025 0.00618165215976189 0.00618165215976189 
259.0041070702339 0.020408163265306114 0.020408163265306114 0.020408163265306114 0.020408163265306114 0.026589815425068025 0.026589815425068025 0.00618165215976189 0.00618165215976189 
260.02414374541416 0.020408163265306114 0.020408163265306114 0.020408163265306114 0.020408163265306114 0.026589815425068025 0.026589815425068025 0.00618165215976189 0.00618165215976189 
261.0041070702339 0.020408163265306114 0.020408163265306114 0.020408163265306114 0.020408163265306114 0.026589815425068025 0.026589815425068025 0.00618165215976189 0.00618165215976189 
262.02414374541416 0.020408163265306114 0.020408163265306114 0.020408163265306114 0.020408163265306114 0.026589815425068025 0.026589815425068025 0.00618165215976189 0.00618165215976189 
263.0041070702339 0.020408163265306114 0.020408163265306114 0.020408163265306114 0.020408163265306114 0.026589815425068025 0.026589815425068025 0.00618165215976189 0.00618165215976189 
264.02414374541416 0.020408163265306114 0.020408163265306114 0.020408163265306114 0.020408163265306114 0.026589815425068025 0.026589815425068025 0.00618165215976189 0.00618165215976189 
265.0041070702339 0.020408163265306114 0.020408163265306114 0.020408163265306114 0.020408163265306114 0.026589815425068025 0.026589815425068025 0.00618165215976189 0.00618165215976189 
266.01929171342374 0.020408163265306114 0.020408163265306114 0.020408163265306114 0.020408163265306114 0.026589815425068025 0.026589815425068025 0.00618165215976189 0.00618165215976189 
267.0041070702339 0.020408163265306114 0.020408163265306114 0.020408163265306114 0.020408163265306114 0.026589815425068025 0.026589815425068025 0.00618165215976189 0.00618165215976189 
268.02414374541416 0.020408163265306114 0.020408163265306114 0.020408163265306114 0.020408163265306114 0.005366578897740376 0.005366578897740376 0.005366578897740376 0.005366578897740376 
269.0041070702339 0.020408163265306114 0.020408163265306114 0.020408163265306114 0.020408163265306114 0.005366578897740376 0.005366578897740376 0.005366578897740376 0.005366578897740376 
270.02414374541416 0.020408163265306114 0.020408163265306114 0.020408163265306114 0.020408163265306114 0.005366578897740376 0.005366578897740376 0.005366578897740376 0.005366578897740376 
271.0041070702339 0.020408163265306114 0.020408163265306114 0.020408163265306114 0.020408163265306114 0.005366578897740376 0.005366578897740376 0.005366578897740376 0.005366578897740376 
272.02414374541416 0.020408163265306114 0.020408163265306114 0.020408163265306114 0.020408163265306114 0.005366578897740376 0.005366578897740376 0.005366578897740376 0.005366578897740376 
273.0041070702339 0.020408163265306114 0.020408163265306114 0.020408163265306114 0.020408163265306114 0.005366578897740376 0.005366578897740376 0.005366578897740376 0.005366578897740376 
274.02414374541416 0.020408163265306114 0.020408163265306114 0.020408163265306114 0.020408163265306114 0.005366578897740376 0.005366578897740376 0.005366578897740376 0.005366578897740376 
275.0041070702339 0.020408163265306114 0.020408163265306114 0.020408163265306114 0.020408163265306114 0.005366578897740376 0.005366578897740376 0.005366578897740376 0.005366578897740376 
276.01929171342374 0.020408163265306114 0.020408163265306114 0.020408163265306114 0.020408163265306114 0.005366578897740376 0.005366578897740376 0.005366578897740376 0.005366578897740376 
277.0041070702339 0.020408163265306114 0.020408163265306114 0.020408163265306114 0.020408163265306114 0.005366578897740376 0.005366578897740376 0.005366578897740376 0.005366578897740376 
278.02414374541416 0.020408163265306114 0.020408163265306114 0.020408163265306114 0.020408163265306114 0.004090320956326691 0.004090320956326691 0.004090320956326691 0.004090320956326691 
279.0041070702339 0.020408163265306114 0.020408163265306114 0.020408163265306114 0.020408163265306114 0.004090320956326691 0.004090320956326691 0.004090320956326691 0.004090320956326691 
280.02414374541416 0.020408163265306114 0.020408163265306114 0.020408163265306114 0.020408163265306114 0.004090320956326691 0.004090320956326691 0.004090320956326691 0.004090320956326691 
281.0041070702339 0.020408163265306114 0.020408163265306114 0.020408163265306114 0.020408163265306114 0.004090320956326691 0.004090320956326691 0.004090320956326691 0.004090320956326691 
282.02414374541416 0.020408163265306114 0.020408163265306114 0.020408163265306114 0.020408163265306114 0.004090320956326691 0.004090320956326691 0.004090320956326691 0.004090320956326691 
283.0041070702339 0.020408163265306114 0.020408163265306114 0.020408163265306114 0.020408163265306114 0.004090320956326691 0.004090320956326691 0.004090320956326691 0.004090320956326691 
284.02414374541416 0.020408163265306114 0.020408163265306114 0.020408163265306114 0.020408163265306114 0.004090320956326691 0.004090320956326691 0.004090320956326691 0.004090320956326691 
285.0041070702339 0.020408163265306114 0.020408163265306114 0.020408163265306114 0.020408163265306114 0.004090320956326691 0.004090320956326691 0.004090320956326691 0.004090320956326691 
286.01929171342374 0.020408163265306114 0.020408163265306114 0.020408163265306114 0.020408163265306114 0.004090320956326691 0.004090320956326691 0.004090320956326691 0.004090320956326691 
287.0041070702339 0.020408163265306114 0.020408163265306114 0.020408163265306114 0.020408163265306114 0.004090320956326691 0.004090320956326691 0.004090320956326691 0.004090320956326691 
288.02414374541416 0.020408163265306114 0.020408163265306114 0.020408163265306114 0.020408163265306114 0.002386379612682464 0.002386379612682464 0.002386379612682464 0.002386379612682464 
289.0041070702339 0.020408163265306114 0.020408163265306114 0.020408163265306114 0.020408163265306114 0.002386379612682464 0.002386379612682464 0.002386379612682464 0.002386379612682464 
290.02414374541416 0.020408163265306114 0.020408163265306114 0.020408163265306114 0.020408163265306114 0.002386379612682464 0.002386379612682464 0.002386379612682464 0.002386379612682464 
291.0041070702339 0.020408163265306114 0.020408163265306114 0.020408163265306114 0.020408163265306114 0.002386379612682464 0.002386379612682464 0.002386379612682464 0.002386379612682464 
292.02414374541416 0.020408163265306114 0.020408163265306114 0.020408163265306114 0.020408163265306114 0.002386379612682464 0.002386379612682464 0.002386379612682464 0.002386379612682464 
293.0041070702339 0.020408163265306114 0.020408163265306114 0.020408163265306114 0.020408163265306114 0.002386379612682464 0.002386379612682464 0.002386379612682464 0.002386379612682464 
294.02414374541416 0.020408163265306114 0.020408163265306114 0.020408163265306114 0.020408163265306114 0.002386379612682464 0.002386379612682464 0.002386379612682464 0.002386379612682464 
295.0041070702339 0.020408163265306114 0.020408163265306114 0.020408163265306114 0.020408163265306114 0.002386379612682464 0.002386379612682464 0.002386379612682464 0.002386379612682464 
296.01929171342374 0.020408163265306114 0.020408163265306114 0.020408163265306114 0.020408163265306114 0.002386379612682464 0.002386379612682464 0.002386379612682464 0.002386379612682464 
297.0041070702339 0.020408163265306114 0.020408163265306114 0.020408163265306114 0.020408163265306114 0.002386379612682464 0.002386379612682464 0.002386379612682464 0.002386379612682464 
298.02414374541416 0.0 0.0 0.0 0.0 0.0 0.0 0.020408163265306114 0.020408163265306114 
299.0041070702339 0.0 0.0 0.0 0.0 0.0 0.0 0.020408163265306114 0.020408163265306114 
300.02414374541416 0.0 0.0 0.0 0.0 0.0 0.0 0.020408163265306114 0.020408163265306114 
#####################################################################
# End of data export. Simulation finished at: 2017-02-14T18:31+0000 #
#####################################################################
