#####################################################################
# Alchemist log file - simulation started at: 2017-02-14T18:19+0000 #
#####################################################################
# seed = 42.0
#
# The columns have the following meaning: 
# time go-co-to[Mean] go-co-tsync[Mean] go-cmp-to[Mean] go-cmp-tsync[Mean] flex-co-to[Mean] flex-co-tsync[Mean] flex-cmp-to[Mean] flex-cmp-tsync[Mean] 
0.0 NaN NaN NaN NaN NaN NaN NaN NaN 
1.002616394006231 NaN NaN NaN NaN NaN NaN NaN NaN 
2.0032434183055425 NaN NaN NaN NaN NaN NaN NaN NaN 
3.002616394006231 NaN NaN NaN NaN NaN NaN NaN NaN 
4.0032434183055425 NaN NaN NaN NaN NaN NaN NaN NaN 
5.002616394006231 NaN NaN NaN NaN NaN NaN NaN NaN 
6.0032434183055425 NaN NaN NaN NaN NaN NaN NaN NaN 
7.002616394006231 NaN NaN NaN NaN NaN NaN NaN NaN 
8.003243418305543 NaN NaN NaN NaN NaN NaN NaN NaN 
9.002616394006232 NaN NaN NaN NaN NaN NaN NaN NaN 
10.003243418305543 NaN NaN NaN NaN NaN NaN NaN NaN 
11.002616394006232 NaN NaN NaN NaN NaN NaN NaN NaN 
12.003243418305543 NaN NaN NaN NaN NaN NaN NaN NaN 
13.002616394006232 NaN NaN NaN NaN NaN NaN NaN NaN 
14.003243418305543 NaN NaN NaN NaN NaN NaN NaN NaN 
15.002616394006232 NaN NaN NaN NaN NaN NaN NaN NaN 
16.003243418305544 NaN NaN NaN NaN NaN NaN NaN NaN 
17.002616394006232 NaN NaN NaN NaN NaN NaN NaN NaN 
18.003243418305544 NaN NaN NaN NaN NaN NaN NaN NaN 
19.002616394006232 NaN NaN NaN NaN NaN NaN NaN NaN 
20.003243418305544 1.0 1.0 1.0 1.0 1.0 1.0 1.0 1.0 
21.002616394006232 1.0 1.0 1.0 1.0 1.0 1.0 1.0 1.0 
22.003243418305544 1.0 1.0 1.0 1.0 1.0 1.0 1.0 1.0 
23.002616394006232 1.0 1.0 1.0 1.0 1.0 1.0 1.0 1.0 
24.003243418305544 1.0 1.0 1.0 1.0 1.0 1.0 1.0 1.0 
25.002616394006232 1.0 1.0 1.0 1.0 1.0 1.0 1.0 1.0 
26.003243418305544 1.0 1.0 1.0 1.0 1.0 1.0 1.0 1.0 
27.002616394006232 0.9807692307692307 0.9807692307692307 0.9807692307692307 0.9807692307692307 0.9807692307692307 0.9807692307692307 0.9807692307692307 0.9807692307692307 
28.003243418305544 0.9807692307692307 0.9807692307692307 0.9807692307692307 0.9807692307692307 0.9807692307692307 0.9807692307692307 0.9807692307692307 0.9807692307692307 
29.002616394006232 0.9423076923076923 0.9423076923076923 0.9423076923076923 0.9423076923076923 0.9423076923076923 0.9423076923076923 0.9423076923076923 0.9423076923076923 
30.003243418305544 0.9038461538461539 0.9038461538461539 0.9038461538461539 0.9038461538461539 0.9038461538461539 0.9038461538461539 0.9038461538461539 0.9038461538461539 
31.002616394006232 0.9038461538461539 0.9038461538461539 0.9038461538461539 0.9038461538461539 0.9038461538461539 0.9038461538461539 0.9038461538461539 0.9038461538461539 
32.003243418305544 0.9038461538461539 0.9038461538461539 0.9038461538461539 0.9038461538461539 0.9038461538461539 0.9038461538461539 0.9038461538461539 0.9038461538461539 
33.00261639400623 0.9038461538461539 0.9038461538461539 0.9038461538461539 0.9038461538461539 0.9038461538461539 0.9038461538461539 0.9038461538461539 0.9038461538461539 
34.003243418305544 0.9038461538461539 0.9038461538461539 0.9038461538461539 0.9038461538461539 0.9038461538461539 0.9038461538461539 0.9038461538461539 0.9038461538461539 
35.00261639400623 0.901198179847567 0.901198179847567 0.9038461538461539 0.9038461538461539 0.901198179847567 0.901198179847567 0.9038461538461539 0.9038461538461539 
36.003243418305544 0.8920993465461818 0.8920993465461818 0.9038461538461539 0.9038461538461539 0.8920993465461818 0.8920993465461818 0.9038461538461539 0.9038461538461539 
37.00261639400623 0.8425353783976715 0.8425353783976715 0.9038461538461539 0.9038461538461539 0.8361835947448403 0.8361835947448403 0.9038461538461539 0.9038461538461539 
38.003243418305544 0.7915337828757542 0.7915337828757542 0.8846153846153846 0.8846153846153846 0.7895891365092389 0.7895891365092389 0.8846153846153846 0.8846153846153846 
39.00261639400623 0.775344216069393 0.775344216069393 0.8846153846153846 0.8846153846153846 0.7647507258785897 0.7647507258785897 0.8846153846153846 0.8846153846153846 
40.003243418305544 0.6949036677954105 0.6949036677954105 0.8846153846153846 0.8846153846153846 0.6919899618358327 0.6919899618358327 0.8846153846153846 0.8846153846153846 
41.00261639400623 0.6296422230184827 0.6296422230184827 0.8846153846153846 0.8846153846153846 0.5801016081914757 0.5801016081914757 0.8846153846153846 0.8846153846153846 
42.003243418305544 0.5922406131968505 0.5922406131968505 0.8846153846153846 0.8846153846153846 0.5319559167694422 0.5319559167694422 0.8846153846153846 0.8846153846153846 
43.00261639400623 0.5871093717754028 0.5871093717754028 0.8804506824128187 0.8804506824128187 0.5417309988612475 0.5417309988612475 0.8846153846153846 0.8846153846153846 
44.003243418305544 0.5287795904127018 0.5287795904127018 0.8804506824128187 0.8804506824128187 0.4993470845420376 0.4993470845420376 0.8846153846153846 0.8846153846153846 
45.00261639400623 0.46967114172601593 0.46967114172601593 0.8122189008512067 0.8122189008512067 0.49611301575738753 0.49611301575738753 0.8624865446842827 0.8624865446842827 
46.003243418305544 0.42102897111290705 0.42102897111290705 0.7563398559980538 0.7563398559980538 0.421918802553974 0.421918802553974 0.8432557754535134 0.8432557754535134 
47.00261639400623 0.36992479345218393 0.36992479345218393 0.7499658540982441 0.7499658540982441 0.36572172969037675 0.36572172969037675 0.7887536355212322 0.7887536355212322 
48.003243418305544 0.3685159256106847 0.3685159256106847 0.6477500213646017 0.6477500213646017 0.3292409757054567 0.3292409757054567 0.7513032393608304 0.7513032393608304 
49.00261639400623 0.3834560028288323 0.3834560028288323 0.6003184577557308 0.6003184577557308 0.3100203863409963 0.3100203863409963 0.7498132151377476 0.7498132151377476 
50.003243418305544 0.3664042147559008 0.3664042147559008 0.5898819700014959 0.5898819700014959 0.2908622238076491 0.2908622238076491 0.6989227261479299 0.6989227261479299 
51.00261639400623 0.35864744347454397 0.35864744347454397 0.5513076045570373 0.5513076045570373 0.2785029290460328 0.2785029290460328 0.6087499755056506 0.6087499755056506 
52.003243418305544 0.37924003557160907 0.37924003557160907 0.5515374685247321 0.5515374685247321 0.25621643750082856 0.25621643750082856 0.5684569958479562 0.5684569958479562 
53.00261639400623 0.37592591631254957 0.37592591631254957 0.5242009713632269 0.5242009713632269 0.2506228853910921 0.2506228853910921 0.5349512040940975 0.5349512040940975 
54.003243418305544 0.41312150460762886 0.41312150460762886 0.45798695308110415 0.45798695308110415 0.29146857736493076 0.29146857736493076 0.4917196374905035 0.4917196374905035 
55.00261639400623 0.5046370348386556 0.5046370348386556 0.41320616436468277 0.41320616436468277 0.2710475344467167 0.2710475344467167 0.4905877284846785 0.4905877284846785 
56.003243418305544 0.5260559841816893 0.5260559841816893 0.42802034317317755 0.42802034317317755 0.29973627076991416 0.29973627076991416 0.4118504999574815 0.4118504999574815 
57.00261639400623 0.48765797726361315 0.48765797726361315 0.3898920966207219 0.3898920966207219 0.34884661076834633 0.34884661076834633 0.35916712638860976 0.35916712638860976 
58.003243418305544 0.5284296493106795 0.5284296493106795 0.30623423118082166 0.30623423118082166 0.3447645074565172 0.3447645074565172 0.3221241358787998 0.3221241358787998 
59.00261639400623 0.5769827302375136 0.5769827302375136 0.29156787225754294 0.29156787225754294 0.36750098227988975 0.36750098227988975 0.3118124400209952 0.3118124400209952 
60.003243418305544 0.5217234019363837 0.5217234019363837 0.29465419177255303 0.29465419177255303 0.3374261362960872 0.3374261362960872 0.32676296887949036 0.32676296887949036 
61.00261639400623 0.4807188642701928 0.4807188642701928 0.26109441553509855 0.26109441553509855 0.34246864840763314 0.34246864840763314 0.2998631797024244 0.2998631797024244 
62.003243418305544 0.455560638237576 0.455560638237576 0.26413915122783305 0.26413915122783305 0.32781153315709444 0.32781153315709444 0.252010180199193 0.252010180199193 
63.00261639400623 0.46940149589296665 0.46940149589296665 0.2617768291962037 0.2617768291962037 0.3063877685220083 0.3063877685220083 0.24316203816100238 0.24316203816100238 
64.00324341830554 0.46663066673641834 0.46663066673641834 0.2685095863357224 0.2685095863357224 0.3583330789022269 0.3583330789022269 0.2690123301341326 0.2690123301341326 
65.00261639400622 0.4206780510548475 0.4206780510548475 0.2559953138417498 0.2559953138417498 0.32833627038135815 0.32833627038135815 0.2899685858647579 0.2899685858647579 
66.00324341830554 0.4922897537729679 0.4922897537729679 0.2239064651194168 0.2239064651194168 0.39660058471944437 0.39660058471944437 0.3051765242538035 0.3051765242538035 
67.00261639400622 0.42196161713188796 0.42196161713188796 0.21442216317309284 0.21442216317309284 0.39205872268631764 0.39205872268631764 0.28321644882789704 0.28321644882789704 
68.00324341830554 0.4031366933938679 0.4031366933938679 0.24612351101481575 0.24612351101481575 0.37188159255473324 0.37188159255473324 0.28289619205208105 0.28289619205208105 
69.00261639400622 0.4649366541768259 0.4649366541768259 0.250679286307808 0.250679286307808 0.3493357777312505 0.3493357777312505 0.28718347212389067 0.28718347212389067 
70.00324341830554 0.4048955001974768 0.4048955001974768 0.25223428352676713 0.25223428352676713 0.34583900595490413 0.34583900595490413 0.2816196662732755 0.2816196662732755 
71.00261639400622 0.34801641016231255 0.34801641016231255 0.24562275601019287 0.24562275601019287 0.35967017231446313 0.35967017231446313 0.26409021030854146 0.26409021030854146 
72.00324341830554 0.4125435817709357 0.4125435817709357 0.23598765733854501 0.23598765733854501 0.37240435050265774 0.37240435050265774 0.26482548672532824 0.26482548672532824 
73.00261639400622 0.4995190469682951 0.4995190469682951 0.22831287993104316 0.22831287993104316 0.35178774206873364 0.35178774206873364 0.2746017923672092 0.2746017923672092 
74.00324341830554 0.43084974602215087 0.43084974602215087 0.22078164961957839 0.22078164961957839 0.3347083040206854 0.3347083040206854 0.27893807041081714 0.27893807041081714 
75.00261639400622 0.4078097527343148 0.4078097527343148 0.2206177752584819 0.2206177752584819 0.36134709379435637 0.36134709379435637 0.27699959755429365 0.27699959755429365 
76.00324341830554 0.43646818225507295 0.43646818225507295 0.25332146596671784 0.25332146596671784 0.32439505765567633 0.32439505765567633 0.27804748429721843 0.27804748429721843 
77.00261639400622 0.40114776889923126 0.40114776889923126 0.2603035329035146 0.2603035329035146 0.3257739480367808 0.3257739480367808 0.2750945404211741 0.2750945404211741 
78.00324341830554 0.47452837954321003 0.47452837954321003 0.23344165224625246 0.23344165224625246 0.3380724862197055 0.3380724862197055 0.2636955909412994 0.2636955909412994 
79.00261639400622 0.502000728196271 0.502000728196271 0.23448106026719376 0.23448106026719376 0.2971832630762397 0.2971832630762397 0.26470308803512943 0.26470308803512943 
80.00324341830554 0.4746897115956106 0.4746897115956106 0.225985759318145 0.225985759318145 0.27538783748211426 0.27538783748211426 0.25329170558821623 0.25329170558821623 
81.00261639400622 0.40258798021413905 0.40258798021413905 0.2250555202057502 0.2250555202057502 0.2795568122372639 0.2795568122372639 0.23590564376332537 0.23590564376332537 
82.00324341830554 0.36337255081836645 0.36337255081836645 0.20179101675564748 0.20179101675564748 0.31822214890986666 0.31822214890986666 0.24956099063383766 0.24956099063383766 
83.00261639400622 0.37814970623390964 0.37814970623390964 0.19831861291109615 0.19831861291109615 0.3256892467782842 0.3256892467782842 0.2245915380835411 0.2245915380835411 
84.00324341830554 0.3410709881990062 0.3410709881990062 0.20082294501929213 0.20082294501929213 0.31826794304015454 0.31826794304015454 0.2259182882796219 0.2259182882796219 
85.00261639400622 0.3547206448002326 0.3547206448002326 0.2011472129163628 0.2011472129163628 0.2838147660083621 0.2838147660083621 0.2251138986462087 0.2251138986462087 
86.00324341830554 0.37039360351786393 0.37039360351786393 0.20211026419407283 0.20211026419407283 0.2675270105330576 0.2675270105330576 0.22103702384092547 0.22103702384092547 
87.00261639400622 0.3643669153907818 0.3643669153907818 0.18925458796441183 0.18925458796441183 0.34383371977983246 0.34383371977983246 0.25155476398081794 0.25155476398081794 
88.00324341830554 0.35761441536296756 0.35761441536296756 0.18708891736775962 0.18708891736775962 0.30732778700683666 0.30732778700683666 0.2517008567476353 0.2517008567476353 
89.00261639400622 0.35866443441191626 0.35866443441191626 0.18774663443398026 0.18774663443398026 0.32993091714626244 0.32993091714626244 0.25175239923875725 0.25175239923875725 
90.00324341830554 0.31456754152099026 0.31456754152099026 0.18664551197372922 0.18664551197372922 0.33470329516380093 0.33470329516380093 0.25272377506119126 0.25272377506119126 
91.00261639400622 0.3223704236393658 0.3223704236393658 0.19044401340504963 0.19044401340504963 0.3324561999608444 0.3324561999608444 0.27841051856348614 0.27841051856348614 
92.00324341830554 0.3783963064443368 0.3783963064443368 0.19667201189454434 0.19667201189454434 0.29934404560036365 0.29934404560036365 0.28685217168973004 0.28685217168973004 
93.00261639400622 0.37164025983573556 0.37164025983573556 0.22706493453452842 0.22706493453452842 0.2970086773275205 0.2970086773275205 0.25941052080771987 0.25941052080771987 
94.00324341830554 0.3589570840235271 0.3589570840235271 0.2709022731901169 0.2709022731901169 0.3043771044317881 0.3043771044317881 0.24698017627224172 0.24698017627224172 
95.00261639400622 0.3871577402923323 0.3871577402923323 0.27949371774341003 0.27949371774341003 0.31991468570890824 0.31991468570890824 0.2477578070858524 0.2477578070858524 
96.00324341830554 0.3838553140460551 0.3838553140460551 0.28069212574009894 0.28069212574009894 0.33004545126811374 0.33004545126811374 0.25815946627676456 0.25815946627676456 
97.00261639400622 0.42596323904487243 0.42596323904487243 0.3089409130665732 0.3089409130665732 0.3337579746259256 0.3337579746259256 0.2312806014977453 0.2312806014977453 
98.00324341830554 0.4735426630615846 0.4735426630615846 0.2984690025579783 0.2984690025579783 0.32318955886117817 0.32318955886117817 0.2470064113609728 0.2470064113609728 
99.00261639400622 0.433346475159733 0.433346475159733 0.304083928934548 0.304083928934548 0.3380862021280605 0.3380862021280605 0.24771200662681664 0.24771200662681664 
100.00324341830554 0.44849610428324554 0.44849610428324554 0.3300436107638079 0.3300436107638079 0.3501794416545146 0.3501794416545146 0.23587379044585577 0.23587379044585577 
101.00261639400622 0.499583956503485 0.499583956503485 0.329709443393748 0.329709443393748 0.36213972510601045 0.36213972510601045 0.24960100570443192 0.24960100570443192 
102.00324341830554 0.4719363126627444 0.4719363126627444 0.3292840413603949 0.3292840413603949 0.3503311681977801 0.3503311681977801 0.26904865618048446 0.26904865618048446 
103.00261639400622 0.4639808816420016 0.4639808816420016 0.3292840413603949 0.3292840413603949 0.34037813447296184 0.34037813447296184 0.2688391809577766 0.2688391809577766 
104.00324341830554 0.5046321941689804 0.5046321941689804 0.34647812641824394 0.34647812641824394 0.3855826565423033 0.3855826565423033 0.26876648708535733 0.26876648708535733 
105.00261639400622 0.5125876251897233 0.5125876251897233 0.3471078677746755 0.3471078677746755 0.3587995286942505 0.3587995286942505 0.26925705424183116 0.26925705424183116 
106.00324341830554 0.477847919162295 0.477847919162295 0.3371236753303491 0.3371236753303491 0.34415889466943045 0.34415889466943045 0.2690066831817218 0.2690066831817218 
107.00261639400622 0.477847919162295 0.477847919162295 0.3371236753303491 0.3371236753303491 0.35264882002240566 0.35264882002240566 0.2459261371802174 0.2459261371802174 
108.00324341830554 0.5116821542448362 0.5116821542448362 0.3250549786120446 0.3250549786120446 0.37578362998106357 0.37578362998106357 0.2685297786481211 0.2685297786481211 
109.00261639400622 0.48331002560994385 0.48331002560994385 0.3187362941199469 0.3187362941199469 0.3418860737204928 0.3418860737204928 0.30230699170620856 0.30230699170620856 
110.00324341830554 0.5075763714704383 0.5075763714704383 0.327914214096263 0.327914214096263 0.3458651004302327 0.3458651004302327 0.2981422219500441 0.2981422219500441 
111.00261639400622 0.5035023410080328 0.5035023410080328 0.32801004183734533 0.32801004183734533 0.3684813123788824 0.3684813123788824 0.29791709418998435 0.29791709418998435 
112.00324341830554 0.4870051507874533 0.4870051507874533 0.3379234486205546 0.3379234486205546 0.4021804565424644 0.4021804565424644 0.29261711032835 0.29261711032835 
113.00261639400622 0.500220540653982 0.500220540653982 0.3450272884350613 0.3450272884350613 0.3778009131022281 0.3778009131022281 0.3212593791021206 0.3212593791021206 
114.00324341830554 0.49259912400947875 0.49259912400947875 0.3189138001746977 0.3189138001746977 0.35799962435108557 0.35799962435108557 0.32126278248400075 0.32126278248400075 
115.00261639400622 0.4834577646053556 0.4834577646053556 0.312745026654482 0.312745026654482 0.362987900567016 0.362987900567016 0.31629478789519877 0.31629478789519877 
116.00324341830554 0.5125221077248912 0.5125221077248912 0.3299929871345142 0.3299929871345142 0.377207944560421 0.377207944560421 0.317525017864941 0.317525017864941 
117.00261639400622 0.5216634671290142 0.5216634671290142 0.3299929871345142 0.3299929871345142 0.3745289760450524 0.3745289760450524 0.34012606914119087 0.34012606914119087 
118.00324341830554 0.49456861567111476 0.49456861567111476 0.34831436274126865 0.34831436274126865 0.35251158128737825 0.35251158128737825 0.3168381576624052 0.3168381576624052 
119.00261639400622 0.49456861567111476 0.49456861567111476 0.3539827056738922 0.3539827056738922 0.3552718875313561 0.3552718875313561 0.28015421423361636 0.28015421423361636 
120.00324341830554 0.5375571798259846 0.5375571798259846 0.35368731103822537 0.35368731103822537 0.3585990123402001 0.3585990123402001 0.27904486791161326 0.27904486791161326 
121.00261639400622 0.5229704915553188 0.5229704915553188 0.3681545145365009 0.3681545145365009 0.37045021797955463 0.37045021797955463 0.279102275220226 0.279102275220226 
122.00324341830554 0.5046493932127507 0.5046493932127507 0.35315546020416433 0.35315546020416433 0.392725537654005 0.392725537654005 0.24867193804790802 0.24867193804790802 
123.00261639400622 0.5192360814834165 0.5192360814834165 0.3339371242276815 0.3339371242276815 0.40267130435545406 0.40267130435545406 0.20609754610035302 0.20609754610035302 
124.00324341830554 0.512586375491781 0.512586375491781 0.34769159385268045 0.34769159385268045 0.41885664174807785 0.41885664174807785 0.22560177731181905 0.22560177731181905 
125.00261639400622 0.512586375491781 0.512586375491781 0.36995384840884543 0.36995384840884543 0.42853133179929 0.42853133179929 0.23600233560853856 0.23600233560853856 
126.00324341830554 0.5325791645027899 0.5325791645027899 0.3698657263834931 0.3698657263834931 0.4462763623689462 0.4462763623689462 0.21968465323498593 0.21968465323498593 
127.00261639400622 0.5174498987902731 0.5174498987902731 0.36924198548165127 0.36924198548165127 0.4458829022157091 0.4458829022157091 0.21991634828407725 0.21991634828407725 
128.00324341830554 0.5000959446642503 0.5000959446642503 0.3484410037946188 0.3484410037946188 0.45340565205196504 0.45340565205196504 0.21729646671697617 0.21729646671697617 
129.00261639400622 0.49599444114599783 0.49599444114599783 0.30117706669869665 0.30117706669869665 0.4486996064637 0.4486996064637 0.21266587271123177 0.21266587271123177 
130.00324341830554 0.45412875352509197 0.45412875352509197 0.30157480840767653 0.30157480840767653 0.4386241603914925 0.4386241603914925 0.21130901207462577 0.21130901207462577 
131.00261639400622 0.45412875352509197 0.45412875352509197 0.29080118099905483 0.29080118099905483 0.4202018292420314 0.4202018292420314 0.23248814311102528 0.23248814311102528 
132.00324341830554 0.4758065422372788 0.4758065422372788 0.27510980607036967 0.27510980607036967 0.3965152157433882 0.3965152157433882 0.2727295689859349 0.2727295689859349 
133.00261639400622 0.4752020001672663 0.4752020001672663 0.24747105634625238 0.24747105634625238 0.40659276779442016 0.40659276779442016 0.27263402861304953 0.27263402861304953 
134.00324341830554 0.4698800997530498 0.4698800997530498 0.24743942421859347 0.24743942421859347 0.418737136616156 0.418737136616156 0.2542823288355464 0.2542823288355464 
135.00261639400622 0.45125387259229327 0.45125387259229327 0.24285882127460484 0.24285882127460484 0.396479057278979 0.396479057278979 0.22875764102779705 0.22875764102779705 
136.00324341830554 0.4358450572586212 0.4358450572586212 0.24066384375187597 0.24066384375187597 0.3944028984066589 0.3944028984066589 0.22222230135524393 0.22222230135524393 
137.00261639400622 0.41661428802785194 0.41661428802785194 0.23336729548219728 0.23336729548219728 0.362872237935663 0.362872237935663 0.2341565223163345 0.2341565223163345 
138.00324341830554 0.41799460316882214 0.41799460316882214 0.20341479471607687 0.20341479471607687 0.3341544912757802 0.3341544912757802 0.23751612470595723 0.23751612470595723 
139.00261639400622 0.41799460316882214 0.41799460316882214 0.22685525662234945 0.22685525662234945 0.3216674085709271 0.3216674085709271 0.21816887576052865 0.21816887576052865 
140.00324341830554 0.4230769230769231 0.4230769230769231 0.2169855127544684 0.2169855127544684 0.30528972172885505 0.30528972172885505 0.21912501493013148 0.21912501493013148 
141.00261639400622 0.4230769230769231 0.4230769230769231 0.21748816022024162 0.21748816022024162 0.27898751089925544 0.27898751089925544 0.21798284931907397 0.21798284931907397 
142.00324341830554 0.4038461538461539 0.4038461538461539 0.19130833330382718 0.19130833330382718 0.2762472441839115 0.2762472441839115 0.20587321760816296 0.20587321760816296 
143.00261639400622 0.4038461538461539 0.4038461538461539 0.18797355978420638 0.18797355978420638 0.2856574072522005 0.2856574072522005 0.17825959351231033 0.17825959351231033 
144.00324341830554 0.38461538461538464 0.38461538461538464 0.18624068539558478 0.18624068539558478 0.28854861592594633 0.28854861592594633 0.20646267283290487 0.20646267283290487 
145.00261639400622 0.3653846153846153 0.3653846153846153 0.1626690436364572 0.1626690436364572 0.310629633079284 0.310629633079284 0.22102908279171368 0.22102908279171368 
146.00324341830554 0.3461538461538461 0.3461538461538461 0.13850176042023435 0.13850176042023435 0.2913416762937428 0.2913416762937428 0.18828106852233412 0.18828106852233412 
147.00261639400622 0.3461538461538461 0.3461538461538461 0.14094740809188694 0.14094740809188694 0.30163621530431056 0.30163621530431056 0.18828106852233412 0.18828106852233412 
148.00324341830554 0.3461538461538461 0.3461538461538461 0.15186397151023526 0.15186397151023526 0.29639528307771945 0.29639528307771945 0.16926314926148076 0.16926314926148076 
149.00261639400622 0.3461538461538461 0.3461538461538461 0.167952713855701 0.167952713855701 0.29639528307771945 0.29639528307771945 0.1691527189312806 0.1691527189312806 
150.00324341830554 0.3461538461538461 0.3461538461538461 0.16009363509035454 0.16009363509035454 0.31561309765101514 0.31561309765101514 0.1723055239357658 0.1723055239357658 
151.00261639400622 0.3461538461538461 0.3461538461538461 0.14184507565179227 0.14184507565179227 0.3156786546304156 0.3156786546304156 0.17276501302517777 0.17276501302517777 
152.00324341830554 0.3269230769230769 0.3269230769230769 0.1347535617309225 0.1347535617309225 0.30009988282292915 0.30009988282292915 0.16567349910430795 0.16567349910430795 
153.00261639400622 0.3269230769230769 0.3269230769230769 0.13645672272732987 0.13645672272732987 0.29214307637097015 0.29214307637097015 0.16505692198754793 0.16505692198754793 
154.00324341830554 0.3269230769230769 0.3269230769230769 0.13644320921968606 0.13644320921968606 0.29648654295068755 0.29648654295068755 0.14554136080724395 0.14554136080724395 
155.00261639400622 0.3269230769230769 0.3269230769230769 0.1491374192050351 0.1491374192050351 0.3096976580409539 0.3096976580409539 0.14203401637263047 0.14203401637263047 
156.00324341830554 0.3269230769230769 0.3269230769230769 0.14934872011871947 0.14934872011871947 0.3096976580409539 0.3096976580409539 0.1421516912791792 0.1421516912791792 
157.00261639400622 0.3269230769230769 0.3269230769230769 0.11167513105337022 0.11167513105337022 0.32190561654732996 0.32190561654732996 0.1421516912791792 0.1421516912791792 
158.00324341830554 0.3269230769230769 0.3269230769230769 0.10931222613681552 0.10931222613681552 0.3198672902142012 0.3198672902142012 0.13978878636262446 0.13978878636262446 
159.00261639400622 0.3269230769230769 0.3269230769230769 0.10924946378937003 0.10924946378937003 0.3198672902142012 0.3198672902142012 0.13972602401517897 0.13972602401517897 
160.00324341830554 0.3076923076923077 0.3076923076923077 0.10320566714934618 0.10320566714934618 0.3134510146680456 0.3134510146680456 0.13368222737515517 0.13368222737515517 
161.00261639400622 0.3076923076923077 0.3076923076923077 0.1039654868957008 0.11028445759322268 0.3052637327404701 0.3052637327404701 0.13444204712150978 0.13444204712150978 
162.00324341830554 0.2884615384615385 0.2884615384615385 0.09981871562349885 0.10613768632102073 0.2715792934875424 0.2715792934875424 0.1302952758493078 0.1302952758493078 
163.00261639400622 0.2884615384615385 0.2884615384615385 0.09974702977368809 0.11705089044241293 0.2715792934875424 0.2715792934875424 0.1347700464933756 0.1347700464933756 
164.00324341830554 0.2884615384615385 0.2884615384615385 0.09979387284947575 0.13507127864573729 0.2884615384615385 0.2884615384615385 0.13446346698824818 0.13446346698824818 
165.00261639400622 0.2884615384615385 0.2884615384615385 0.09953004346544131 0.12537626132763627 0.2884615384615385 0.2884615384615385 0.11683499862973895 0.11683499862973895 
166.00324341830554 0.2884615384615385 0.2884615384615385 0.09985708972848888 0.09092772302645698 0.2884615384615385 0.2884615384615385 0.10006252055534097 0.10006252055534097 
167.00261639400622 0.28085677222837163 0.28085677222837163 0.10006252055534097 0.09277408018652977 0.27921584589515086 0.27921584589515086 0.10006252055534097 0.10006252055534097 
168.00324341830554 0.2731153056298254 0.2731153056298254 0.09767274604176365 0.11985142830161212 0.2714743792966046 0.2714743792966046 0.09767274604176365 0.09767274604176365 
169.00261639400622 0.2807200718629922 0.2807200718629922 0.0985712142387912 0.11123629743076072 0.2731153056298254 0.2731153056298254 0.0985712142387912 0.0985712142387912 
170.00324341830554 0.2884615384615385 0.2884615384615385 0.0985712142387912 0.0977242910288765 0.2731153056298254 0.2731153056298254 0.0985712142387912 0.0985712142387912 
171.00261639400622 0.25998507666438164 0.25998507666438164 0.09257528439747839 0.09172836118756367 0.24437093733117723 0.24437093733117723 0.11180605362824761 0.11180605362824761 
172.00324341830554 0.22205665249079934 0.22205665249079934 0.09162055630171179 0.09301096391703623 0.24248394140242757 0.24248394140242757 0.11085132553248099 0.11085132553248099 
173.00261639400622 0.22369757882402005 0.22369757882402005 0.09158499657175317 0.09297540418707764 0.24248394140242757 0.24248394140242757 0.1108157658025224 0.1108157658025224 
174.00324341830554 0.23539887784470837 0.23539887784470837 0.08332305933468846 0.09909676016387564 0.22325317217165833 0.22325317217165833 0.12178459779622695 0.12178459779622695 
175.00261639400622 0.22606121583137692 0.22606121583137692 0.08339073710960888 0.10860085188488908 0.2234291092262058 0.2234291092262058 0.12185227557114738 0.12185227557114738 
176.00324341830554 0.19922508608051467 0.19922508608051467 0.08376481159911288 0.0820771176233696 0.21091459368904503 0.21091459368904503 0.12311962919238915 0.12311962919238915 
177.00261639400622 0.19922508608051467 0.19922508608051467 0.08376481159911288 0.07264070367727658 0.21091459368904503 0.21091459368904503 0.12311962919238915 0.12311962919238915 
178.00324341830554 0.20545820449832716 0.20545820449832716 0.09249467061260899 0.10624943465251518 0.19449942886258909 0.19449942886258909 0.13184948820588524 0.13184948820588524 
179.00261639400622 0.185830198809215 0.185830198809215 0.09345183255307371 0.1072065965929799 0.17487142317347693 0.17487142317347693 0.13280665014634996 0.13280665014634996 
180.00324341830554 0.19119147596271363 0.19119147596271363 0.09345183255307371 0.1105564087564192 0.18651509319744972 0.18651509319744972 0.13280665014634996 0.13280665014634996 
181.00261639400622 0.19158871242105652 0.19158871242105652 0.09636753769880378 0.11347211390214927 0.16728432396668047 0.16728432396668047 0.15441976011675107 0.15441976011675107 
182.00324341830554 0.14849200090410358 0.14849200090410358 0.09016387672936475 0.09016387672936475 0.14058855584885518 0.14058855584885518 0.16768638857380724 0.16768638857380724 
183.00261639400622 0.12079576991944982 0.12079576991944982 0.08209565143382316 0.08209565143382316 0.15175109978408283 0.15175109978408283 0.17884893250903489 0.17884893250903489 
184.00324341830554 0.124911377394689 0.124911377394689 0.08209565143382316 0.08574721050180174 0.13829808264871596 0.13829808264871596 0.17884893250903489 0.17884893250903489 
185.00261639400622 0.14091085367972428 0.14091085367972428 0.08227279484620786 0.08592435391418646 0.15429755893375124 0.15429755893375124 0.17902607592141961 0.17902607592141961 
186.00324341830554 0.15549667014255492 0.15549667014255492 0.08106370347892483 0.08106370347892483 0.15605785176104328 0.15605785176104328 0.15858828740383923 0.15858828740383923 
187.00261639400622 0.156439622104018 0.156439622104018 0.08106370347892483 0.08106370347892483 0.15700080372250633 0.15700080372250633 0.13935751817307 0.13935751817307 
188.00324341830554 0.1515970389453455 0.1515970389453455 0.08414415526452004 0.08414415526452004 0.17082780817611476 0.17082780817611476 0.123207200727896 0.123207200727896 
189.00261639400622 0.1525203123117614 0.1525203123117614 0.08484750711853324 0.08484750711853324 0.17175108154253063 0.17175108154253063 0.12412985038083774 0.12412985038083774 
190.00324341830554 0.14483368147278297 0.14483368147278297 0.08484750711853324 0.08484750711853324 0.15744557952147037 0.15744557952147037 0.12412985038083774 0.12412985038083774 
191.00261639400622 0.1088376274079001 0.1088376274079001 0.07917019754660463 0.07917019754660463 0.12144952545658755 0.12144952545658755 0.1183905827903206 0.1183905827903206 
192.00324341830554 0.11224856690859736 0.11224856690859736 0.07851330377303473 0.07851330377303473 0.13147933613936658 0.13147933613936658 0.11809177124646551 0.11809177124646551 
193.00261639400622 0.11224856690859736 0.11224856690859736 0.07851330377303473 0.07851330377303473 0.13147933613936658 0.13147933613936658 0.11809177124646551 0.11809177124646551 
194.00324341830554 0.11224856690859736 0.11224856690859736 0.07851330377303473 0.07851330377303473 0.13147933613936658 0.13147933613936658 0.11809177124646551 0.11809177124646551 
195.00261639400622 0.11244202484050503 0.11244202484050503 0.07870676170494244 0.07870676170494244 0.13167279407127425 0.13167279407127425 0.1182852291783732 0.1182852291783732 
196.00324341830554 0.09925994174251562 0.09925994174251562 0.07901079199304772 0.07901079199304772 0.11999752850642934 0.11999752850642934 0.11709630582882805 0.11709630582882805 
197.00261639400622 0.09925994174251562 0.09925994174251562 0.07901079199304772 0.07901079199304772 0.11999752850642934 0.11999752850642934 0.11709630582882805 0.11709630582882805 
198.00324341830554 0.09343891729479128 0.09343891729479128 0.05249347382000563 0.05249347382000563 0.10750882258975608 0.10750882258975608 0.09057898765578597 0.09057898765578597 
199.00261639400622 0.10098110568225993 0.10098110568225993 0.0447298521168646 0.0447298521168646 0.09582024174645554 0.09582024174645554 0.0909650011146028 0.0909650011146028 
200.00324341830554 0.09697267933072097 0.09697267933072097 0.0447298521168646 0.0447298521168646 0.10861031934936763 0.10861031934936763 0.0909650011146028 0.0909650011146028 
201.00261639400622 0.09697267933072097 0.09697267933072097 0.05250346265306434 0.05250346265306434 0.10861031934936763 0.10861031934936763 0.07173423188383359 0.07173423188383359 
202.00324341830554 0.09204332405159599 0.09204332405159599 0.05269035094821913 0.05269035094821913 0.08997029965258849 0.08997029965258849 0.07192112017898838 0.07192112017898838 
203.00261639400622 0.10478537911249905 0.10478537911249905 0.05272306772663939 0.05272306772663939 0.08997029965258849 0.08997029965258849 0.0719538369574086 0.0719538369574086 
204.00324341830554 0.1123924971994361 0.1123924971994361 0.05593779540417517 0.05593779540417517 0.08422644557493955 0.08422644557493955 0.07516856463494441 0.07516856463494441 
205.00261639400622 0.116222269040739 0.116222269040739 0.05613826199034004 0.05613826199034004 0.08442691216110439 0.08442691216110439 0.07536903122110925 0.07536903122110925 
206.00324341830554 0.12656397247438889 0.12656397247438889 0.056758438888592326 0.056758438888592326 0.10123403040316307 0.10123403040316307 0.07793417453007219 0.07793417453007219 
207.00261639400622 0.12656397247438889 0.12656397247438889 0.056758438888592326 0.056758438888592326 0.10123403040316307 0.10123403040316307 0.07793417453007219 0.07793417453007219 
208.00324341830554 0.11551437866695526 0.11551437866695526 0.04092252433753056 0.04092252433753056 0.10462888508287058 0.10462888508287058 0.08132902920977962 0.08132902920977962 
209.00261639400622 0.1007316494980192 0.1007316494980192 0.041452474943239545 0.041452474943239545 0.10047350073397865 0.10047350073397865 0.08185897981548863 0.08185897981548863 
210.00324341830554 0.10059702168469636 0.10059702168469636 0.05506274962872953 0.05506274962872953 0.10047350073397865 0.10047350073397865 0.08185897981548863 0.08185897981548863 
211.00261639400622 0.11537975085363239 0.11537975085363239 0.05506274962872953 0.05506274962872953 0.1062175162299756 0.1062175162299756 0.06262821058471942 0.06262821058471942 
212.00324341830554 0.13139564522868302 0.13139564522868302 0.0712664597823603 0.0712664597823603 0.1222334106050263 0.1222334106050263 0.0703788441346888 0.0703788441346888 
213.00261639400622 0.11661291605974702 0.11661291605974702 0.0712664597823603 0.0712664597823603 0.1222334106050263 0.1222334106050263 0.0703788441346888 0.0703788441346888 
214.00324341830554 0.13397687600987285 0.13397687600987285 0.0712664597823603 0.0712664597823603 0.1222334106050263 0.1222334106050263 0.0703788441346888 0.0703788441346888 
215.00261639400622 0.13397687600987285 0.13397687600987285 0.07148183876401987 0.07148183876401987 0.1222334106050263 0.1222334106050263 0.07059422311634836 0.07059422311634836 
216.00324341830554 0.12249990320806009 0.12249990320806009 0.07238374908364649 0.07238374908364649 0.12316847689931722 0.12316847689931722 0.07149613343597498 0.07149613343597498 
217.00261639400622 0.12249990320806009 0.12249990320806009 0.07238374908364649 0.07238374908364649 0.12316847689931722 0.12316847689931722 0.07149613343597498 0.07149613343597498 
218.00324341830554 0.1075499555665012 0.1075499555665012 0.06238572229610968 0.06238572229610968 0.11501010478359863 0.11501010478359863 0.0506151022824379 0.0506151022824379 
219.00261639400622 0.10799566743883615 0.10799566743883615 0.06294507275127892 0.06294507275127892 0.1154558166559336 0.1154558166559336 0.05117445273760714 0.05117445273760714 
220.00324341830554 0.10837288605177295 0.10837288605177295 0.05768256293055791 0.05768256293055791 0.1154558166559336 0.1154558166559336 0.05117445273760714 0.05117445273760714 
221.00261639400622 0.10837288605177295 0.10837288605177295 0.05768256293055791 0.05768256293055791 0.1154558166559336 0.1154558166559336 0.05117445273760714 0.05117445273760714 
222.00324341830554 0.1022879389519208 0.1022879389519208 0.05173798963215069 0.05173798963215069 0.096648210518263 0.096648210518263 0.05173798963215069 0.05173798963215069 
223.00261639400622 0.09136100909116711 0.09136100909116711 0.05173798963215069 0.05173798963215069 0.08572128065750931 0.08572128065750931 0.05173798963215069 0.05173798963215069 
224.00324341830554 0.09744595619101931 0.09744595619101931 0.05173798963215069 0.05173798963215069 0.08572128065750931 0.08572128065750931 0.05173798963215069 0.05173798963215069 
225.00261639400622 0.08914211682100373 0.08914211682100373 0.04866320173576298 0.04866320173576298 0.06649051142674009 0.06649051142674009 0.04866320173576298 0.04866320173576298 
226.00324341830554 0.09218603540068578 0.09218603540068578 0.05165341863259405 0.05165341863259405 0.06953443000642216 0.06953443000642216 0.05165341863259405 0.05165341863259405 
227.00261639400622 0.09218603540068578 0.09218603540068578 0.05165341863259405 0.05165341863259405 0.06953443000642216 0.06953443000642216 0.05165341863259405 0.05165341863259405 
228.00324341830554 0.07177037953971015 0.07177037953971015 0.036877491205276204 0.036877491205276204 0.05475850257910429 0.05475850257910429 0.036877491205276204 0.036877491205276204 
229.00261639400622 0.07232003371405367 0.07232003371405367 0.037452979934161745 0.037452979934161745 0.05533399130798983 0.05533399130798983 0.037452979934161745 0.037452979934161745 
230.00324341830554 0.07232003371405367 0.07232003371405367 0.037452979934161745 0.037452979934161745 0.05533399130798983 0.05533399130798983 0.037452979934161745 0.037452979934161745 
231.00261639400622 0.07232003371405367 0.07232003371405367 0.037452979934161745 0.037452979934161745 0.05533399130798983 0.05533399130798983 0.037452979934161745 0.037452979934161745 
232.00324341830554 0.07232003371405367 0.07232003371405367 0.04084637030471666 0.04084637030471666 0.05586008654337089 0.05586008654337089 0.04084637030471666 0.04084637030471666 
233.00261639400622 0.07232003371405367 0.07232003371405367 0.04084637030471666 0.04084637030471666 0.05586008654337089 0.05586008654337089 0.04084637030471666 0.04084637030471666 
234.00324341830554 0.07232003371405367 0.07232003371405367 0.04084637030471666 0.04084637030471666 0.05586008654337089 0.05586008654337089 0.04084637030471666 0.04084637030471666 
235.00261639400622 0.07232003371405367 0.07232003371405367 0.04084637030471666 0.04084637030471666 0.05586008654337089 0.05586008654337089 0.04084637030471666 0.04084637030471666 
236.00324341830554 0.06647423955943726 0.06647423955943726 0.03500057615010024 0.03500057615010024 0.06924506161952372 0.06924506161952372 0.06924506161952372 0.06924506161952372 
237.00261639400622 0.06647423955943726 0.06647423955943726 0.03500057615010024 0.03500057615010024 0.06924506161952372 0.06924506161952372 0.06924506161952372 0.06924506161952372 
238.00324341830554 0.07662405283069354 0.07662405283069354 0.04515038942135655 0.04515038942135655 0.0849537267552511 0.0849537267552511 0.07939487489078004 0.07939487489078004 
239.00261639400622 0.07667569008098114 0.07667569008098114 0.04500446382189979 0.04500446382189979 0.08480780115579437 0.08480780115579437 0.07924894929132327 0.07924894929132327 
240.00324341830554 0.07667569008098114 0.07667569008098114 0.04500446382189979 0.04500446382189979 0.08480780115579437 0.08480780115579437 0.07924894929132327 0.07924894929132327 
241.00261639400622 0.07667569008098114 0.07667569008098114 0.04500446382189979 0.04500446382189979 0.08480780115579437 0.08480780115579437 0.07924894929132327 0.07924894929132327 
242.00324341830554 0.07667569008098114 0.07667569008098114 0.04591747206477388 0.04591747206477388 0.08480780115579437 0.08480780115579437 0.07991486741832256 0.07991486741832256 
243.00261639400622 0.07667569008098114 0.07667569008098114 0.04591747206477388 0.04591747206477388 0.09590645931175036 0.09590645931175036 0.07991486741832256 0.07991486741832256 
244.00324341830554 0.07667569008098114 0.07667569008098114 0.04591747206477388 0.04591747206477388 0.09590645931175036 0.09590645931175036 0.07991486741832256 0.07991486741832256 
245.00261639400622 0.07667569008098114 0.07667569008098114 0.04591747206477388 0.04591747206477388 0.09590645931175036 0.09590645931175036 0.07991486741832256 0.07991486741832256 
246.00324341830554 0.07667569008098114 0.07667569008098114 0.04591747206477388 0.04591747206477388 0.09590645931175036 0.09590645931175036 0.07991486741832256 0.07991486741832256 
247.00261639400622 0.07667569008098114 0.07667569008098114 0.04591747206477388 0.04591747206477388 0.09590645931175036 0.09590645931175036 0.07991486741832256 0.07991486741832256 
248.00324341830554 0.08196797269327534 0.08196797269327534 0.05120975467706811 0.05120975467706811 0.1011987419240446 0.1011987419240446 0.08520715003061678 0.08520715003061678 
249.00261639400622 0.09570369856524528 0.09570369856524528 0.05049232735604189 0.05049232735604189 0.1011999153086598 0.1011999153086598 0.08448972270959056 0.08448972270959056 
250.00324341830554 0.09570369856524528 0.09570369856524528 0.05049232735604189 0.05049232735604189 0.1011999153086598 0.1011999153086598 0.08448972270959056 0.08448972270959056 
251.00261639400622 0.09570369856524528 0.09570369856524528 0.05049232735604189 0.05049232735604189 0.1011999153086598 0.1011999153086598 0.08448972270959056 0.08448972270959056 
252.00324341830554 0.09570369856524528 0.09570369856524528 0.04690516730573721 0.04690516730573721 0.1011999153086598 0.1011999153086598 0.08530201793370512 0.08530201793370512 
253.00261639400622 0.09570369856524528 0.09570369856524528 0.04690516730573721 0.04690516730573721 0.1011999153086598 0.1011999153086598 0.08530201793370512 0.08530201793370512 
254.00324341830554 0.09570369856524528 0.09570369856524528 0.04690516730573721 0.04690516730573721 0.1011999153086598 0.1011999153086598 0.08530201793370512 0.08530201793370512 
255.00261639400622 0.09570369856524528 0.09570369856524528 0.04690516730573721 0.04690516730573721 0.1011999153086598 0.1011999153086598 0.08530201793370512 0.08530201793370512 
256.00324341830554 0.09570369856524528 0.09570369856524528 0.04690516730573721 0.04690516730573721 0.08196914607789056 0.08196914607789056 0.06607124870293589 0.06607124870293589 
257.0026163940062 0.09570369856524528 0.09570369856524528 0.04690516730573721 0.04690516730573721 0.08196914607789056 0.08196914607789056 0.06607124870293589 0.06607124870293589 
258.00324341830554 0.09331667007614378 0.09331667007614378 0.0445181388166357 0.0445181388166357 0.07958211758878903 0.07958211758878903 0.06368422021383438 0.06368422021383438 
259.0026163940062 0.07954392503537606 0.07954392503537606 0.042221360777888385 0.042221360777888385 0.07954392503537606 0.07954392503537606 0.06138744217508706 0.06138744217508706 
260.00324341830554 0.07954392503537606 0.07954392503537606 0.042221360777888385 0.042221360777888385 0.07954392503537606 0.07954392503537606 0.06138744217508706 0.06138744217508706 
261.0026163940062 0.09331667007614378 0.09331667007614378 0.042221360777888385 0.042221360777888385 0.07954392503537606 0.07954392503537606 0.06138744217508706 0.06138744217508706 
262.00324341830554 0.09331667007614378 0.09331667007614378 0.04845186756153781 0.04845186756153781 0.07954392503537606 0.07954392503537606 0.06239175268545656 0.06239175268545656 
263.0026163940062 0.09331667007614378 0.09331667007614378 0.04845186756153781 0.04845186756153781 0.07954392503537606 0.07954392503537606 0.06239175268545656 0.06239175268545656 
264.00324341830554 0.09615384615384616 0.09615384615384616 0.04845186756153781 0.04845186756153781 0.07954392503537606 0.07954392503537606 0.06239175268545656 0.06239175268545656 
265.0026163940062 0.09615384615384616 0.09615384615384616 0.04845186756153781 0.04845186756153781 0.07954392503537606 0.07954392503537606 0.06239175268545656 0.06239175268545656 
266.00324341830554 0.09615384615384616 0.09615384615384616 0.04845186756153781 0.04845186756153781 0.07954392503537606 0.07954392503537606 0.06239175268545656 0.06239175268545656 
267.0026163940062 0.09615384615384616 0.09615384615384616 0.04845186756153781 0.04845186756153781 0.07954392503537606 0.07954392503537606 0.06239175268545656 0.06239175268545656 
268.00324341830554 0.07692307692307694 0.07692307692307694 0.03205827440847096 0.03205827440847096 0.08238110111307845 0.08238110111307845 0.045998159532389726 0.045998159532389726 
269.0026163940062 0.05769230769230768 0.05769230769230768 0.02189604078133636 0.02189604078133636 0.09615384615384616 0.09615384615384616 0.05461597968931995 0.05461597968931995 
270.00324341830554 0.05769230769230768 0.05769230769230768 0.02189604078133636 0.02189604078133636 0.09615384615384616 0.09615384615384616 0.05461597968931995 0.05461597968931995 
271.0026163940062 0.05769230769230768 0.05769230769230768 0.02189604078133636 0.02189604078133636 0.09615384615384616 0.09615384615384616 0.05461597968931995 0.05461597968931995 
272.00324341830554 0.05769230769230768 0.05769230769230768 0.023540395317805586 0.023540395317805586 0.09615384615384616 0.09615384615384616 0.05769230769230768 0.05769230769230768 
273.0026163940062 0.05769230769230768 0.05769230769230768 0.023540395317805586 0.023540395317805586 0.09615384615384616 0.09615384615384616 0.05769230769230768 0.05769230769230768 
274.00324341830554 0.05769230769230768 0.05769230769230768 0.023540395317805586 0.023540395317805586 0.08266550467051405 0.08266550467051405 0.05769230769230768 0.05769230769230768 
275.0026163940062 0.05769230769230768 0.05769230769230768 0.023540395317805586 0.023540395317805586 0.08266550467051405 0.08266550467051405 0.05769230769230768 0.05769230769230768 
276.00324341830554 0.05769230769230768 0.05769230769230768 0.023540395317805586 0.023540395317805586 0.08266550467051405 0.08266550467051405 0.05769230769230768 0.05769230769230768 
277.0026163940062 0.05769230769230768 0.05769230769230768 0.023540395317805586 0.023540395317805586 0.08266550467051405 0.08266550467051405 0.05769230769230768 0.05769230769230768 
278.00324341830554 0.05769230769230768 0.05769230769230768 0.023540395317805586 0.023540395317805586 0.06343473543974479 0.06343473543974479 0.05769230769230768 0.05769230769230768 
279.0026163940062 0.03846153846153847 0.03846153846153847 0.023089679871101224 0.023089679871101224 0.044203966208975584 0.044203966208975584 0.03846153846153847 0.03846153846153847 
280.00324341830554 0.03846153846153847 0.03846153846153847 0.03657802135443333 0.03657802135443333 0.044203966208975584 0.044203966208975584 0.03846153846153847 0.03846153846153847 
281.0026163940062 0.03846153846153847 0.03846153846153847 0.03657802135443333 0.03657802135443333 0.02497319697820637 0.02497319697820637 0.03846153846153847 0.03846153846153847 
282.00324341830554 0.03846153846153847 0.03846153846153847 0.018997264882182195 0.018997264882182195 0.019428900452969265 0.019428900452969265 0.03846153846153847 0.03846153846153847 
283.0026163940062 0.03846153846153847 0.03846153846153847 0.018997264882182195 0.018997264882182195 0.019428900452969265 0.019428900452969265 0.03846153846153847 0.03846153846153847 
284.00324341830554 0.03846153846153847 0.03846153846153847 0.038029902890751414 0.038029902890751414 0.019428900452969265 0.019428900452969265 0.03846153846153847 0.03846153846153847 
285.0026163940062 0.03846153846153847 0.03846153846153847 0.038029902890751414 0.038029902890751414 0.019428900452969265 0.019428900452969265 0.03846153846153847 0.03846153846153847 
286.00324341830554 0.03846153846153847 0.03846153846153847 0.038029902890751414 0.038029902890751414 0.019428900452969265 0.019428900452969265 0.03846153846153847 0.03846153846153847 
287.0026163940062 0.03846153846153847 0.03846153846153847 0.038029902890751414 0.038029902890751414 0.019428900452969265 0.019428900452969265 0.03846153846153847 0.03846153846153847 
288.00324341830554 0.03846153846153847 0.03846153846153847 0.038029902890751414 0.038029902890751414 0.019428900452969265 0.019428900452969265 0.03846153846153847 0.03846153846153847 
289.0026163940062 0.03846153846153847 0.03846153846153847 0.038029902890751414 0.038029902890751414 0.019428900452969265 0.019428900452969265 0.03846153846153847 0.03846153846153847 
290.00324341830554 0.03846153846153847 0.03846153846153847 0.038029902890751414 0.038029902890751414 0.019428900452969265 0.019428900452969265 0.03846153846153847 0.03846153846153847 
291.0026163940062 0.03846153846153847 0.03846153846153847 0.038029902890751414 0.038029902890751414 0.019428900452969265 0.019428900452969265 0.03846153846153847 0.03846153846153847 
292.00324341830554 0.03846153846153847 0.03846153846153847 0.03716349118304536 0.03716349118304536 0.02622180736617811 0.02622180736617811 0.03846153846153847 0.03846153846153847 
293.0026163940062 0.03846153846153847 0.03846153846153847 0.03716349118304536 0.03716349118304536 0.02622180736617811 0.02622180736617811 0.03846153846153847 0.03846153846153847 
294.00324341830554 0.03846153846153847 0.03846153846153847 0.03716349118304536 0.03716349118304536 0.03846153846153847 0.03846153846153847 0.03846153846153847 0.03846153846153847 
295.0026163940062 0.03846153846153847 0.03846153846153847 0.03716349118304536 0.03716349118304536 0.03846153846153847 0.03846153846153847 0.03846153846153847 0.03846153846153847 
296.00324341830554 0.03846153846153847 0.03846153846153847 0.03716349118304536 0.03716349118304536 0.03846153846153847 0.03846153846153847 0.03846153846153847 0.03846153846153847 
297.0026163940062 0.03846153846153847 0.03846153846153847 0.03716349118304536 0.03716349118304536 0.03846153846153847 0.03846153846153847 0.03846153846153847 0.03846153846153847 
298.00324341830554 0.03846153846153847 0.03846153846153847 0.03716349118304536 0.03716349118304536 0.03846153846153847 0.03846153846153847 0.03846153846153847 0.03846153846153847 
299.0026163940062 0.03846153846153847 0.03846153846153847 0.03716349118304536 0.03716349118304536 0.03846153846153847 0.03846153846153847 0.03846153846153847 0.03846153846153847 
300.00324341830554 0.03846153846153847 0.03846153846153847 0.03716349118304536 0.03716349118304536 0.03846153846153847 0.03846153846153847 0.02622180736617811 0.02622180736617811 
#####################################################################
# End of data export. Simulation finished at: 2017-02-14T18:31+0000 #
#####################################################################
