#####################################################################
# Alchemist log file - simulation started at: 2017-02-14T17:54+0000 #
#####################################################################
# seed = 23.0
#
# The columns have the following meaning: 
# time go-co-to[Mean] go-co-tsync[Mean] go-cmp-to[Mean] go-cmp-tsync[Mean] flex-co-to[Mean] flex-co-tsync[Mean] flex-cmp-to[Mean] flex-cmp-tsync[Mean] 
0.0 NaN NaN NaN NaN NaN NaN NaN NaN 
1.0078881452008845 NaN NaN NaN NaN NaN NaN NaN NaN 
2.0094974037020332 NaN NaN NaN NaN NaN NaN NaN NaN 
3.0078881452008845 NaN NaN NaN NaN NaN NaN NaN NaN 
4.009497403702033 NaN NaN NaN NaN NaN NaN NaN NaN 
5.0078881452008845 NaN NaN NaN NaN NaN NaN NaN NaN 
6.002101969168097 NaN NaN NaN NaN NaN NaN NaN NaN 
7.0078881452008845 NaN NaN NaN NaN NaN NaN NaN NaN 
8.008862043637912 NaN NaN NaN NaN NaN NaN NaN NaN 
9.007888145200884 NaN NaN NaN NaN NaN NaN NaN NaN 
10.009497403702033 NaN NaN NaN NaN NaN NaN NaN NaN 
11.007888145200884 NaN NaN NaN NaN NaN NaN NaN NaN 
12.009497403702033 NaN NaN NaN NaN NaN NaN NaN NaN 
13.007888145200884 NaN NaN NaN NaN NaN NaN NaN NaN 
14.009497403702033 NaN NaN NaN NaN NaN NaN NaN NaN 
15.007888145200884 NaN NaN NaN NaN NaN NaN NaN NaN 
16.002101969168095 NaN NaN NaN NaN NaN NaN NaN NaN 
17.007888145200884 NaN NaN NaN NaN NaN NaN NaN NaN 
18.00886204363791 NaN NaN NaN NaN NaN NaN NaN NaN 
19.007888145200884 NaN NaN NaN NaN NaN NaN NaN NaN 
20.009497403702035 NaN NaN NaN NaN NaN NaN NaN NaN 
21.007888145200884 1.0 1.0 1.0 1.0 1.0 1.0 1.0 1.0 
22.009497403702035 1.0 1.0 1.0 1.0 1.0 1.0 1.0 1.0 
23.007888145200884 1.0 1.0 1.0 1.0 1.0 1.0 1.0 1.0 
24.009497403702035 1.0 1.0 1.0 1.0 1.0 1.0 1.0 1.0 
25.007888145200884 1.0 1.0 1.0 1.0 1.0 1.0 1.0 1.0 
26.002101969168095 0.975 0.975 0.975 0.975 0.975 0.975 0.975 0.975 
27.007888145200884 0.975 0.975 0.975 0.975 0.975 0.975 0.975 0.975 
28.00886204363791 0.95 0.95 0.95 0.95 0.95 0.95 0.95 0.95 
29.007888145200884 0.95 0.95 0.95 0.95 0.95 0.95 0.95 0.95 
30.009497403702035 0.95 0.95 0.95 0.95 0.95 0.95 0.95 0.95 
31.007888145200884 0.95 0.95 0.95 0.95 0.95 0.95 0.95 0.95 
32.009497403702035 0.95 0.95 0.95 0.95 0.95 0.95 0.95 0.95 
33.00788814520088 0.9184068863600113 0.9184068863600113 0.95 0.95 0.9184068863600113 0.9184068863600113 0.95 0.95 
34.009497403702035 0.8221511487858927 0.8221511487858927 0.95 0.95 0.8221511487858927 0.8221511487858927 0.95 0.95 
35.00788814520088 0.7763995299137879 0.7763995299137879 0.95 0.95 0.7666045761770499 0.7666045761770499 0.95 0.95 
36.002101969168095 0.6738797131821606 0.6738797131821606 0.925 0.925 0.6796542461420999 0.6796542461420999 0.925 0.925 
37.00788814520088 0.6700091198344719 0.6700091198344719 0.9 0.9 0.6469807598928888 0.6469807598928888 0.9 0.9 
38.00886204363791 0.7185219048790987 0.7185219048790987 0.9 0.9 0.5470585010088257 0.5470585010088257 0.9 0.9 
39.00788814520088 0.643500253413971 0.643500253413971 0.9 0.9 0.49793366633159597 0.49793366633159597 0.9 0.9 
40.009497403702035 0.5006187198937843 0.5006187198937843 0.9 0.9 0.4111115026394171 0.4111115026394171 0.9 0.9 
41.00788814520088 0.5538682048514333 0.5538682048514333 0.9 0.9 0.3648978852189662 0.3648978852189662 0.8773288164661747 0.8773288164661747 
42.009497403702035 0.48511393060983304 0.48511393060983304 0.875 0.875 0.36956762520168035 0.36956762520168035 0.7600987782978075 0.7600987782978075 
43.00788814520088 0.43372955994231766 0.43372955994231766 0.843273324120895 0.843273324120895 0.3783148023591582 0.3783148023591582 0.7154345752402141 0.7154345752402141 
44.009497403702035 0.4303434915276471 0.4303434915276471 0.7532936698931872 0.7532936698931872 0.2972839153403911 0.2972839153403911 0.6248425030963525 0.6248425030963525 
45.00788814520088 0.4013007892926788 0.4013007892926788 0.7348865074711047 0.7348865074711047 0.32819378741926253 0.32819378741926253 0.5773590819852984 0.5773590819852984 
46.002101969168095 0.325515401271755 0.325515401271755 0.6697106274083847 0.6697106274083847 0.30789214546334503 0.30789214546334503 0.5374864057200684 0.5374864057200684 
47.00788814520088 0.3742886494464439 0.3742886494464439 0.6347085567487633 0.6347085567487633 0.30387370232983424 0.30387370232983424 0.4983838522275908 0.4983838522275908 
48.00886204363791 0.46099354869997494 0.46099354869997494 0.5902868000715203 0.5902868000715203 0.3493144480672957 0.3493144480672957 0.43551941349015366 0.43551941349015366 
49.00788814520088 0.4230881821562487 0.4230881821562487 0.5174092938591144 0.5174092938591144 0.3444992974752836 0.3444992974752836 0.4063443019854632 0.4063443019854632 
50.009497403702035 0.5335173277333386 0.5335173277333386 0.41178985564161863 0.41178985564161863 0.3370993672971318 0.3370993672971318 0.3449902621881978 0.3449902621881978 
51.00788814520088 0.6251802732760456 0.6251802732760456 0.39178347398868196 0.39178347398868196 0.343216991912334 0.343216991912334 0.3471518125204526 0.3471518125204526 
52.009497403702035 0.5046107580705674 0.5046107580705674 0.35102279743103 0.35102279743103 0.2992132867619334 0.2992132867619334 0.29761418819441987 0.29761418819441987 
53.00788814520088 0.509135112921219 0.509135112921219 0.37252567798399305 0.37252567798399305 0.2790247900935642 0.2790247900935642 0.2959627417501378 0.2959627417501378 
54.009497403702035 0.555130233581261 0.555130233581261 0.32842198485153823 0.32842198485153823 0.26934838901749375 0.26934838901749375 0.26349365441880584 0.26349365441880584 
55.00788814520088 0.4970007393918385 0.4970007393918385 0.2988382936120257 0.2988382936120257 0.2666207339572549 0.2666207339572549 0.269684119657382 0.269684119657382 
56.002101969168095 0.5090702953479371 0.5090702953479371 0.28261564763098984 0.28261564763098984 0.2856831107199892 0.2856831107199892 0.23716172467798463 0.23716172467798463 
57.00788814520088 0.48429773140657706 0.48429773140657706 0.28411301459459837 0.28411301459459837 0.2862807863984575 0.2862807863984575 0.23665535072697996 0.23665535072697996 
58.00886204363791 0.4424822743383192 0.4424822743383192 0.2941709722004469 0.2941709722004469 0.28372101792104076 0.28372101792104076 0.2813697900423001 0.2813697900423001 
59.00788814520088 0.4234577153486208 0.4234577153486208 0.2941125947027143 0.2941125947027143 0.2818582146435 0.2818582146435 0.28163236296123956 0.28163236296123956 
60.009497403702035 0.3935723055284722 0.3935723055284722 0.2875101057953171 0.2875101057953171 0.2406729245843827 0.2406729245843827 0.2689169810552105 0.2689169810552105 
61.00788814520088 0.3940866908164356 0.3940866908164356 0.2884720806552215 0.2884720806552215 0.24167859514341902 0.24167859514341902 0.2690453049091867 0.2690453049091867 
62.009497403702035 0.36419861453439667 0.36419861453439667 0.26047843941731247 0.26047843941731247 0.30603899937406454 0.30603899937406454 0.2919887942137766 0.2919887942137766 
63.00788814520088 0.33435196506739095 0.33435196506739095 0.26127296946204687 0.26127296946204687 0.3061544348121789 0.3061544348121789 0.2916394907403788 0.2916394907403788 
64.00949740370203 0.3128493467554508 0.3128493467554508 0.2765486994807875 0.2765486994807875 0.28989340457007134 0.28989340457007134 0.3191152413752634 0.3191152413752634 
65.00788814520088 0.308046466362272 0.308046466362272 0.27913525192594446 0.27913525192594446 0.30954122874782813 0.30954122874782813 0.3146722953550352 0.3146722953550352 
66.0021019691681 0.31437447230383386 0.31437447230383386 0.2633894495542921 0.2633894495542921 0.40666416933985994 0.40666416933985994 0.29522428600395473 0.29522428600395473 
67.00788814520088 0.3136719766337813 0.3136719766337813 0.2633384834195218 0.2633384834195218 0.41551715477999834 0.41551715477999834 0.2947334630977597 0.2947334630977597 
68.00886204363792 0.29631551836195635 0.29631551836195635 0.24409210353983155 0.24409210353983155 0.3489876235758517 0.3489876235758517 0.27934818126376626 0.27934818126376626 
69.00788814520088 0.3003711856855003 0.3003711856855003 0.23757125187177516 0.23757125187177516 0.3527385662257298 0.3527385662257298 0.2730927379332901 0.2730927379332901 
70.00949740370203 0.31061780505823045 0.31061780505823045 0.3018538626103727 0.3018538626103727 0.35527119738136503 0.35527119738136503 0.29773565885232306 0.29773565885232306 
71.00788814520088 0.29873957012263064 0.29873957012263064 0.2919192036832297 0.2919192036832297 0.35484886051579145 0.35484886051579145 0.28543520451202015 0.28543520451202015 
72.00949740370203 0.2891578157628425 0.2891578157628425 0.2726911933009011 0.2726911933009011 0.2745933974811319 0.2745933974811319 0.26462079660871013 0.26462079660871013 
73.00788814520088 0.2839746683648112 0.2839746683648112 0.26856304417861 0.26856304417861 0.26940752191137696 0.26940752191137696 0.2671868292402599 0.2671868292402599 
74.00949740370203 0.318581446806651 0.318581446806651 0.24863499570881817 0.24863499570881817 0.2808499718141113 0.2808499718141113 0.2530293053922493 0.2530293053922493 
75.00788814520088 0.32540812368683386 0.32540812368683386 0.262443290817124 0.262443290817124 0.275918406757333 0.275918406757333 0.2527229282533853 0.2527229282533853 
76.0021019691681 0.2510436289629375 0.2510436289629375 0.2524433171837428 0.2524433171837428 0.2467867731097699 0.2467867731097699 0.25258215747718193 0.25258215747718193 
77.00788814520088 0.2731742985649893 0.2731742985649893 0.23709984051762495 0.23709984051762495 0.23564784677373024 0.23564784677373024 0.25997518344567977 0.25997518344567977 
78.00886204363792 0.2672982730288005 0.2672982730288005 0.2205498673945472 0.2205498673945472 0.24921412854929478 0.24921412854929478 0.23666577095283167 0.23666577095283167 
79.00788814520088 0.23638545181452564 0.23638545181452564 0.22596882140304486 0.22596882140304486 0.24222422380541525 0.24222422380541525 0.23035938883981 0.23035938883981 
80.00949740370203 0.3045181472078189 0.3045181472078189 0.36056553244793105 0.36056553244793105 0.2358263351747888 0.2358263351747888 0.25500265990853 0.25500265990853 
81.00788814520088 0.3640815750328364 0.3640815750328364 0.3933022914877829 0.3933022914877829 0.23073817360356327 0.23073817360356327 0.25545727763948833 0.25545727763948833 
82.00949740370203 0.41236215034828105 0.41236215034828105 0.3030513309267112 0.3030513309267112 0.23129893223098458 0.23129893223098458 0.36895007003118424 0.36895007003118424 
83.00788814520088 0.44156931320856846 0.44156931320856846 0.3364658137262337 0.3364658137262337 0.239947768665086 0.239947768665086 0.39957496739730725 0.39957496739730725 
84.00949740370203 0.4563579740437522 0.4563579740437522 0.2944032984303152 0.2944032984303152 0.24084962955891115 0.24084962955891115 0.3539078192585416 0.3539078192585416 
85.00788814520088 0.4641091347530311 0.4641091347530311 0.2677154713677758 0.2677154713677758 0.2349279813253598 0.2349279813253598 0.3749999682905376 0.3749999682905376 
86.0021019691681 0.5279756723602328 0.5279756723602328 0.3105828621396004 0.3105828621396004 0.20813335191710083 0.20813335191710083 0.3607191245123256 0.3607191245123256 
87.00788814520088 0.55926210575805 0.55926210575805 0.286978303706698 0.286978303706698 0.19808291917101306 0.19808291917101306 0.3142759590560604 0.3142759590560604 
88.00886204363792 0.5201580136749332 0.5201580136749332 0.25905981792956484 0.25905981792956484 0.2509488349688102 0.2509488349688102 0.27855624411562757 0.27855624411562757 
89.00788814520088 0.5254414717335723 0.5254414717335723 0.2631507562670986 0.2631507562670986 0.26089215736528365 0.26089215736528365 0.2884382143353326 0.2884382143353326 
90.00949740370203 0.62025969776915 0.62025969776915 0.26686352503505034 0.26686352503505034 0.29452192013991946 0.29452192013991946 0.2588625463842513 0.2588625463842513 
91.00788814520088 0.5992769693081555 0.5992769693081555 0.24818156338645675 0.24818156338645675 0.3068996034923637 0.3068996034923637 0.2632300241062632 0.2632300241062632 
92.00949740370203 0.6053430818820962 0.6053430818820962 0.2534583534426482 0.2534583534426482 0.31995754597160125 0.31995754597160125 0.23850918568526547 0.23850918568526547 
93.00788814520088 0.6051804941973824 0.6051804941973824 0.29281210604361935 0.29281210604361935 0.31477603879306676 0.31477603879306676 0.22112409073739006 0.22112409073739006 
94.00949740370203 0.5805112918311158 0.5805112918311158 0.3536775242663946 0.3536775242663946 0.3187631925555677 0.3187631925555677 0.22054543972654925 0.22054543972654925 
95.00788814520088 0.6216584151618955 0.6216584151618955 0.376488388740486 0.376488388740486 0.3192967971208781 0.3192967971208781 0.24808892516356942 0.24808892516356942 
96.0021019691681 0.6627832968414398 0.6627832968414398 0.364947234272226 0.364947234272226 0.31515026326785517 0.31515026326785517 0.24944744848992847 0.24944744848992847 
97.00788814520088 0.6635536171125646 0.6635536171125646 0.3742127853488648 0.3742127853488648 0.3153117380385212 0.3153117380385212 0.2225303793531978 0.2225303793531978 
98.00886204363792 0.7304723789421248 0.7304723789421248 0.42553188351856047 0.42553188351856047 0.3543907465497052 0.3543907465497052 0.20979634034468825 0.20979634034468825 
99.00788814520088 0.732128198778086 0.732128198778086 0.43620142900194614 0.43620142900194614 0.37506686389642574 0.37506686389642574 0.21281992119795762 0.21281992119795762 
100.00949740370203 0.6935525626829222 0.6935525626829222 0.5307895482660909 0.5307895482660909 0.3629836669083398 0.3629836669083398 0.2382110752078991 0.2382110752078991 
101.00788814520088 0.691896742846961 0.691896742846961 0.5402180862308739 0.5402180862308739 0.37789925618541587 0.37789925618541587 0.23817069133075405 0.23817069133075405 
102.00949740370203 0.6649463478910741 0.6649463478910741 0.5161515892112167 0.5161515892112167 0.38478458005440513 0.38478458005440513 0.26997310250166723 0.26997310250166723 
103.00788814520088 0.6657937046611838 0.6657937046611838 0.5403172106923425 0.5403172106923425 0.419093372757549 0.419093372757549 0.2945797514743861 0.2945797514743861 
104.00949740370203 0.6725273248152165 0.6725273248152165 0.5108929002131265 0.5108929002131265 0.4590283766260632 0.4590283766260632 0.32557609426375606 0.32557609426375606 
105.00788814520088 0.6728156434068687 0.6728156434068687 0.5255634244918517 0.5255634244918517 0.482473466883871 0.482473466883871 0.3060862673478532 0.3060862673478532 
106.0021019691681 0.6288959989855974 0.6288959989855974 0.5683259461278141 0.5683259461278141 0.4613803609875282 0.4613803609875282 0.3034337986147204 0.3034337986147204 
107.00788814520088 0.6366949199548219 0.6366949199548219 0.580471091198494 0.580471091198494 0.4750545295292387 0.4750545295292387 0.3797979321033249 0.3797979321033249 
108.00886204363792 0.6473878664930167 0.6473878664930167 0.5722663798310466 0.5722663798310466 0.5003630427549697 0.5003630427549697 0.4194013915599919 0.4194013915599919 
109.00788814520088 0.6473878664930167 0.6473878664930167 0.5852719547542953 0.5852719547542953 0.495256544600816 0.495256544600816 0.4204921139539421 0.4204921139539421 
110.00949740370203 0.665384264832893 0.665384264832893 0.6003700071127521 0.6003700071127521 0.5259820268727897 0.5259820268727897 0.41893554705692243 0.41893554705692243 
111.00788814520088 0.6806707285449752 0.6806707285449752 0.597462151164565 0.597462151164565 0.5259008322843461 0.5259008322843461 0.4270795681147544 0.4270795681147544 
112.00949740370203 0.6568337012171275 0.6568337012171275 0.6004497754315132 0.6004497754315132 0.5406802866399782 0.5406802866399782 0.4312878680153262 0.4312878680153262 
113.00788814520088 0.6568337012171275 0.6568337012171275 0.6024646829147576 0.6024646829147576 0.5406802866399782 0.5406802866399782 0.4526074187302245 0.4526074187302245 
114.00949740370203 0.6805917670962175 0.6805917670962175 0.5844750642453931 0.5844750642453931 0.5598444903977714 0.5598444903977714 0.4996194397884016 0.4996194397884016 
115.00788814520088 0.655979449817394 0.655979449817394 0.5844750642453931 0.5844750642453931 0.5675199565243997 0.5675199565243997 0.5072949059150299 0.5072949059150299 
116.0021019691681 0.6581405527802617 0.6581405527802617 0.5853322031504812 0.5853322031504812 0.5687547445231156 0.5687547445231156 0.5138976055711365 0.5138976055711365 
117.00788814520088 0.682752870059085 0.682752870059085 0.5860355274321566 0.5860355274321566 0.5860355274321566 0.5860355274321566 0.5311783884801775 0.5311783884801775 
118.00886204363792 0.6440510377319271 0.6440510377319271 0.5861073714051183 0.5861073714051183 0.5861073714051183 0.5861073714051183 0.5054892147367422 0.5054892147367422 
119.00788814520088 0.6440510377319271 0.6440510377319271 0.5861073714051183 0.5861073714051183 0.5861073714051183 0.5861073714051183 0.518823214624174 0.518823214624174 
120.00949740370203 0.6949672426853681 0.6949672426853681 0.5861547419655502 0.5861547419655502 0.5861547419655502 0.5861547419655502 0.5438640488724229 0.5438640488724229 
121.00788814520088 0.6452675653762902 0.6452675653762902 0.5602490977602771 0.5602490977602771 0.5602490977602771 0.5602490977602771 0.5179584046671499 0.5179584046671499 
122.00949740370203 0.6360100872315865 0.6360100872315865 0.5355946994056063 0.5355946994056063 0.4668003636118223 0.4668003636118223 0.492771694875712 0.492771694875712 
123.00788814520088 0.6360100872315865 0.6360100872315865 0.5355946994056063 0.5355946994056063 0.4668003636118223 0.4668003636118223 0.492771694875712 0.492771694875712 
124.00949740370203 0.5434514211361098 0.5434514211361098 0.509247583134744 0.509247583134744 0.4447448810123633 0.4447448810123633 0.509247583134744 0.509247583134744 
125.00788814520088 0.546061256951241 0.546061256951241 0.5035394737414197 0.5035394737414197 0.41497323948037473 0.41497323948037473 0.5035394737414197 0.5035394737414197 
126.0021019691681 0.5072215639811076 0.5072215639811076 0.4530051235611207 0.4530051235611207 0.36513518199715994 0.36513518199715994 0.4530051235611207 0.4530051235611207 
127.00788814520088 0.5043365443736928 0.5043365443736928 0.4530978369553448 0.4530978369553448 0.3182287223028441 0.3182287223028441 0.4530978369553448 0.4530978369553448 
128.00886204363792 0.5264810750707731 0.5264810750707731 0.45320505361338614 0.45320505361338614 0.31532132562944004 0.31532132562944004 0.45320505361338614 0.45320505361338614 
129.00788814520087 0.5294588080724121 0.5294588080724121 0.45320505361338614 0.45320505361338614 0.311977102189889 0.311977102189889 0.45320505361338614 0.45320505361338614 
130.00949740370203 0.5213465143172408 0.5213465143172408 0.45412101238541014 0.45412101238541014 0.2893252902408503 0.2893252902408503 0.45412101238541014 0.45412101238541014 
131.00788814520087 0.5213465143172408 0.5213465143172408 0.45412101238541014 0.45412101238541014 0.2893252902408503 0.2893252902408503 0.45412101238541014 0.45412101238541014 
132.00949740370203 0.5317680839210637 0.5317680839210637 0.4793228970278113 0.4793228970278113 0.278009106155504 0.278009106155504 0.4793228970278113 0.4793228970278113 
133.00788814520087 0.5037903509194247 0.5037903509194247 0.4543228970278113 0.4543228970278113 0.24376572904556676 0.24376572904556676 0.4543228970278113 0.4543228970278113 
134.00949740370203 0.5275286625509902 0.5275286625509902 0.4543228970278113 0.4543228970278113 0.265442380399226 0.265442380399226 0.4543228970278113 0.4543228970278113 
135.00788814520087 0.5055063955526291 0.5055063955526291 0.42932289702781123 0.42932289702781123 0.2856591055450999 0.2856591055450999 0.42932289702781123 0.42932289702781123 
136.0021019691681 0.4721134381031881 0.4721134381031881 0.42880513294591366 0.42880513294591366 0.2851413414632023 0.2851413414632023 0.42880513294591366 0.42880513294591366 
137.00788814520087 0.47209029333065444 0.47209029333065444 0.42878198817338 0.42878198817338 0.2851181966906686 0.2851181966906686 0.42878198817338 0.42878198817338 
138.00886204363792 0.4662629857137771 0.4662629857137771 0.4288305641343644 0.4288305641343644 0.2839433675522416 0.2839433675522416 0.36566251611575973 0.36566251611575973 
139.00788814520087 0.44126298571377714 0.44126298571377714 0.4038305641343643 0.4038305641343643 0.2903551461751429 0.2903551461751429 0.3406625161157597 0.3406625161157597 
140.00949740370203 0.4569671850808404 0.4569671850808404 0.4039440779416049 0.4039440779416049 0.29316464172712364 0.29316464172712364 0.3401471290031118 0.3401471290031118 
141.00788814520087 0.4569671850808404 0.4569671850808404 0.4039440779416049 0.4039440779416049 0.29316464172712364 0.29316464172712364 0.3226369111670655 0.3226369111670655 
142.00949740370203 0.4236901012394551 0.4236901012394551 0.3618836484319389 0.3618836484319389 0.31477265095586776 0.31477265095586776 0.2835286606895761 0.2835286606895761 
143.00788814520087 0.4210424156020912 0.4210424156020912 0.3618836484319389 0.3618836484319389 0.3346082380841389 0.3346082380841389 0.2524931185662694 0.2524931185662694 
144.00949740370203 0.4071273985896301 0.4071273985896301 0.3618836484319389 0.3618836484319389 0.33455310812032973 0.33455310812032973 0.23999202906045658 0.23999202906045658 
145.00788814520087 0.4317953570992505 0.4317953570992505 0.3618836484319389 0.3618836484319389 0.35008834365822505 0.35008834365822505 0.2443567110476461 0.2443567110476461 
146.0021019691681 0.47829908653846964 0.47829908653846964 0.36180803503619535 0.36180803503619535 0.35001273026248153 0.35001273026248153 0.23674507248354637 0.23674507248354637 
147.00788814520087 0.47829908653846964 0.47829908653846964 0.36168109862821296 0.36168109862821296 0.3442226005179017 0.3442226005179017 0.23661813607556406 0.23661813607556406 
148.00886204363792 0.4800860093757843 0.4800860093757843 0.3625293890804089 0.3625293890804089 0.34412841751212747 0.34412841751212747 0.2148920419322803 0.2148920419322803 
149.00788814520087 0.4563956838459958 0.4563956838459958 0.3625293890804089 0.3625293890804089 0.30598013690591286 0.30598013690591286 0.18597208907819654 0.18597208907819654 
150.00949740370203 0.42536438364770096 0.42536438364770096 0.36265567765313533 0.36265567765313533 0.3161169294457163 0.3161169294457163 0.17313039327726465 0.17313039327726465 
151.00788814520087 0.44905470917748935 0.44905470917748935 0.36265567765313533 0.36265567765313533 0.3161169294457163 0.3161169294457163 0.17313039327726465 0.17313039327726465 
152.00949740370203 0.47995135675069983 0.47995135675069983 0.38761467437861713 0.38761467437861713 0.37215222109405416 0.37215222109405416 0.1542374162090287 0.1542374162090287 
153.00788814520087 0.4549513567506998 0.4549513567506998 0.3626146743786171 0.3626146743786171 0.3626146743786171 0.3626146743786171 0.17361413282796975 0.17361413282796975 
154.00949740370203 0.4351257751546737 0.4351257751546737 0.3376146743786171 0.3376146743786171 0.299179924697189 0.299179924697189 0.1490020816336531 0.1490020816336531 
155.00788814520087 0.4114354496248854 0.4114354496248854 0.3376146743786171 0.3376146743786171 0.299179924697189 0.299179924697189 0.1481732886123683 0.1481732886123683 
156.0021019691681 0.37766817308579204 0.37766817308579204 0.33758788032331294 0.33758788032331294 0.27025479555269344 0.27025479555269344 0.14541588367108438 0.14541588367108438 
157.00788814520087 0.3785401873111461 0.3785401873111461 0.33734360316800227 0.33734360316800227 0.2563054820322067 0.2563054820322067 0.14608764918625267 0.14608764918625267 
158.00886204363792 0.4074420887912336 0.4074420887912336 0.337054971849674 0.337054971849674 0.2340302005390179 0.2340302005390179 0.14930693164806602 0.14930693164806602 
159.00788814520087 0.4302604000956679 0.4302604000956679 0.337054971849674 0.337054971849674 0.2248784322263701 0.2248784322263701 0.14930693164806602 0.14930693164806602 
160.00949740370203 0.44403032103998286 0.44403032103998286 0.3304815138157975 0.3304815138157975 0.2016991067158135 0.2016991067158135 0.1606911456396605 0.1606911456396605 
161.00788814520087 0.4216388346044334 0.4216388346044334 0.3304815138157975 0.3304815138157975 0.19993261861607814 0.19993261861607814 0.1606911456396605 0.1606911456396605 
162.00949740370203 0.3372970715542044 0.3372970715542044 0.3056398063274814 0.3056398063274814 0.2255358241242065 0.2255358241242065 0.17609789335631032 0.17609789335631032 
163.00788814520087 0.33687024668531973 0.33687024668531973 0.3056398063274814 0.3056398063274814 0.2255358241242065 0.2255358241242065 0.15109789335631033 0.15109789335631033 
164.00949740370203 0.38126706177843916 0.38126706177843916 0.3056398063274814 0.3056398063274814 0.21713635455302804 0.21713635455302804 0.15129004015531197 0.15129004015531197 
165.00788814520087 0.4040853730828734 0.4040853730828734 0.3056398063274814 0.3056398063274814 0.19972058186172933 0.19972058186172933 0.1503296646296022 0.1503296646296022 
166.0021019691681 0.3458651108906351 0.3458651108906351 0.3056200124053922 0.3056200124053922 0.18216286389354164 0.18216286389354164 0.15240044335544223 0.15240044335544223 
167.00788814520087 0.3233086860573201 0.3233086860573201 0.30545507400762667 0.30545507400762667 0.18843370919586017 0.18843370919586017 0.15771510145313866 0.15771510145313866 
168.00886204363792 0.33735878189356056 0.33735878189356056 0.3051909805161953 0.3051909805161953 0.19568830132611933 0.19568830132611933 0.16621683586239053 0.16621683586239053 
169.00788814520087 0.33787112423202365 0.33787112423202365 0.3051909805161953 0.3051909805161953 0.18217373950653334 0.18217373950653334 0.16621683586239053 0.16621683586239053 
170.00949740370203 0.38204129058802144 0.38204129058802144 0.30534189959325686 0.30534189959325686 0.15732465858359485 0.15732465858359485 0.14136775493945203 0.14136775493945203 
171.00788814520087 0.4040853730828734 0.4040853730828734 0.30534189959325686 0.30534189959325686 0.15732465858359485 0.15732465858359485 0.14136775493945203 0.14136775493945203 
172.00949740370203 0.36734577093182696 0.36734577093182696 0.3312983513249751 0.3312983513249751 0.1503870381596575 0.1503870381596575 0.1042679085617944 0.1042679085617944 
173.00788814520087 0.344789346098512 0.344789346098512 0.3312983513249751 0.3312983513249751 0.1503870381596575 0.1503870381596575 0.1042679085617944 0.1042679085617944 
174.00949740370203 0.3652093876506675 0.3652093876506675 0.3312983513249751 0.3312983513249751 0.19566352772846055 0.19566352772846055 0.10444228723467675 0.10444228723467675 
175.00788814520087 0.38776581248398256 0.38776581248398256 0.3312983513249751 0.3312983513249751 0.2032184057985248 0.2032184057985248 0.10379556742173829 0.10379556742173829 
176.0021019691681 0.42668448234090706 0.42668448234090706 0.3312817704899282 0.3312817704899282 0.22657828078241865 0.22657828078241865 0.09230289400619117 0.09230289400619117 
177.00788814520087 0.42668448234090706 0.42668448234090706 0.3317686891267283 0.3317686891267283 0.24611956712149946 0.24611956712149946 0.09555505916438876 0.09555505916438876 
178.00886204363792 0.3671568022673574 0.3671568022673574 0.33154971262952593 0.33154971262952593 0.2667903291884747 0.2667903291884747 0.10918131124427143 0.10918131124427143 
179.00788814520087 0.3671568022673574 0.3671568022673574 0.33154971262952593 0.33154971262952593 0.2667903291884747 0.2667903291884747 0.10918131124427143 0.10918131124427143 
180.00949740370203 0.391642337981076 0.391642337981076 0.3319650869264039 0.3319650869264039 0.2866757941958882 0.2866757941958882 0.1047530428763475 0.1047530428763475 
181.00788814520087 0.391642337981076 0.391642337981076 0.3319650869264039 0.3319650869264039 0.2866757941958882 0.2866757941958882 0.1047530428763475 0.1047530428763475 
182.00949740370203 0.40114171427559836 0.40114171427559836 0.3064223188610952 0.3064223188610952 0.2724098033778396 0.2724098033778396 0.12798616283216221 0.12798616283216221 
183.00788814520087 0.40114171427559836 0.40114171427559836 0.3064223188610952 0.3064223188610952 0.2724098033778396 0.2724098033778396 0.12798616283216221 0.12798616283216221 
184.00949740370203 0.3454717023874709 0.3454717023874709 0.3064223188610952 0.3064223188610952 0.2378820176629646 0.2378820176629646 0.12820034447016984 0.12820034447016984 
185.00788814520087 0.3454717023874709 0.3454717023874709 0.3064223188610952 0.3064223188610952 0.256077083880875 0.256077083880875 0.12790999230781028 0.12790999230781028 
186.0021019691681 0.37522213325672554 0.37522213325672554 0.30569461945712295 0.30569461945712295 0.21656918768886496 0.21656918768886496 0.11581378851098162 0.11581378851098162 
187.00788814520087 0.37522213325672554 0.37522213325672554 0.30633949595679477 0.30633949595679477 0.20231881818846392 0.20231881818846392 0.10156341901058057 0.10156341901058057 
188.00886204363792 0.3023129797383162 0.3023129797383162 0.2561722693125077 0.2561722693125077 0.14377533114989247 0.14377533114989247 0.12354740910397062 0.12354740910397062 
189.00788814520087 0.3023129797383162 0.3023129797383162 0.2561722693125077 0.2561722693125077 0.13816909172508765 0.13816909172508765 0.1235367322840574 0.1235367322840574 
190.00949740370203 0.293176056707514 0.293176056707514 0.25682778086202857 0.25682778086202857 0.11564991069230841 0.11564991069230841 0.12840218506157153 0.12840218506157153 
191.00788814520087 0.293176056707514 0.293176056707514 0.25682778086202857 0.25682778086202857 0.09644113309413116 0.09644113309413116 0.12840218506157153 0.12840218506157153 
192.00949740370203 0.2778245748047895 0.2778245748047895 0.25647782078031306 0.25647782078031306 0.0946822633795575 0.0946822633795575 0.07793424538700394 0.07793424538700394 
193.00788814520087 0.2778245748047895 0.2778245748047895 0.25647782078031306 0.25647782078031306 0.09507255888824072 0.09507255888824072 0.07793424538700394 0.07793424538700394 
194.00949740370203 0.2779024504771563 0.2779024504771563 0.25647782078031306 0.25647782078031306 0.09518009491293805 0.09518009491293805 0.07813711033351924 0.07813711033351924 
195.00788814520087 0.2779024504771563 0.2779024504771563 0.25647782078031306 0.25647782078031306 0.08359435639955365 0.08359435639955365 0.07829338074468178 0.07829338074468178 
196.0021019691681 0.2779024504771563 0.2779024504771563 0.25647782078031306 0.25647782078031306 0.08359435639955365 0.08359435639955365 0.07829338074468178 0.07829338074468178 
197.00788814520087 0.2779024504771563 0.2779024504771563 0.25533840811700886 0.25533840811700886 0.08366272644546474 0.08366272644546474 0.0783617507905929 0.0783617507905929 
198.00886204363792 0.27780740620412786 0.27780740620412786 0.25524336384398055 0.25524336384398055 0.08308212190927997 0.08308212190927997 0.05278114625440812 0.05278114625440812 
199.00788814520087 0.27780740620412786 0.27780740620412786 0.25524336384398055 0.25524336384398055 0.08311226202545274 0.08311226202545274 0.05940786866790678 0.05940786866790678 
200.00949740370203 0.3014600600722056 0.3014600600722056 0.27889601771205824 0.27889601771205824 0.059549098364687504 0.059549098364687504 0.05818982275202938 0.05818982275202938 
201.00788814520087 0.3014600600722056 0.3014600600722056 0.27889601771205824 0.27889601771205824 0.06444654194433665 0.06444654194433665 0.05818982275202938 0.05818982275202938 
202.00949740370203 0.27643204872067395 0.27643204872067395 0.25386800636052664 0.25386800636052664 0.09606435748290273 0.09606435748290273 0.06280861487514748 0.06280861487514748 
203.00788814520087 0.27643204872067395 0.27643204872067395 0.25386800636052664 0.25386800636052664 0.09094341237535615 0.09094341237535615 0.06242058278161358 0.06242058278161358 
204.00949740370203 0.27643204872067395 0.27643204872067395 0.25386800636052664 0.25386800636052664 0.14329084847528728 0.14329084847528728 0.06255421193988983 0.06255421193988983 
205.00788814520087 0.25143204872067393 0.25143204872067393 0.2288680063605266 0.2288680063605266 0.1568301362332292 0.1568301362332292 0.07548298585649064 0.07548298585649064 
206.0021019691681 0.25143204872067393 0.25143204872067393 0.2288680063605266 0.2288680063605266 0.16959100599603358 0.16959100599603358 0.07548298585649064 0.07548298585649064 
207.00788814520087 0.25143204872067393 0.25143204872067393 0.22962469323824738 0.22962469323824738 0.17802028760070074 0.17802028760070074 0.07651489521721044 0.07651489521721044 
208.00886204363792 0.25143204872067393 0.25143204872067393 0.22962469323824738 0.22962469323824738 0.16659776310740043 0.16659776310740043 0.07546700969722392 0.07546700969722392 
209.00788814520087 0.25143204872067393 0.25143204872067393 0.22962469323824738 0.22962469323824738 0.16659776310740043 0.16659776310740043 0.07546700969722392 0.07546700969722392 
210.00949740370203 0.25077736059717176 0.25077736059717176 0.22897000511474525 0.22897000511474525 0.20313565311474882 0.20313565311474882 0.10262355638135849 0.10262355638135849 
211.00788814520087 0.25077736059717176 0.25077736059717176 0.22897000511474525 0.22897000511474525 0.20313565311474882 0.20313565311474882 0.10262355638135849 0.10262355638135849 
212.00949740370203 0.27576188396211143 0.27576188396211143 0.2539545284796848 0.2539545284796848 0.17936918230664753 0.17936918230664753 0.10523634163186346 0.10523634163186346 
213.00788814520087 0.27576188396211143 0.27576188396211143 0.2539545284796848 0.2539545284796848 0.18320450904844812 0.18320450904844812 0.10623488756673845 0.10623488756673845 
214.00949740370203 0.27576188396211143 0.27576188396211143 0.2539545284796848 0.2539545284796848 0.15590431658076606 0.15590431658076606 0.106613433908851 0.106613433908851 
215.00788814520087 0.27576188396211143 0.27576188396211143 0.2539545284796848 0.2539545284796848 0.11906032335526615 0.11906032335526615 0.10600213966909906 0.10600213966909906 
216.0021019691681 0.27576188396211143 0.27576188396211143 0.2539545284796848 0.2539545284796848 0.11234626177797485 0.11234626177797485 0.10480537607871096 0.10480537607871096 
217.00788814520087 0.2507618839621114 0.2507618839621114 0.23010312427412768 0.23010312427412768 0.13122062997838063 0.13122062997838063 0.12367974427911674 0.12367974427911674 
218.00886204363792 0.2507618839621114 0.2507618839621114 0.23010312427412768 0.23010312427412768 0.12898706302017918 0.12898706302017918 0.11334248142525256 0.11334248142525256 
219.00788814520087 0.2507618839621114 0.2507618839621114 0.23010312427412768 0.23010312427412768 0.12898706302017918 0.12898706302017918 0.11334248142525256 0.11334248142525256 
220.00949740370203 0.2507618839621114 0.2507618839621114 0.23010312427412768 0.23010312427412768 0.1558363410440676 0.1558363410440676 0.11661080099124196 0.11661080099124196 
221.00788814520087 0.2507618839621114 0.2507618839621114 0.23010312427412768 0.23010312427412768 0.1558363410440676 0.1558363410440676 0.09161080099124198 0.09161080099124198 
222.00949740370203 0.22573654845744376 0.22573654845744376 0.20507778876946003 0.20507778876946003 0.13076817813038602 0.13076817813038602 0.12501053007419172 0.12501053007419172 
223.00788814520087 0.22573654845744376 0.22573654845744376 0.20507778876946003 0.20507778876946003 0.13076817813038602 0.13076817813038602 0.12501053007419172 0.12501053007419172 
224.00949740370203 0.20073654845744376 0.20073654845744376 0.18007778876946004 0.18007778876946004 0.1516677432928729 0.1516677432928729 0.14634584347234111 0.14634584347234111 
225.00788814520087 0.17573654845744371 0.17573654845744371 0.15507778876946002 0.15507778876946002 0.17494357121409085 0.17494357121409085 0.16962167139355908 0.16962167139355908 
226.0021019691681 0.20000000000000004 0.20000000000000004 0.1793412403120163 0.1793412403120163 0.17494357121409085 0.17494357121409085 0.16962167139355908 0.16962167139355908 
227.00788814520087 0.20000000000000004 0.20000000000000004 0.1810465193669337 0.1810465193669337 0.17664885026900823 0.17664885026900823 0.17132695044847648 0.17132695044847648 
228.00886204363792 0.20000000000000004 0.20000000000000004 0.1810465193669337 0.1810465193669337 0.1481416349303092 0.1481416349303092 0.16829085521467743 0.16829085521467743 
229.00788814520087 0.20000000000000004 0.20000000000000004 0.1810465193669337 0.1810465193669337 0.1481416349303092 0.1481416349303092 0.16829085521467743 0.16829085521467743 
230.00949740370203 0.20000000000000004 0.20000000000000004 0.1810465193669337 0.1810465193669337 0.12677064651281778 0.12677064651281778 0.146919866797186 0.146919866797186 
231.00788814520087 0.20000000000000004 0.20000000000000004 0.1810465193669337 0.1810465193669337 0.10177064651281778 0.10177064651281778 0.146919866797186 0.146919866797186 
232.00949740370203 0.175 0.175 0.1560465193669337 0.1560465193669337 0.10146924813446431 0.10146924813446431 0.11012758352916235 0.11012758352916235 
233.00788814520087 0.175 0.175 0.1560465193669337 0.1560465193669337 0.10146924813446431 0.10146924813446431 0.08512758352916235 0.08512758352916235 
234.00949740370203 0.175 0.175 0.1560465193669337 0.1560465193669337 0.12607912794632062 0.12607912794632062 0.08987110075573379 0.08987110075573379 
235.00788814520087 0.175 0.175 0.1560465193669337 0.1560465193669337 0.10107912794632062 0.10107912794632062 0.08987110075573379 0.08987110075573379 
236.0021019691681 0.175 0.175 0.1560465193669337 0.1560465193669337 0.09276822399652104 0.09276822399652104 0.0853061419033469 0.0853061419033469 
237.00788814520087 0.175 0.175 0.15869430871441845 0.15869430871441845 0.0954160133440058 0.0954160133440058 0.06295393125083165 0.06295393125083165 
238.00886204363792 0.175 0.175 0.15869430871441845 0.15869430871441845 0.0674155310199926 0.0674155310199926 0.05912443236830319 0.05912443236830319 
239.00788814520087 0.175 0.175 0.15869430871441845 0.15869430871441845 0.0674155310199926 0.0674155310199926 0.05912443236830319 0.05912443236830319 
240.00949740370203 0.175 0.175 0.15869430871441845 0.15869430871441845 0.056102403726861524 0.056102403726861524 0.06296389341572792 0.06296389341572792 
241.00788814520087 0.175 0.175 0.15869430871441845 0.15869430871441845 0.056102403726861524 0.056102403726861524 0.06296389341572792 0.06296389341572792 
242.00949740370203 0.15000000000000002 0.15000000000000002 0.13369430871441845 0.13369430871441845 0.10322092508484608 0.10322092508484608 0.0868860546756029 0.0868860546756029 
243.00788814520087 0.15000000000000002 0.15000000000000002 0.13369430871441845 0.13369430871441845 0.10322092508484608 0.10322092508484608 0.0868860546756029 0.0868860546756029 
244.00949740370203 0.15000000000000002 0.15000000000000002 0.13369430871441845 0.13369430871441845 0.08350627332107069 0.08350627332107069 0.0653677630099371 0.0653677630099371 
245.00788814520087 0.15000000000000002 0.15000000000000002 0.13369430871441845 0.13369430871441845 0.08350627332107069 0.08350627332107069 0.0653677630099371 0.0653677630099371 
246.0021019691681 0.15000000000000002 0.15000000000000002 0.13369430871441845 0.13369430871441845 0.07991220892664515 0.07991220892664515 0.06177369861551154 0.06177369861551154 
247.00788814520087 0.125 0.125 0.125 0.125 0.07121790021222668 0.07121790021222668 0.07807938990109307 0.07807938990109307 
248.00886204363792 0.125 0.125 0.125 0.125 0.06724072497545672 0.06724072497545672 0.07406174438799099 0.07406174438799099 
249.00788814520087 0.125 0.125 0.125 0.125 0.06724072497545672 0.06724072497545672 0.07406174438799099 0.07406174438799099 
250.00949740370203 0.125 0.125 0.125 0.125 0.0705713990693107 0.0705713990693107 0.07739241848184494 0.07739241848184494 
251.00788814520087 0.125 0.125 0.125 0.125 0.0705713990693107 0.0705713990693107 0.07739241848184494 0.07739241848184494 
252.00949740370203 0.15 0.15 0.13275099410041483 0.13275099410041483 0.07156455979787908 0.07156455979787908 0.05380024022511634 0.05380024022511634 
253.00788814520087 0.15 0.15 0.13275099410041483 0.13275099410041483 0.07156455979787908 0.07156455979787908 0.05380024022511634 0.05380024022511634 
254.00949740370203 0.15 0.15 0.08336006486194539 0.08336006486194539 0.047164587170599216 0.047164587170599216 0.05398560658313348 0.05398560658313348 
255.00788814520087 0.15 0.15 0.08336006486194539 0.08336006486194539 0.047164587170599216 0.047164587170599216 0.05398560658313348 0.05398560658313348 
256.0021019691681 0.09056602459221955 0.09056602459221955 0.07831284198891328 0.07831284198891328 0.08997332795051363 0.08997332795051363 0.05398560658313348 0.05398560658313348 
257.00788814520087 0.09056602459221955 0.09056602459221955 0.07831284198891328 0.07831284198891328 0.08997332795051363 0.08997332795051363 0.02898560658313347 0.02898560658313347 
258.0088620436379 0.10042875929305449 0.10042875929305449 0.05331284198891329 0.05331284198891329 0.07805530418139954 0.07805530418139954 0.04960483900105104 0.04960483900105104 
259.00788814520087 0.10042875929305449 0.10042875929305449 0.05331284198891329 0.05331284198891329 0.07805530418139954 0.07805530418139954 0.04960483900105104 0.04960483900105104 
260.009497403702 0.04630390989059149 0.04630390989059149 0.045760040179891465 0.045760040179891465 0.07805530418139954 0.07805530418139954 0.05267152897921328 0.05267152897921328 
261.00788814520087 0.04630390989059149 0.04630390989059149 0.045760040179891465 0.045760040179891465 0.07805530418139954 0.07805530418139954 0.05267152897921328 0.05267152897921328 
262.009497403702 0.06787600407815757 0.06787600407815757 0.04301170537872796 0.04301170537872796 0.12560002737272014 0.12560002737272014 0.04975192609838416 0.04975192609838416 
263.00788814520087 0.06787600407815757 0.06787600407815757 0.04301170537872796 0.04301170537872796 0.12560002737272014 0.12560002737272014 0.04975192609838416 0.04975192609838416 
264.009497403702 0.05041926636571743 0.05041926636571743 0.043295270443874996 0.043295270443874996 0.10088479605301139 0.10088479605301139 0.05003549116353118 0.05003549116353118 
265.00788814520087 0.05041926636571743 0.05041926636571743 0.043295270443874996 0.043295270443874996 0.10088479605301139 0.10088479605301139 0.05003549116353118 0.05003549116353118 
266.0021019691681 0.05041926636571743 0.05041926636571743 0.043295270443874996 0.043295270443874996 0.09376080013116894 0.09376080013116894 0.05003549116353118 0.05003549116353118 
267.00788814520087 0.05041926636571743 0.05041926636571743 0.043295270443874996 0.043295270443874996 0.09376080013116894 0.09376080013116894 0.05003549116353118 0.05003549116353118 
268.0088620436379 0.025419266365717418 0.025419266365717418 0.015466157312807208 0.015466157312807208 0.06593168700010114 0.06593168700010114 0.015466157312807208 0.015466157312807208 
269.00788814520087 0.025419266365717418 0.025419266365717418 0.015466157312807208 0.015466157312807208 0.06593168700010114 0.06593168700010114 0.015466157312807208 0.015466157312807208 
270.009497403702 0.04999999999999999 0.04999999999999999 0.017811316790928965 0.017811316790928965 0.06827684647822292 0.06827684647822292 0.017811316790928965 0.017811316790928965 
271.00788814520087 0.04999999999999999 0.04999999999999999 0.017811316790928965 0.017811316790928965 0.06827684647822292 0.06827684647822292 0.017811316790928965 0.017811316790928965 
272.009497403702 0.07500000000000002 0.07500000000000002 0.019657416281994654 0.019657416281994654 0.04452585230518196 0.04452585230518196 0.019657416281994654 0.019657416281994654 
273.00788814520087 0.07500000000000002 0.07500000000000002 0.019657416281994654 0.019657416281994654 0.04452585230518196 0.04452585230518196 0.019657416281994654 0.019657416281994654 
274.009497403702 0.07500000000000002 0.07500000000000002 0.020413987147084586 0.020413987147084586 0.06864105625217058 0.06864105625217058 0.020413987147084586 0.020413987147084586 
275.00788814520087 0.07500000000000002 0.07500000000000002 0.020413987147084586 0.020413987147084586 0.06864105625217058 0.06864105625217058 0.020413987147084586 0.020413987147084586 
276.0021019691681 0.07500000000000002 0.07500000000000002 0.01948866678717827 0.01948866678717827 0.04448866678717828 0.04448866678717828 0.01948866678717827 0.01948866678717827 
277.00788814520087 0.07500000000000002 0.07500000000000002 0.01948866678717827 0.01948866678717827 0.04448866678717828 0.04448866678717828 0.01948866678717827 0.01948866678717827 
278.0088620436379 0.04999999999999999 0.04999999999999999 0.002096616361966739 0.002096616361966739 0.07671328316408543 0.07671328316408543 0.027096616361966756 0.027096616361966756 
279.00788814520087 0.04999999999999999 0.04999999999999999 0.002096616361966739 0.002096616361966739 0.07671328316408543 0.07671328316408543 0.027096616361966756 0.027096616361966756 
280.009497403702 0.04999999999999999 0.04999999999999999 0.002096616361966739 0.002096616361966739 0.027096616361966756 0.027096616361966756 0.027096616361966756 0.027096616361966756 
281.00788814520087 0.04999999999999999 0.04999999999999999 0.002096616361966739 0.002096616361966739 0.027096616361966756 0.027096616361966756 0.027096616361966756 0.027096616361966756 
282.009497403702 0.024999999999999994 0.024999999999999994 0.0010498147104340786 0.0010498147104340786 0.05084761053500767 0.05084761053500767 0.05084761053500767 0.05084761053500767 
283.00788814520087 0.024999999999999994 0.024999999999999994 0.0010498147104340786 0.0010498147104340786 0.05084761053500767 0.05084761053500767 0.05084761053500767 0.05084761053500767 
284.009497403702 0.024999999999999994 0.024999999999999994 0.001610872974611044 0.001610872974611044 0.050432148227716266 0.050432148227716266 0.050432148227716266 0.050432148227716266 
285.00788814520087 0.024999999999999994 0.024999999999999994 0.001610872974611044 0.001610872974611044 0.050432148227716266 0.050432148227716266 0.050432148227716266 0.050432148227716266 
286.0021019691681 0.024999999999999994 0.024999999999999994 0.001610872974611044 0.001610872974611044 0.027039519319713358 0.027039519319713358 0.052039519319713345 0.052039519319713345 
287.00788814520087 0.024999999999999994 0.024999999999999994 0.001610872974611044 0.001610872974611044 0.027039519319713358 0.027039519319713358 0.052039519319713345 0.052039519319713345 
288.0088620436379 0.024999999999999994 0.024999999999999994 0.001610872974611044 0.001610872974611044 0.027039519319713358 0.027039519319713358 0.027039519319713358 0.027039519319713358 
289.00788814520087 0.024999999999999994 0.024999999999999994 0.001610872974611044 0.001610872974611044 0.027039519319713358 0.027039519319713358 0.027039519319713358 0.027039519319713358 
290.009497403702 0.024999999999999994 0.024999999999999994 0.001610872974611044 0.001610872974611044 0.027039519319713358 0.027039519319713358 0.027039519319713358 0.027039519319713358 
291.00788814520087 0.024999999999999994 0.024999999999999994 0.001610872974611044 0.001610872974611044 0.027039519319713358 0.027039519319713358 0.027039519319713358 0.027039519319713358 
292.009497403702 0.04999999999999999 0.04999999999999999 0.003288525146672407 0.003288525146672407 0.003288525146672407 0.003288525146672407 0.003288525146672407 0.003288525146672407 
293.00788814520087 0.04999999999999999 0.04999999999999999 0.003288525146672407 0.003288525146672407 0.003288525146672407 0.003288525146672407 0.003288525146672407 0.003288525146672407 
294.009497403702 0.024999999999999988 0.024999999999999988 0.001249005826959042 0.001249005826959042 0.026249005826959042 0.026249005826959042 0.026249005826959042 0.026249005826959042 
295.00788814520087 0.024999999999999988 0.024999999999999988 0.001249005826959042 0.001249005826959042 0.026249005826959042 0.026249005826959042 0.026249005826959042 0.026249005826959042 
296.0021019691681 0.024999999999999988 0.024999999999999988 0.001249005826959042 0.001249005826959042 0.001249005826959042 0.001249005826959042 0.026249005826959042 0.026249005826959042 
297.00788814520087 0.024999999999999988 0.024999999999999988 0.001249005826959042 0.001249005826959042 0.001249005826959042 0.001249005826959042 0.026249005826959042 0.026249005826959042 
298.0088620436379 0.024999999999999988 0.024999999999999988 0.001249005826959042 0.001249005826959042 0.001249005826959042 0.001249005826959042 0.026249005826959042 0.026249005826959042 
299.00788814520087 0.024999999999999988 0.024999999999999988 0.001249005826959042 0.001249005826959042 0.001249005826959042 0.001249005826959042 0.026249005826959042 0.026249005826959042 
300.009497403702 0.024999999999999988 0.024999999999999988 0.001249005826959042 0.001249005826959042 0.024999999999999988 0.024999999999999988 0.026249005826959042 0.026249005826959042 
#####################################################################
# End of data export. Simulation finished at: 2017-02-14T18:07+0000 #
#####################################################################
