#####################################################################
# Alchemist log file - simulation started at: 2017-02-14T17:54+0000 #
#####################################################################
# seed = 24.0
#
# The columns have the following meaning: 
# time go-co-to[Mean] go-co-tsync[Mean] go-cmp-to[Mean] go-cmp-tsync[Mean] flex-co-to[Mean] flex-co-tsync[Mean] flex-cmp-to[Mean] flex-cmp-tsync[Mean] 
0.0 NaN NaN NaN NaN NaN NaN NaN NaN 
1.0056397858974777 NaN NaN NaN NaN NaN NaN NaN NaN 
2.0225305410580736 NaN NaN NaN NaN NaN NaN NaN NaN 
3.004653906346848 NaN NaN NaN NaN NaN NaN NaN NaN 
4.022530541058074 NaN NaN NaN NaN NaN NaN NaN NaN 
5.005639785897477 NaN NaN NaN NaN NaN NaN NaN NaN 
6.022530541058074 NaN NaN NaN NaN NaN NaN NaN NaN 
7.005639785897477 NaN NaN NaN NaN NaN NaN NaN NaN 
8.009421907194989 NaN NaN NaN NaN NaN NaN NaN NaN 
9.005639785897477 NaN NaN NaN NaN NaN NaN NaN NaN 
10.022530541058075 NaN NaN NaN NaN NaN NaN NaN NaN 
11.005639785897477 NaN NaN NaN NaN NaN NaN NaN NaN 
12.022530541058075 NaN NaN NaN NaN NaN NaN NaN NaN 
13.004653906346848 NaN NaN NaN NaN NaN NaN NaN NaN 
14.022530541058075 NaN NaN NaN NaN NaN NaN NaN NaN 
15.005639785897477 NaN NaN NaN NaN NaN NaN NaN NaN 
16.022530541058075 NaN NaN NaN NaN NaN NaN NaN NaN 
17.00563978589748 NaN NaN NaN NaN NaN NaN NaN NaN 
18.00942190719499 NaN NaN NaN NaN NaN NaN NaN NaN 
19.00563978589748 NaN NaN NaN NaN NaN NaN NaN NaN 
20.022530541058075 NaN NaN NaN NaN NaN NaN NaN NaN 
21.00563978589748 1.0 1.0 1.0 1.0 1.0 1.0 1.0 1.0 
22.022530541058075 1.0 1.0 1.0 1.0 1.0 1.0 1.0 1.0 
23.004653906346846 0.9787234042553191 0.9787234042553191 0.9787234042553191 0.9787234042553191 0.9787234042553191 0.9787234042553191 0.9787234042553191 0.9787234042553191 
24.022530541058075 0.9787234042553191 0.9787234042553191 0.9787234042553191 0.9787234042553191 0.9787234042553191 0.9787234042553191 0.9787234042553191 0.9787234042553191 
25.00563978589748 0.9574468085106382 0.9574468085106382 0.9574468085106382 0.9574468085106382 0.9574468085106382 0.9574468085106382 0.9574468085106382 0.9574468085106382 
26.022530541058075 0.9574468085106382 0.9574468085106382 0.9574468085106382 0.9574468085106382 0.9574468085106382 0.9574468085106382 0.9574468085106382 0.9574468085106382 
27.00563978589748 0.9574468085106382 0.9574468085106382 0.9574468085106382 0.9574468085106382 0.9574468085106382 0.9574468085106382 0.9574468085106382 0.9574468085106382 
28.00942190719499 0.9361702127659575 0.9361702127659575 0.9361702127659575 0.9361702127659575 0.9361702127659575 0.9361702127659575 0.9361702127659575 0.9361702127659575 
29.00563978589748 0.9361702127659575 0.9361702127659575 0.9361702127659575 0.9361702127659575 0.9361702127659575 0.9361702127659575 0.9361702127659575 0.9361702127659575 
30.022530541058075 0.9148936170212766 0.9148936170212766 0.9148936170212766 0.9148936170212766 0.9148936170212766 0.9148936170212766 0.9148936170212766 0.9148936170212766 
31.00563978589748 0.9148936170212766 0.9148936170212766 0.9148936170212766 0.9148936170212766 0.9148936170212766 0.9148936170212766 0.9148936170212766 0.9148936170212766 
32.022530541058075 0.8936170212765957 0.8936170212765957 0.8936170212765957 0.8936170212765957 0.8936170212765957 0.8936170212765957 0.8936170212765957 0.8936170212765957 
33.004653906346846 0.8936170212765957 0.8936170212765957 0.8936170212765957 0.8936170212765957 0.8936170212765957 0.8936170212765957 0.8936170212765957 0.8936170212765957 
34.022530541058075 0.8936170212765957 0.8936170212765957 0.8936170212765957 0.8936170212765957 0.8936170212765957 0.8936170212765957 0.8936170212765957 0.8936170212765957 
35.00563978589748 0.8936170212765957 0.8936170212765957 0.8936170212765957 0.8936170212765957 0.8936170212765957 0.8936170212765957 0.8936170212765957 0.8936170212765957 
36.022530541058075 0.8936170212765957 0.8936170212765957 0.8936170212765957 0.8936170212765957 0.8936170212765957 0.8936170212765957 0.8936170212765957 0.8936170212765957 
37.00563978589748 0.8723404255319149 0.8723404255319149 0.8723404255319149 0.8723404255319149 0.8723404255319149 0.8723404255319149 0.8723404255319149 0.8723404255319149 
38.00942190719499 0.8194489939755465 0.8194489939755465 0.8723404255319149 0.8723404255319149 0.8194489939755465 0.8194489939755465 0.8723404255319149 0.8723404255319149 
39.00563978589748 0.760694840933538 0.760694840933538 0.851063829787234 0.851063829787234 0.7707818363784191 0.7707818363784191 0.851063829787234 0.851063829787234 
40.022530541058075 0.7551490536055823 0.7551490536055823 0.8297872340425532 0.8297872340425532 0.7652360490504634 0.7652360490504634 0.8297872340425532 0.8297872340425532 
41.00563978589748 0.7563331451998796 0.7563331451998796 0.8297872340425532 0.8297872340425532 0.7563331451998796 0.7563331451998796 0.8297872340425532 0.8297872340425532 
42.022530541058075 0.7441895453085351 0.7441895453085351 0.8297872340425532 0.8297872340425532 0.737685844819824 0.737685844819824 0.8297872340425532 0.8297872340425532 
43.004653906346846 0.7220051000834987 0.7220051000834987 0.8297872340425532 0.8297872340425532 0.6943630217155967 0.6943630217155967 0.8297872340425532 0.8297872340425532 
44.022530541058075 0.7078766031638638 0.7078766031638638 0.8297872340425532 0.8297872340425532 0.6812008054210438 0.6812008054210438 0.8297872340425532 0.8297872340425532 
45.00563978589748 0.6868677490030345 0.6868677490030345 0.8297872340425532 0.8297872340425532 0.661556629750852 0.661556629750852 0.8297872340425532 0.8297872340425532 
46.022530541058075 0.685321922633596 0.685321922633596 0.8297872340425532 0.8297872340425532 0.6209721491575425 0.6209721491575425 0.8297872340425532 0.8297872340425532 
47.00563978589748 0.7401750202307043 0.7401750202307043 0.8297872340425532 0.8297872340425532 0.6273208125405049 0.6273208125405049 0.8297872340425532 0.8297872340425532 
48.00942190719499 0.6363449796932624 0.6363449796932624 0.7850394054172202 0.7850394054172202 0.567330322703831 0.567330322703831 0.8297872340425532 0.8297872340425532 
49.00563978589748 0.49461111876587716 0.49461111876587716 0.7250714290548393 0.7250714290548393 0.47592623611162954 0.47592623611162954 0.8085106382978723 0.8085106382978723 
50.022530541058075 0.536424948547912 0.536424948547912 0.7294040250714487 0.7294040250714487 0.4711574428071262 0.4711574428071262 0.7669338373577304 0.7669338373577304 
51.00563978589748 0.5932568641861051 0.5932568641861051 0.7263497764668029 0.7263497764668029 0.5047553392140449 0.5047553392140449 0.7087750423671335 0.7087750423671335 
52.022530541058075 0.4823251869765483 0.4823251869765483 0.6770460269330277 0.6770460269330277 0.4330527727952351 0.4330527727952351 0.7099407649562042 0.7099407649562042 
53.004653906346846 0.4038262747012141 0.4038262747012141 0.637032428076735 0.637032428076735 0.3752652499259924 0.3752652499259924 0.7261687533395615 0.7261687533395615 
54.022530541058075 0.42382339047657 0.42382339047657 0.6201497400771333 0.6201497400771333 0.35186009107363614 0.35186009107363614 0.6844948865571957 0.6844948865571957 
55.00563978589748 0.3939038235789724 0.3939038235789724 0.5730644299491944 0.5730644299491944 0.35251915502853665 0.35251915502853665 0.6221922781838376 0.6221922781838376 
56.022530541058075 0.3275781815139053 0.3275781815139053 0.5162171015085182 0.5162171015085182 0.333752482052749 0.333752482052749 0.6341531252601802 0.6341531252601802 
57.00563978589748 0.3629316139076052 0.3629316139076052 0.5531668304418818 0.5531668304418818 0.325251034518226 0.325251034518226 0.6331414470749586 0.6331414470749586 
58.00942190719499 0.32827636144000566 0.32827636144000566 0.5040168611029076 0.5040168611029076 0.33578357615137 0.33578357615137 0.609747630844525 0.609747630844525 
59.00563978589748 0.28810414096253106 0.28810414096253106 0.4532201026257641 0.4532201026257641 0.326834474638708 0.326834474638708 0.6091634010440475 0.6091634010440475 
60.022530541058075 0.31306780627983266 0.31306780627983266 0.46574785835900345 0.46574785835900345 0.36006753147898707 0.36006753147898707 0.6067000602472301 0.6067000602472301 
61.00563978589748 0.31759301651863125 0.31759301651863125 0.4769496844238622 0.4769496844238622 0.37698906573590113 0.37698906573590113 0.5628997372703897 0.5628997372703897 
62.022530541058075 0.2977122193997311 0.2977122193997311 0.3948089135230952 0.3948089135230952 0.36370923754595746 0.36370923754595746 0.5355659460901389 0.5355659460901389 
63.004653906346846 0.29249098663796674 0.29249098663796674 0.37568188598497915 0.37568188598497915 0.36640082063602186 0.36640082063602186 0.5358273016768901 0.5358273016768901 
64.02253054105807 0.22503316957181585 0.22503316957181585 0.3122079403932152 0.3122079403932152 0.35437771930952566 0.35437771930952566 0.46353168162532693 0.46353168162532693 
65.00563978589747 0.23493808482150536 0.23493808482150536 0.30679336895159354 0.30679336895159354 0.3187800064693869 0.3187800064693869 0.43230719681031426 0.43230719681031426 
66.02253054105807 0.25787049343182183 0.25787049343182183 0.2919948480046331 0.2919948480046331 0.2982538414583961 0.2982538414583961 0.416697377510905 0.416697377510905 
67.00563978589747 0.2224480842265911 0.2224480842265911 0.23913080386458727 0.23913080386458727 0.30122442353030937 0.30122442353030937 0.40173314034984225 0.40173314034984225 
68.00942190719499 0.2257111837152341 0.2257111837152341 0.2500404627265664 0.2500404627265664 0.3135374808608515 0.3135374808608515 0.37891843318953183 0.37891843318953183 
69.00563978589747 0.25443315962373714 0.25443315962373714 0.24811884819766789 0.24811884819766789 0.3309078276914872 0.3309078276914872 0.3532391972511634 0.3532391972511634 
70.02253054105807 0.2841151846771059 0.2841151846771059 0.27414842543674645 0.27414842543674645 0.31751820380976353 0.31751820380976353 0.371361097457558 0.371361097457558 
71.00563978589747 0.28436557146878144 0.28436557146878144 0.28978468868131196 0.28978468868131196 0.31839385669057396 0.31839385669057396 0.3774728986278642 0.3774728986278642 
72.02253054105807 0.2898477403374067 0.2898477403374067 0.2958835482669107 0.2958835482669107 0.33388611291516873 0.33388611291516873 0.35192838974768464 0.35192838974768464 
73.00465390634685 0.28122423218893033 0.28122423218893033 0.29128581014736643 0.29128581014736643 0.3338730525763296 0.3338730525763296 0.3534715622304061 0.3534715622304061 
74.02253054105807 0.27380858539340064 0.27380858539340064 0.27470291200920677 0.27470291200920677 0.3324282337499713 0.3324282337499713 0.30564228429182155 0.30564228429182155 
75.00563978589747 0.28225348037498404 0.28225348037498404 0.27262595770453757 0.27262595770453757 0.3325374885899808 0.3325374885899808 0.32304434732920345 0.32304434732920345 
76.02253054105807 0.2923184459263852 0.2923184459263852 0.2750810768376414 0.2750810768376414 0.29745712273376773 0.29745712273376773 0.30498424219670606 0.30498424219670606 
77.00563978589747 0.32302378614006505 0.32302378614006505 0.27530002401516107 0.27530002401516107 0.2783258373425534 0.2783258373425534 0.30905312827126524 0.30905312827126524 
78.00942190719499 0.3421625101406238 0.3421625101406238 0.27487888981243186 0.27487888981243186 0.29925140349107143 0.29925140349107143 0.3203326987344138 0.3203326987344138 
79.00563978589747 0.3364248520810966 0.3364248520810966 0.26378427885780836 0.26378427885780836 0.31166517593654397 0.31166517593654397 0.3152712370890251 0.3152712370890251 
80.02253054105807 0.3883800447255822 0.3883800447255822 0.2740496513457571 0.2740496513457571 0.3270381005483842 0.3270381005483842 0.3475683277389428 0.3475683277389428 
81.00563978589747 0.38823391778428484 0.38823391778428484 0.27335072372649283 0.27335072372649283 0.354695014895978 0.354695014895978 0.34761432110998514 0.34761432110998514 
82.02253054105807 0.359764411038198 0.359764411038198 0.2675061778421743 0.2675061778421743 0.31860330371514906 0.31860330371514906 0.3475916403675362 0.3475916403675362 
83.00465390634685 0.41199460777101665 0.41199460777101665 0.27038274619842806 0.27038274619842806 0.31860330371514906 0.31860330371514906 0.35325833980501037 0.35325833980501037 
84.02253054105807 0.42698905167036727 0.42698905167036727 0.26064063286771166 0.26064063286771166 0.31839623346411566 0.31839623346411566 0.3532327727667697 0.3532327727667697 
85.00563978589747 0.4150520985356092 0.4150520985356092 0.24591575776635713 0.24591575776635713 0.3541826626632985 0.3541826626632985 0.3277976131242713 0.3277976131242713 
86.02253054105807 0.4015397230378565 0.4015397230378565 0.23012501240746674 0.23012501240746674 0.35956781988339614 0.35956781988339614 0.306174719650295 0.306174719650295 
87.00563978589747 0.425163077742748 0.425163077742748 0.22862474658919715 0.22862474658919715 0.36806131704025546 0.36806131704025546 0.3046744538320254 0.3046744538320254 
88.00942190719499 0.46120860834502814 0.46120860834502814 0.2400501505637109 0.2400501505637109 0.38052837232175984 0.38052837232175984 0.3021489611257476 0.3021489611257476 
89.00563978589747 0.43867720127641635 0.43867720127641635 0.2529165907336376 0.2529165907336376 0.4004260398612385 0.4004260398612385 0.3156197289626046 0.3156197289626046 
90.02253054105807 0.45775165032768894 0.45775165032768894 0.2761765063196251 0.2761765063196251 0.44546535263788617 0.44546535263788617 0.3340175065111169 0.3340175065111169 
91.00563978589747 0.4613166033493238 0.4613166033493238 0.31125322990046306 0.31125322990046306 0.4583897253116645 0.4583897253116645 0.3406559584563145 0.3406559584563145 
92.02253054105807 0.4487128206003442 0.4487128206003442 0.3080107303582679 0.3080107303582679 0.4583897253116645 0.4583897253116645 0.3406312951621561 0.3406312951621561 
93.00465390634685 0.4487128206003442 0.4487128206003442 0.2973899447285689 0.2973899447285689 0.45779020085134636 0.45779020085134636 0.3419521173223358 0.3419521173223358 
94.02253054105807 0.4339207071590475 0.4339207071590475 0.3195933122215581 0.3195933122215581 0.4777318371092051 0.4777318371092051 0.34167370514276907 0.34167370514276907 
95.00563978589747 0.4333012160282155 0.4333012160282155 0.340174909185465 0.340174909185465 0.4750081198729694 0.4750081198729694 0.356403451553805 0.356403451553805 
96.02253054105807 0.43136019708386814 0.43136019708386814 0.3037080903291759 0.3037080903291759 0.46699907944133917 0.46699907944133917 0.37474787399752435 0.37474787399752435 
97.00563978589747 0.43136019708386814 0.43136019708386814 0.2997922976618219 0.2997922976618219 0.4777584935491824 0.4777584935491824 0.39759376928429874 0.39759376928429874 
98.00942190719499 0.44651036346309525 0.44651036346309525 0.36062990142523493 0.36062990142523493 0.48717644463624915 0.48717644463624915 0.41146126242114417 0.41146126242114417 
99.00563978589747 0.44621939216021206 0.44621939216021206 0.3379065586315648 0.3379065586315648 0.4651422161678383 0.4651422161678383 0.3904852599627742 0.3904852599627742 
100.02253054105807 0.43237039186005044 0.43237039186005044 0.3610163194628907 0.3610163194628907 0.444374703306737 0.444374703306737 0.4156994256168848 0.4156994256168848 
101.00563978589747 0.43264662796747655 0.43264662796747655 0.40167263354604854 0.40167263354604854 0.409653829769802 0.409653829769802 0.412697447099702 0.412697447099702 
102.02253054105807 0.4329937963257034 0.4329937963257034 0.36251752157483663 0.36251752157483663 0.39415020764056335 0.39415020764056335 0.39523670600455263 0.39523670600455263 
103.00465390634685 0.451653305579026 0.451653305579026 0.3692819368581792 0.3692819368581792 0.3939528669761112 0.3939528669761112 0.39521672272621233 0.39521672272621233 
104.02253054105807 0.44258846477061214 0.44258846477061214 0.3779389954040941 0.3779389954040941 0.3475996297343794 0.3475996297343794 0.39425144366608494 0.39425144366608494 
105.00563978589747 0.43420029555497974 0.43420029555497974 0.3670292833418872 0.3670292833418872 0.29399126763965705 0.29399126763965705 0.4281097123934542 0.4281097123934542 
106.02253054105807 0.4338308065948184 0.4338308065948184 0.3623230379136454 0.3623230379136454 0.2903298332788248 0.2903298332788248 0.4188529137113124 0.4188529137113124 
107.00563978589747 0.4477829722852635 0.4477829722852635 0.39322508476051243 0.39322508476051243 0.2847487277920823 0.2847487277920823 0.41512880632653343 0.41512880632653343 
108.00942190719499 0.4299688636503809 0.4299688636503809 0.38015674484745443 0.38015674484745443 0.24782914235641365 0.24782914235641365 0.40204704173925865 0.40204704173925865 
109.00563978589747 0.42998806973446707 0.42998806973446707 0.402721567262448 0.402721567262448 0.21865757943014072 0.21865757943014072 0.41251640548174046 0.41251640548174046 
110.02253054105807 0.40983469307332426 0.40983469307332426 0.4016683215769274 0.4016683215769274 0.18998491481344412 0.18998491481344412 0.39601201175847733 0.39601201175847733 
111.00563978589747 0.38855809732864344 0.38855809732864344 0.3502865965961216 0.3502865965961216 0.19026511778457664 0.19026511778457664 0.3485591256704591 0.3485591256704591 
112.02253054105807 0.38855809732864344 0.38855809732864344 0.34256889237244204 0.34256889237244204 0.21747000172772263 0.21747000172772263 0.34994800534283005 0.34994800534283005 
113.00465390634685 0.38855809732864344 0.38855809732864344 0.35313290792501245 0.35313290792501245 0.21687459685788052 0.21687459685788052 0.3244200298616693 0.3244200298616693 
114.02253054105807 0.38889750788185984 0.38889750788185984 0.3454871375727898 0.3454871375727898 0.20829003231883989 0.20829003231883989 0.34448128294543884 0.34448128294543884 
115.00563978589747 0.38889750788185984 0.38889750788185984 0.3451752815277857 0.3451752815277857 0.20827388990075585 0.20827388990075585 0.38238478192578235 0.38238478192578235 
116.02253054105807 0.3889240340537811 0.3889240340537811 0.36907106432522246 0.36907106432522246 0.22219727142935725 0.22219727142935725 0.39309961519021525 0.39309961519021525 
117.00563978589747 0.3463708425644194 0.3463708425644194 0.3463708425644194 0.3463708425644194 0.22219674308992574 0.22219674308992574 0.3993509987037598 0.3993509987037598 
118.00942190719499 0.32509424681973853 0.32509424681973853 0.32509424681973853 0.32509424681973853 0.20092014734524485 0.20092014734524485 0.36869885337952446 0.36869885337952446 
119.00563978589747 0.32519324373548 0.32519324373548 0.32519324373548 0.32519324373548 0.22357885930951255 0.22357885930951255 0.34946622994502013 0.34946622994502013 
120.02253054105807 0.30423479466301284 0.30423479466301284 0.30423479466301284 0.30423479466301284 0.241189907458176 0.241189907458176 0.36907438161135864 0.36907438161135864 
121.00563978589747 0.30423479466301284 0.30423479466301284 0.30423479466301284 0.30423479466301284 0.21710052458937737 0.21710052458937737 0.3598807097814259 0.3598807097814259 
122.02253054105807 0.30423479466301284 0.30423479466301284 0.30423479466301284 0.30423479466301284 0.2020039746329607 0.2020039746329607 0.3580971083126766 0.3580971083126766 
123.00465390634685 0.30423479466301284 0.30423479466301284 0.30423479466301284 0.30423479466301284 0.20496471655732557 0.20496471655732557 0.3580971083126766 0.3580971083126766 
124.02253054105807 0.28351447010147807 0.28351447010147807 0.28351447010147807 0.28351447010147807 0.21188395637249735 0.21188395637249735 0.3523060734334125 0.3523060734334125 
125.00563978589747 0.28351447010147807 0.28351447010147807 0.28351447010147807 0.28351447010147807 0.24096570453605792 0.24096570453605792 0.35165112831774975 0.35165112831774975 
126.02253054105807 0.24101605600206397 0.24101605600206397 0.24101605600206397 0.24101605600206397 0.16483589674678703 0.16483589674678703 0.3336920733323499 0.3336920733323499 
127.00563978589747 0.24101605600206397 0.24101605600206397 0.24101605600206397 0.24101605600206397 0.10600277614654774 0.10600277614654774 0.3336920733323499 0.3336920733323499 
128.009421907195 0.24101605600206397 0.24101605600206397 0.24101605600206397 0.24101605600206397 0.11266219296515731 0.11266219296515731 0.31279704906258177 0.31279704906258177 
129.00563978589747 0.22015888155737354 0.22015888155737354 0.22015888155737354 0.22015888155737354 0.12464585112454729 0.12464585112454729 0.33284727967889044 0.33284727967889044 
130.02253054105807 0.1993794165668287 0.1993794165668287 0.1993794165668287 0.1993794165668287 0.12198584642781371 0.12198584642781371 0.32403160511273 0.32403160511273 
131.00563978589747 0.1993794165668287 0.1993794165668287 0.1993794165668287 0.1993794165668287 0.13722230087593332 0.13722230087593332 0.346319935043438 0.346319935043438 
132.02253054105807 0.1993794165668287 0.1993794165668287 0.1993794165668287 0.1993794165668287 0.14137126116415424 0.14137126116415424 0.35980302408637754 0.35980302408637754 
133.00465390634685 0.1993794165668287 0.1993794165668287 0.1993794165668287 0.1993794165668287 0.14140353871115469 0.14140353871115469 0.35980302408637754 0.35980302408637754 
134.02253054105807 0.20044036606954377 0.20044036606954377 0.20044036606954377 0.20044036606954377 0.13704617268560088 0.13704617268560088 0.36730053900141135 0.36730053900141135 
135.00563978589747 0.20044036606954377 0.20044036606954377 0.20044036606954377 0.20044036606954377 0.1331299643907974 0.1331299643907974 0.36703029915108654 0.36703029915108654 
136.02253054105807 0.20067292836166664 0.20067292836166664 0.20067292836166664 0.20067292836166664 0.13300231340111 0.13300231340111 0.3244771076617249 0.3244771076617249 
137.00563978589747 0.20067292836166664 0.20067292836166664 0.20067292836166664 0.20067292836166664 0.1351674832206909 0.1351674832206909 0.30320051191704395 0.30320051191704395 
138.009421907195 0.20067292836166664 0.20067292836166664 0.20067292836166664 0.20067292836166664 0.13433715239005722 0.13433715239005722 0.30320051191704395 0.30320051191704395 
139.00563978589747 0.19930739770599487 0.19930739770599487 0.19930739770599487 0.19930739770599487 0.14796364708342444 0.14796364708342444 0.28192391617236306 0.28192391617236306 
140.02253054105807 0.20009678810187995 0.20009678810187995 0.20009678810187995 0.20009678810187995 0.14609655010180508 0.14609655010180508 0.2792674287948587 0.2792674287948587 
141.00563978589747 0.20009678810187995 0.20009678810187995 0.20009678810187995 0.20009678810187995 0.15440814829674937 0.15440814829674937 0.28555723560233714 0.28555723560233714 
142.02253054105807 0.20009678810187995 0.20009678810187995 0.20009678810187995 0.20009678810187995 0.1544735092570836 0.1544735092570836 0.28555723560233714 0.28555723560233714 
143.00465390634685 0.20009678810187995 0.20009678810187995 0.20009678810187995 0.20009678810187995 0.1332990794032123 0.1332990794032123 0.28555723560233714 0.28555723560233714 
144.02253054105807 0.19980465621273583 0.19980465621273583 0.19980465621273583 0.19980465621273583 0.13300694751406816 0.13300694751406816 0.2642806398576563 0.2642806398576563 
145.00563978589747 0.17852806046805497 0.17852806046805497 0.17852806046805497 0.17852806046805497 0.15209605729767384 0.15209605729767384 0.2370401244905594 0.2370401244905594 
146.02253054105807 0.17728206678206784 0.17728206678206784 0.17728206678206784 0.17728206678206784 0.15346541403922148 0.15346541403922148 0.2157635287458786 0.2157635287458786 
147.00563978589747 0.17728206678206784 0.17728206678206784 0.17728206678206784 0.17728206678206784 0.13421030938580591 0.13421030938580591 0.2157635287458786 0.2157635287458786 
148.009421907195 0.17728206678206784 0.17728206678206784 0.17728206678206784 0.17728206678206784 0.1350849669385012 0.1350849669385012 0.2157635287458786 0.2157635287458786 
149.00563978589747 0.17728206678206784 0.17728206678206784 0.17728206678206784 0.17728206678206784 0.13664820643878672 0.13664820643878672 0.21906235758763237 0.21906235758763237 
150.02253054105807 0.1774336661436024 0.1774336661436024 0.1774336661436024 0.1774336661436024 0.13640627888432752 0.13640627888432752 0.21866122439471142 0.21866122439471142 
151.00563978589747 0.1774336661436024 0.1774336661436024 0.1774336661436024 0.1774336661436024 0.13640627888432752 0.13640627888432752 0.21866122439471142 0.21866122439471142 
152.02253054105807 0.1774336661436024 0.1774336661436024 0.1774336661436024 0.1774336661436024 0.13662326038644687 0.13662326038644687 0.21866122439471142 0.21866122439471142 
153.00465390634685 0.1774336661436024 0.1774336661436024 0.1774336661436024 0.1774336661436024 0.13684127851195835 0.13684127851195835 0.21866122439471142 0.21866122439471142 
154.02253054105807 0.17551347545049642 0.17551347545049642 0.17551347545049642 0.17551347545049642 0.13492108781885231 0.13492108781885231 0.21866122439471142 0.21866122439471142 
155.00563978589747 0.17551347545049642 0.17551347545049642 0.17551347545049642 0.17551347545049642 0.12384218775333701 0.12384218775333701 0.21583181284685277 0.21583181284685277 
156.02253054105807 0.18093404048305645 0.18093404048305645 0.18093404048305645 0.18093404048305645 0.10256559200865618 0.10256559200865618 0.21583181284685277 0.21583181284685277 
157.00563978589747 0.18093404048305645 0.18093404048305645 0.18093404048305645 0.18093404048305645 0.10256559200865618 0.10256559200865618 0.21583181284685277 0.21583181284685277 
158.009421907195 0.1756345156927564 0.1756345156927564 0.1756345156927564 0.1756345156927564 0.10395733503361156 0.10395733503361156 0.21583181284685277 0.21583181284685277 
159.00563978589747 0.1756345156927564 0.1756345156927564 0.1756345156927564 0.1756345156927564 0.06870827952735124 0.06870827952735124 0.21053686226460097 0.21053686226460097 
160.02253054105807 0.17575685294352802 0.17575685294352802 0.17575685294352802 0.17575685294352802 0.06841974609128168 0.06841974609128168 0.21012599157775974 0.21012599157775974 
161.00563978589747 0.17575685294352802 0.17575685294352802 0.17575685294352802 0.17575685294352802 0.06841974609128168 0.06841974609128168 0.21012599157775974 0.21012599157775974 
162.02253054105807 0.17575685294352802 0.17575685294352802 0.17575685294352802 0.17575685294352802 0.07008970319419854 0.07008970319419854 0.21012599157775974 0.21012599157775974 
163.00465390634685 0.17575685294352802 0.17575685294352802 0.17575685294352802 0.17575685294352802 0.07150586897030224 0.07150586897030224 0.21012599157775974 0.21012599157775974 
164.02253054105807 0.17559665153435441 0.17559665153435441 0.17559665153435441 0.17559665153435441 0.07134566756112863 0.07134566756112863 0.21012599157775974 0.21012599157775974 
165.00563978589747 0.17559665153435441 0.17559665153435441 0.17559665153435441 0.17559665153435441 0.07707521282863267 0.07707521282863267 0.21502350647635676 0.21502350647635676 
166.02253054105807 0.17559665153435441 0.17559665153435441 0.17559665153435441 0.17559665153435441 0.07707521282863267 0.07707521282863267 0.21502350647635676 0.21502350647635676 
167.00563978589747 0.17559665153435441 0.17559665153435441 0.17559665153435441 0.17559665153435441 0.07707521282863267 0.07707521282863267 0.21502350647635676 0.21502350647635676 
168.009421907195 0.2159242402017215 0.2159242402017215 0.2159242402017215 0.2159242402017215 0.0795992242993309 0.0795992242993309 0.19518287926488206 0.19518287926488206 
169.00563978589747 0.2159242402017215 0.2159242402017215 0.2159242402017215 0.2159242402017215 0.07986967126793597 0.07986967126793597 0.19518287926488206 0.19518287926488206 
170.02253054105807 0.23404255319148928 0.23404255319148928 0.23404255319148928 0.23404255319148928 0.09697525001422365 0.09697525001422365 0.1772678596539085 0.1772678596539085 
171.00563978589747 0.23404255319148928 0.23404255319148928 0.23404255319148928 0.23404255319148928 0.09697525001422365 0.09697525001422365 0.1772678596539085 0.1772678596539085 
172.02253054105807 0.23404255319148928 0.23404255319148928 0.23404255319148928 0.23404255319148928 0.09617917001748826 0.09617917001748826 0.1772678596539085 0.1772678596539085 
173.00465390634685 0.23404255319148928 0.23404255319148928 0.23404255319148928 0.23404255319148928 0.09567703752514926 0.09567703752514926 0.1772678596539085 0.1772678596539085 
174.02253054105807 0.21276595744680848 0.21276595744680848 0.21276595744680848 0.21276595744680848 0.09926171361354827 0.09926171361354827 0.1559912639092277 0.1559912639092277 
175.00563978589747 0.21276595744680848 0.21276595744680848 0.21276595744680848 0.21276595744680848 0.11063352789273664 0.11063352789273664 0.1556095492248847 0.1556095492248847 
176.02253054105807 0.21276595744680848 0.21276595744680848 0.21276595744680848 0.21276595744680848 0.08624441640772565 0.08624441640772565 0.1556095492248847 0.1556095492248847 
177.00563978589747 0.21276595744680848 0.21276595744680848 0.21276595744680848 0.21276595744680848 0.07657456664047527 0.07657456664047527 0.1556095492248847 0.1556095492248847 
178.009421907195 0.21276595744680848 0.21276595744680848 0.21276595744680848 0.21276595744680848 0.10235940864241301 0.10235940864241301 0.1556095492248847 0.1556095492248847 
179.00563978589747 0.21276595744680848 0.21276595744680848 0.21276595744680848 0.21276595744680848 0.11216274584511786 0.11216274584511786 0.1556095492248847 0.1556095492248847 
180.02253054105807 0.21276595744680848 0.21276595744680848 0.21276595744680848 0.21276595744680848 0.11294316472497683 0.11294316472497683 0.1563899681047437 0.1563899681047437 
181.00563978589747 0.21276595744680848 0.21276595744680848 0.21276595744680848 0.21276595744680848 0.11294316472497683 0.11294316472497683 0.1563899681047437 0.1563899681047437 
182.02253054105807 0.21276595744680848 0.21276595744680848 0.21276595744680848 0.21276595744680848 0.11400063141240326 0.11400063141240326 0.1563899681047437 0.1563899681047437 
183.00465390634685 0.21276595744680848 0.21276595744680848 0.21276595744680848 0.21276595744680848 0.10313930738342661 0.10313930738342661 0.1563899681047437 0.1563899681047437 
184.02253054105807 0.21276595744680848 0.21276595744680848 0.21276595744680848 0.21276595744680848 0.09069181825061357 0.09069181825061357 0.1563899681047437 0.1563899681047437 
185.00563978589747 0.21276595744680848 0.21276595744680848 0.21276595744680848 0.21276595744680848 0.09189997646202644 0.09189997646202644 0.15606511707545528 0.15606511707545528 
186.02253054105807 0.21276595744680848 0.21276595744680848 0.21276595744680848 0.21276595744680848 0.09189997646202644 0.09189997646202644 0.15606511707545528 0.15606511707545528 
187.00563978589747 0.21276595744680848 0.21276595744680848 0.21276595744680848 0.21276595744680848 0.09189997646202644 0.09189997646202644 0.15606511707545528 0.15606511707545528 
188.009421907195 0.21276595744680848 0.21276595744680848 0.21276595744680848 0.21276595744680848 0.09228248747834816 0.09228248747834816 0.15606511707545528 0.15606511707545528 
189.00563978589747 0.21276595744680848 0.21276595744680848 0.21276595744680848 0.21276595744680848 0.08853981013998176 0.08853981013998176 0.15606511707545528 0.15606511707545528 
190.02253054105807 0.19148936170212771 0.19148936170212771 0.19148936170212771 0.19148936170212771 0.10019071621667557 0.10019071621667557 0.16771602315214915 0.16771602315214915 
191.00563978589747 0.19148936170212771 0.19148936170212771 0.19148936170212771 0.19148936170212771 0.10019071621667557 0.10019071621667557 0.16771602315214915 0.16771602315214915 
192.02253054105807 0.19148936170212771 0.19148936170212771 0.19148936170212771 0.19148936170212771 0.09998203610489681 0.09998203610489681 0.16771602315214915 0.16771602315214915 
193.00465390634685 0.19148936170212771 0.19148936170212771 0.19148936170212771 0.19148936170212771 0.09963114293067224 0.09963114293067224 0.16771602315214915 0.16771602315214915 
194.02253054105807 0.19148936170212771 0.19148936170212771 0.19148936170212771 0.19148936170212771 0.07835454718599136 0.07835454718599136 0.16771602315214915 0.16771602315214915 
195.00563978589747 0.19148936170212771 0.19148936170212771 0.19148936170212771 0.19148936170212771 0.07787920572789463 0.07787920572789463 0.16738329410729888 0.16738329410729888 
196.02253054105807 0.19148936170212771 0.19148936170212771 0.19148936170212771 0.19148936170212771 0.07787920572789463 0.07787920572789463 0.16738329410729888 0.16738329410729888 
197.00563978589747 0.19148936170212771 0.19148936170212771 0.19148936170212771 0.19148936170212771 0.07787920572789463 0.07787920572789463 0.16738329410729888 0.16738329410729888 
198.009421907195 0.19148936170212771 0.19148936170212771 0.19148936170212771 0.19148936170212771 0.07867416978474528 0.07867416978474528 0.16738329410729888 0.16738329410729888 
199.00563978589747 0.1811619318607387 0.1811619318607387 0.19148936170212771 0.19148936170212771 0.0764816731982653 0.0764816731982653 0.16738329410729888 0.16738329410729888 
200.02253054105807 0.15988533611605785 0.15988533611605785 0.17021276595744683 0.17021276595744683 0.09119876114907874 0.09119876114907874 0.18210038205811233 0.18210038205811233 
201.00563978589747 0.15988533611605785 0.15988533611605785 0.17021276595744683 0.17021276595744683 0.09119876114907874 0.09119876114907874 0.18210038205811233 0.18210038205811233 
202.02253054105807 0.15988533611605785 0.15988533611605785 0.17021276595744683 0.17021276595744683 0.09035570699502238 0.09035570699502238 0.18210038205811233 0.18210038205811233 
203.00465390634685 0.15988533611605785 0.15988533611605785 0.17021276595744683 0.17021276595744683 0.0998196333227751 0.0998196333227751 0.18210038205811233 0.18210038205811233 
204.02253054105807 0.15988533611605785 0.15988533611605785 0.17021276595744683 0.17021276595744683 0.11108964738241575 0.11108964738241575 0.18210038205811233 0.18210038205811233 
205.00563978589747 0.14893617021276592 0.14893617021276592 0.14893617021276592 0.14893617021276592 0.11743075202071021 0.11743075202071021 0.17115121615482048 0.17115121615482048 
206.02253054105807 0.14893617021276592 0.14893617021276592 0.14893617021276592 0.14893617021276592 0.11743075202071021 0.11743075202071021 0.17115121615482048 0.17115121615482048 
207.00563978589747 0.14893617021276592 0.14893617021276592 0.14893617021276592 0.14893617021276592 0.11743075202071021 0.11743075202071021 0.17115121615482048 0.17115121615482048 
208.009421907195 0.14893617021276592 0.14893617021276592 0.14893617021276592 0.14893617021276592 0.11743075202071021 0.11743075202071021 0.17115121615482048 0.17115121615482048 
209.00563978589747 0.14893617021276592 0.14893617021276592 0.14893617021276592 0.14893617021276592 0.11806842094195551 0.11806842094195551 0.17115121615482048 0.17115121615482048 
210.02253054105807 0.14893617021276592 0.14893617021276592 0.14893617021276592 0.14893617021276592 0.09715372664590469 0.09715372664590469 0.15023652185876968 0.15023652185876968 
211.00563978589747 0.14893617021276592 0.14893617021276592 0.14893617021276592 0.14893617021276592 0.09715372664590469 0.09715372664590469 0.15023652185876968 0.15023652185876968 
212.02253054105807 0.14893617021276592 0.14893617021276592 0.14893617021276592 0.14893617021276592 0.09594878939174027 0.09594878939174027 0.15023652185876968 0.15023652185876968 
213.00465390634685 0.14893617021276592 0.14893617021276592 0.14893617021276592 0.14893617021276592 0.09500816523650378 0.09500816523650378 0.15023652185876968 0.15023652185876968 
214.02253054105807 0.1289599261140888 0.1289599261140888 0.14893617021276592 0.14893617021276592 0.09500816523650378 0.09500816523650378 0.15023652185876968 0.15023652185876968 
215.00563978589747 0.1289599261140888 0.1289599261140888 0.14893617021276592 0.14893617021276592 0.08404283434181263 0.08404283434181263 0.15023652185876968 0.15023652185876968 
216.02253054105807 0.1289599261140888 0.1289599261140888 0.14893617021276592 0.14893617021276592 0.08404283434181263 0.08404283434181263 0.15023652185876968 0.15023652185876968 
217.00563978589747 0.1289599261140888 0.1289599261140888 0.14893617021276592 0.14893617021276592 0.08404283434181263 0.08404283434181263 0.15023652185876968 0.15023652185876968 
218.009421907195 0.1289599261140888 0.1289599261140888 0.14893617021276592 0.14893617021276592 0.07373010888357304 0.07373010888357304 0.15023652185876968 0.15023652185876968 
219.00563978589747 0.0864067346247271 0.0864067346247271 0.10638297872340424 0.10638297872340424 0.06246412906308615 0.06246412906308615 0.10768333036940794 0.10768333036940794 
220.02253054105807 0.08510638297872343 0.08510638297872343 0.08510638297872343 0.08510638297872343 0.03988718167240162 0.03988718167240162 0.10638297872340424 0.10638297872340424 
221.00563978589747 0.08510638297872343 0.08510638297872343 0.08510638297872343 0.08510638297872343 0.03988718167240162 0.03988718167240162 0.10638297872340424 0.10638297872340424 
222.02253054105807 0.06382978723404256 0.06382978723404256 0.06382978723404256 0.06382978723404256 0.0611359124025254 0.0611359124025254 0.08510638297872343 0.08510638297872343 
223.00465390634685 0.042553191489361715 0.042553191489361715 0.042553191489361715 0.042553191489361715 0.061132042856513594 0.061132042856513594 0.06382978723404256 0.06382978723404256 
224.02253054105807 0.042553191489361715 0.042553191489361715 0.042553191489361715 0.042553191489361715 0.061132042856513594 0.061132042856513594 0.06382978723404256 0.06382978723404256 
225.00563978589747 0.042553191489361715 0.042553191489361715 0.042553191489361715 0.042553191489361715 0.058386766409452256 0.058386766409452256 0.06382978723404256 0.06382978723404256 
226.02253054105807 0.042553191489361715 0.042553191489361715 0.042553191489361715 0.042553191489361715 0.058386766409452256 0.058386766409452256 0.06382978723404256 0.06382978723404256 
227.00563978589747 0.042553191489361715 0.042553191489361715 0.042553191489361715 0.042553191489361715 0.058386766409452256 0.058386766409452256 0.06382978723404256 0.06382978723404256 
228.009421907195 0.042553191489361715 0.042553191489361715 0.042553191489361715 0.042553191489361715 0.0581917673282807 0.0581917673282807 0.06382978723404256 0.06382978723404256 
229.00563978589747 0.042553191489361715 0.042553191489361715 0.042553191489361715 0.042553191489361715 0.0581917673282807 0.0581917673282807 0.06382978723404256 0.06382978723404256 
230.02253054105807 0.042553191489361715 0.042553191489361715 0.042553191489361715 0.042553191489361715 0.0581917673282807 0.0581917673282807 0.06382978723404256 0.06382978723404256 
231.00563978589747 0.042553191489361715 0.042553191489361715 0.042553191489361715 0.042553191489361715 0.0581917673282807 0.0581917673282807 0.06382978723404256 0.06382978723404256 
232.02253054105807 0.042553191489361715 0.042553191489361715 0.042553191489361715 0.042553191489361715 0.0581917673282807 0.0581917673282807 0.06382978723404256 0.06382978723404256 
233.00465390634685 0.042553191489361715 0.042553191489361715 0.042553191489361715 0.042553191489361715 0.0581917673282807 0.0581917673282807 0.06382978723404256 0.06382978723404256 
234.02253054105807 0.042553191489361715 0.042553191489361715 0.042553191489361715 0.042553191489361715 0.0581917673282807 0.0581917673282807 0.06382978723404256 0.06382978723404256 
235.00563978589747 0.042553191489361715 0.042553191489361715 0.042553191489361715 0.042553191489361715 0.07459865843931225 0.07459865843931225 0.06382978723404256 0.06382978723404256 
236.02253054105807 0.042553191489361715 0.042553191489361715 0.042553191489361715 0.042553191489361715 0.07459865843931225 0.07459865843931225 0.06382978723404256 0.06382978723404256 
237.00563978589747 0.042553191489361715 0.042553191489361715 0.042553191489361715 0.042553191489361715 0.053322062694631425 0.053322062694631425 0.06382978723404256 0.06382978723404256 
238.009421907195 0.042553191489361715 0.042553191489361715 0.042553191489361715 0.042553191489361715 0.06382978723404256 0.06382978723404256 0.06382978723404256 0.06382978723404256 
239.00563978589747 0.042553191489361715 0.042553191489361715 0.042553191489361715 0.042553191489361715 0.06382978723404256 0.06382978723404256 0.06382978723404256 0.06382978723404256 
240.02253054105807 0.042553191489361715 0.042553191489361715 0.042553191489361715 0.042553191489361715 0.042553191489361715 0.042553191489361715 0.042553191489361715 0.042553191489361715 
241.00563978589747 0.042553191489361715 0.042553191489361715 0.042553191489361715 0.042553191489361715 0.042553191489361715 0.042553191489361715 0.042553191489361715 0.042553191489361715 
242.02253054105807 0.042553191489361715 0.042553191489361715 0.042553191489361715 0.042553191489361715 0.042553191489361715 0.042553191489361715 0.042553191489361715 0.042553191489361715 
243.00465390634685 0.042553191489361715 0.042553191489361715 0.042553191489361715 0.042553191489361715 0.042553191489361715 0.042553191489361715 0.042553191489361715 0.042553191489361715 
244.02253054105807 0.042553191489361715 0.042553191489361715 0.042553191489361715 0.042553191489361715 0.032196784377639315 0.032196784377639315 0.042553191489361715 0.042553191489361715 
245.00563978589747 0.021276595744680857 0.021276595744680857 0.021276595744680857 0.021276595744680857 0.010920188632958452 0.010920188632958452 0.021276595744680857 0.021276595744680857 
246.02253054105807 0.021276595744680857 0.021276595744680857 0.021276595744680857 0.021276595744680857 0.010920188632958452 0.010920188632958452 0.021276595744680857 0.021276595744680857 
247.00563978589747 0.021276595744680857 0.021276595744680857 0.021276595744680857 0.021276595744680857 0.010920188632958452 0.010920188632958452 0.021276595744680857 0.021276595744680857 
248.009421907195 0.021276595744680857 0.021276595744680857 0.021276595744680857 0.021276595744680857 0.00837497134207586 0.00837497134207586 0.021276595744680857 0.021276595744680857 
249.00563978589747 0.021276595744680857 0.021276595744680857 0.021276595744680857 0.021276595744680857 0.00837497134207586 0.00837497134207586 0.021276595744680857 0.021276595744680857 
250.02253054105807 0.021276595744680857 0.021276595744680857 0.021276595744680857 0.021276595744680857 0.00837497134207586 0.00837497134207586 0.021276595744680857 0.021276595744680857 
251.00563978589747 0.021276595744680857 0.021276595744680857 0.021276595744680857 0.021276595744680857 0.00837497134207586 0.00837497134207586 0.021276595744680857 0.021276595744680857 
252.02253054105807 0.021276595744680857 0.021276595744680857 0.021276595744680857 0.021276595744680857 0.00837497134207586 0.00837497134207586 0.021276595744680857 0.021276595744680857 
253.00465390634685 0.021276595744680857 0.021276595744680857 0.021276595744680857 0.021276595744680857 0.00837497134207586 0.00837497134207586 0.021276595744680857 0.021276595744680857 
254.02253054105807 0.021276595744680857 0.021276595744680857 0.021276595744680857 0.021276595744680857 0.00837497134207586 0.00837497134207586 0.021276595744680857 0.021276595744680857 
255.00563978589747 0.021276595744680857 0.021276595744680857 0.021276595744680857 0.021276595744680857 0.00837497134207586 0.00837497134207586 0.021276595744680857 0.021276595744680857 
256.0225305410581 0.021276595744680857 0.021276595744680857 0.021276595744680857 0.021276595744680857 0.00837497134207586 0.00837497134207586 0.021276595744680857 0.021276595744680857 
257.0056397858975 0.021276595744680857 0.021276595744680857 0.021276595744680857 0.021276595744680857 0.00837497134207586 0.00837497134207586 0.021276595744680857 0.021276595744680857 
258.009421907195 0.021276595744680857 0.021276595744680857 0.021276595744680857 0.021276595744680857 0.005177678725450352 0.005177678725450352 0.021276595744680857 0.021276595744680857 
259.0056397858975 0.021276595744680857 0.021276595744680857 0.021276595744680857 0.021276595744680857 0.005177678725450352 0.005177678725450352 0.021276595744680857 0.021276595744680857 
260.0225305410581 0.021276595744680857 0.021276595744680857 0.021276595744680857 0.021276595744680857 0.005177678725450352 0.005177678725450352 0.021276595744680857 0.021276595744680857 
261.0056397858975 0.021276595744680857 0.021276595744680857 0.021276595744680857 0.021276595744680857 0.005177678725450352 0.005177678725450352 0.021276595744680857 0.021276595744680857 
262.0225305410581 0.021276595744680857 0.021276595744680857 0.021276595744680857 0.021276595744680857 0.005177678725450352 0.005177678725450352 0.021276595744680857 0.021276595744680857 
263.00465390634685 0.021276595744680857 0.021276595744680857 0.021276595744680857 0.021276595744680857 0.005177678725450352 0.005177678725450352 0.021276595744680857 0.021276595744680857 
264.0225305410581 0.021276595744680857 0.021276595744680857 0.021276595744680857 0.021276595744680857 0.005177678725450352 0.005177678725450352 0.021276595744680857 0.021276595744680857 
265.0056397858975 0.021276595744680857 0.021276595744680857 0.021276595744680857 0.021276595744680857 0.005177678725450352 0.005177678725450352 0.021276595744680857 0.021276595744680857 
266.0225305410581 0.021276595744680857 0.021276595744680857 0.021276595744680857 0.021276595744680857 0.005177678725450352 0.005177678725450352 0.021276595744680857 0.021276595744680857 
267.0056397858975 0.021276595744680857 0.021276595744680857 0.021276595744680857 0.021276595744680857 0.005177678725450352 0.005177678725450352 0.021276595744680857 0.021276595744680857 
268.009421907195 0.021276595744680857 0.021276595744680857 0.021276595744680857 0.021276595744680857 0.0039220294072033314 0.0039220294072033314 0.021276595744680857 0.021276595744680857 
269.0056397858975 0.021276595744680857 0.021276595744680857 0.021276595744680857 0.021276595744680857 0.0039220294072033314 0.0039220294072033314 0.021276595744680857 0.021276595744680857 
270.0225305410581 0.021276595744680857 0.021276595744680857 0.021276595744680857 0.021276595744680857 0.0039220294072033314 0.0039220294072033314 0.021276595744680857 0.021276595744680857 
271.0056397858975 0.021276595744680857 0.021276595744680857 0.021276595744680857 0.021276595744680857 0.0039220294072033314 0.0039220294072033314 0.021276595744680857 0.021276595744680857 
272.0225305410581 0.021276595744680857 0.021276595744680857 0.021276595744680857 0.021276595744680857 0.0039220294072033314 0.0039220294072033314 0.021276595744680857 0.021276595744680857 
273.00465390634685 0.021276595744680857 0.021276595744680857 0.021276595744680857 0.021276595744680857 0.0039220294072033314 0.0039220294072033314 0.021276595744680857 0.021276595744680857 
274.0225305410581 0.021276595744680857 0.021276595744680857 0.021276595744680857 0.021276595744680857 0.0039220294072033314 0.0039220294072033314 0.021276595744680857 0.021276595744680857 
275.0056397858975 0.021276595744680857 0.021276595744680857 0.021276595744680857 0.021276595744680857 0.0039220294072033314 0.0039220294072033314 0.021276595744680857 0.021276595744680857 
276.0225305410581 0.021276595744680857 0.021276595744680857 0.021276595744680857 0.021276595744680857 0.0039220294072033314 0.0039220294072033314 0.021276595744680857 0.021276595744680857 
277.0056397858975 0.021276595744680857 0.021276595744680857 0.021276595744680857 0.021276595744680857 0.0039220294072033314 0.0039220294072033314 0.021276595744680857 0.021276595744680857 
278.009421907195 0.0 0.0 0.0 0.0 0.021276595744680857 0.021276595744680857 0.0 0.0 
279.0056397858975 0.0 0.0 0.0 0.0 0.021276595744680857 0.021276595744680857 0.0 0.0 
280.0225305410581 0.0 0.0 0.0 0.0 0.021276595744680857 0.021276595744680857 0.0 0.0 
281.0056397858975 0.0 0.0 0.0 0.0 0.021276595744680857 0.021276595744680857 0.0 0.0 
282.0225305410581 0.0 0.0 0.0 0.0 0.021276595744680857 0.021276595744680857 0.0 0.0 
283.00465390634685 0.0 0.0 0.0 0.0 0.021276595744680857 0.021276595744680857 0.0 0.0 
284.0225305410581 0.0 0.0 0.0 0.0 0.021276595744680857 0.021276595744680857 0.0 0.0 
285.0056397858975 0.0 0.0 0.0 0.0 0.021276595744680857 0.021276595744680857 0.0 0.0 
286.0225305410581 0.0 0.0 0.0 0.0 0.021276595744680857 0.021276595744680857 0.0 0.0 
287.0056397858975 0.0 0.0 0.0 0.0 0.021276595744680857 0.021276595744680857 0.0 0.0 
288.009421907195 0.0 0.0 0.0 0.0 0.0 0.0 0.0 0.0 
289.0056397858975 0.0 0.0 0.0 0.0 0.0 0.0 0.0 0.0 
290.0225305410581 0.0 0.0 0.0 0.0 0.0 0.0 0.0 0.0 
291.0056397858975 0.0 0.0 0.0 0.0 0.0 0.0 0.0 0.0 
292.0225305410581 0.0 0.0 0.0 0.0 0.0 0.0 0.0 0.0 
293.00465390634685 0.0 0.0 0.0 0.0 0.0 0.0 0.0 0.0 
294.0225305410581 0.0 0.0 0.0 0.0 0.0 0.0 0.0 0.0 
295.0056397858975 0.0 0.0 0.0 0.0 0.0 0.0 0.0 0.0 
296.0225305410581 0.0 0.0 0.0 0.0 0.0 0.0 0.0 0.0 
297.0056397858975 0.0 0.0 0.0 0.0 0.0 0.0 0.0 0.0 
298.009421907195 0.0 0.0 0.0 0.0 0.0 0.0 0.0 0.0 
299.0056397858975 0.0 0.0 0.0 0.0 0.0 0.0 0.0 0.0 
300.0225305410581 0.0 0.0 0.0 0.0 0.0 0.0 0.0 0.0 
#####################################################################
# End of data export. Simulation finished at: 2017-02-14T18:07+0000 #
#####################################################################
